<?xml version="1.0" encoding="UTF-8"?>

<svg version             = "1.2"
     baseProfile         = "full"
     width               = "1200px"
     height              = "800px"
     viewBox             = "412.5000000000001 -64.9519052838329 2475.0 909.3266739736607"
     preserveAspectRatio = "xMidYMid meet"
     viewport-fill       = "white"
     xmlns               = "http://www.w3.org/2000/svg">

    
    <!--  Render window is: [-112.5, -64.9519052838329] to [3412.5, 844.3747686898278] -->
    

    
    <!--  Render viewport is: [0, 0] to [1200, 800] -->
    

    
    <!-- Useable viewport is: [0, 0] to [1200, 800] -->
    

    
    <!-- Clip box is: [412.5000000000001, -64.9519052838329] to [2887.5, 844.3747686898278] -->
    

    <desc>description text here</desc>

    

    
    <clipPath id="lattice">
      <rect x            = "412.5000000000001"
            y            = "-64.9519052838329"
            width        = "2475.0"
            height       = "909.3266739736607"/>
    </clipPath>
    

    <g clip-path       = "url(#lattice)"
       vector-effect   = "non-scaling-stroke"
       color-rendering = "optimizeQuality"
       shape-rendering = "geometricPrecision">

      


      <polygon points       = "2887.5 -64.9519052838329  2887.5 844.3747686898278  412.5000000000001 844.3747686898278  412.5000000000001 -64.9519052838329  "
               stroke                   = "none"
               stroke-width       = "0"
               
               
               
               fill                       = "#FAFAFA"
               
      />










      <path d            = "M-62.499999999999986,21.650635094610976 C12.500000000000014,-21.65063509461097 -112.5,-64.9519052838329 37.5,-64.9519052838329  "
      stroke                   = "#171717"
      stroke-width       = "1.4pt"
      
      stroke-linecap   = "round"
      stroke-linejoin = "round"
      fill                       = "none"
      
      />









      <path d            = "M212.5,-21.650635094610976 C137.5,21.65063509461097 262.5,64.9519052838329 112.5,64.9519052838329  "
      stroke                   = "#171717"
      stroke-width       = "1.4pt"
      
      stroke-linecap   = "round"
      stroke-linejoin = "round"
      fill                       = "none"
      
      />









      <path d            = "M12.500000000000028,151.55444566227678 C87.50000000000003,108.25317547305482 -37.499999999999986,64.9519052838329 112.50000000000001,64.9519052838329  "
      stroke                   = "#171717"
      stroke-width       = "1.4pt"
      
      stroke-linecap   = "round"
      stroke-linejoin = "round"
      fill                       = "none"
      
      />









      <path d            = "M287.5,108.25317547305482 C212.5,151.55444566227678 337.5,194.8557158514987 187.5,194.8557158514987  "
      stroke                   = "#171717"
      stroke-width       = "1.4pt"
      
      stroke-linecap   = "round"
      stroke-linejoin = "round"
      fill                       = "none"
      
      />









      <path d            = "M87.50000000000004,281.45825622994255 C162.50000000000006,238.15698604072062 37.50000000000003,194.8557158514987 187.50000000000003,194.8557158514987  "
      stroke                   = "#171717"
      stroke-width       = "1.4pt"
      
      stroke-linecap   = "round"
      stroke-linejoin = "round"
      fill                       = "none"
      
      />









      <path d            = "M362.5,238.15698604072062 C287.5,281.45825622994255 412.5,324.7595264191645 262.5,324.7595264191645  "
      stroke                   = "#171717"
      stroke-width       = "1.4pt"
      
      stroke-linecap   = "round"
      stroke-linejoin = "round"
      fill                       = "none"
      
      />









      <path d            = "M162.50000000000006,411.36206679760835 C237.50000000000006,368.06079660838645 112.50000000000006,324.7595264191645 262.50000000000006,324.7595264191645  "
      stroke                   = "#171717"
      stroke-width       = "1.4pt"
      
      stroke-linecap   = "round"
      stroke-linejoin = "round"
      fill                       = "none"
      
      />









      <path d            = "M437.50000000000006,368.06079660838645 C362.50000000000006,411.36206679760835 487.50000000000006,454.6633369868303 337.50000000000006,454.6633369868303  "
      stroke                   = "#171717"
      stroke-width       = "1.4pt"
      
      stroke-linecap   = "round"
      stroke-linejoin = "round"
      fill                       = "none"
      
      />









      <path d            = "M237.50000000000006,541.2658773652742 C312.50000000000006,497.96460717605225 187.50000000000006,454.6633369868303 337.50000000000006,454.6633369868303  "
      stroke                   = "#171717"
      stroke-width       = "1.4pt"
      
      stroke-linecap   = "round"
      stroke-linejoin = "round"
      fill                       = "none"
      
      />









      <path d            = "M512.5,497.96460717605225 C437.50000000000006,541.2658773652742 562.5,584.5671475544962 412.50000000000006,584.5671475544962  "
      stroke                   = "#171717"
      stroke-width       = "1.4pt"
      
      stroke-linecap   = "round"
      stroke-linejoin = "round"
      fill                       = "none"
      
      />









      <path d            = "M312.50000000000006,671.16968793294 C387.50000000000006,627.868417743718 262.50000000000006,584.5671475544962 412.50000000000006,584.5671475544962  "
      stroke                   = "#171717"
      stroke-width       = "1.4pt"
      
      stroke-linecap   = "round"
      stroke-linejoin = "round"
      fill                       = "none"
      
      />









      <path d            = "M587.5,627.868417743718 C512.5,671.16968793294 637.5,714.4709581221618 487.50000000000006,714.4709581221618  "
      stroke                   = "#171717"
      stroke-width       = "1.4pt"
      
      stroke-linecap   = "round"
      stroke-linejoin = "round"
      fill                       = "none"
      
      />









      <path d            = "M387.5000000000001,801.0734985006058 C462.5000000000001,757.7722283113839 337.5000000000001,714.4709581221618 487.5000000000001,714.4709581221618  "
      stroke                   = "#171717"
      stroke-width       = "1.4pt"
      
      stroke-linecap   = "round"
      stroke-linejoin = "round"
      fill                       = "none"
      
      />









      <path d            = "M662.5000000000001,757.7722283113839 C587.5000000000001,801.0734985006058 712.5000000000001,844.3747686898278 562.5000000000001,844.3747686898278  "
      stroke                   = "#171717"
      stroke-width       = "1.4pt"
      
      stroke-linecap   = "round"
      stroke-linejoin = "round"
      fill                       = "none"
      
      />









      <path d            = "M237.5,21.650635094610976 C312.5,-21.65063509461097 187.5,-64.9519052838329 337.5,-64.9519052838329  "
      stroke                   = "#171717"
      stroke-width       = "1.4pt"
      
      stroke-linecap   = "round"
      stroke-linejoin = "round"
      fill                       = "none"
      
      />









      <path d            = "M512.5,-21.650635094610976 C437.5,21.65063509461097 562.5,64.9519052838329 412.5,64.9519052838329  "
      stroke                   = "#171717"
      stroke-width       = "1.4pt"
      
      stroke-linecap   = "round"
      stroke-linejoin = "round"
      fill                       = "none"
      
      />









      <path d            = "M312.5,151.55444566227678 C387.5,108.25317547305482 262.5,64.9519052838329 412.5,64.9519052838329  "
      stroke                   = "#171717"
      stroke-width       = "1.4pt"
      
      stroke-linecap   = "round"
      stroke-linejoin = "round"
      fill                       = "none"
      
      />









      <path d            = "M587.5,108.25317547305482 C512.5,151.55444566227678 637.5,194.8557158514987 487.5,194.8557158514987  "
      stroke                   = "#171717"
      stroke-width       = "1.4pt"
      
      stroke-linecap   = "round"
      stroke-linejoin = "round"
      fill                       = "none"
      
      />









      <path d            = "M387.5,281.45825622994255 C462.5,238.15698604072062 337.5,194.8557158514987 487.5,194.8557158514987  "
      stroke                   = "#171717"
      stroke-width       = "1.4pt"
      
      stroke-linecap   = "round"
      stroke-linejoin = "round"
      fill                       = "none"
      
      />









      <path d            = "M662.5,238.15698604072062 C587.5,281.45825622994255 712.5,324.7595264191645 562.5,324.7595264191645  "
      stroke                   = "#171717"
      stroke-width       = "1.4pt"
      
      stroke-linecap   = "round"
      stroke-linejoin = "round"
      fill                       = "none"
      
      />









      <path d            = "M462.5,411.36206679760835 C537.5,368.06079660838645 412.5,324.7595264191645 562.5,324.7595264191645  "
      stroke                   = "#171717"
      stroke-width       = "1.4pt"
      
      stroke-linecap   = "round"
      stroke-linejoin = "round"
      fill                       = "none"
      
      />









      <path d            = "M737.5,368.06079660838645 C662.5,411.36206679760835 787.5,454.6633369868303 637.5,454.6633369868303  "
      stroke                   = "#171717"
      stroke-width       = "1.4pt"
      
      stroke-linecap   = "round"
      stroke-linejoin = "round"
      fill                       = "none"
      
      />









      <path d            = "M537.5,541.2658773652742 C612.5,497.96460717605225 487.5,454.6633369868303 637.5,454.6633369868303  "
      stroke                   = "#171717"
      stroke-width       = "1.4pt"
      
      stroke-linecap   = "round"
      stroke-linejoin = "round"
      fill                       = "none"
      
      />









      <path d            = "M812.5,497.96460717605225 C737.5,541.2658773652742 862.5,584.5671475544962 712.5,584.5671475544962  "
      stroke                   = "#171717"
      stroke-width       = "1.4pt"
      
      stroke-linecap   = "round"
      stroke-linejoin = "round"
      fill                       = "none"
      
      />









      <path d            = "M612.5,671.16968793294 C687.5,627.868417743718 562.5,584.5671475544962 712.5,584.5671475544962  "
      stroke                   = "#171717"
      stroke-width       = "1.4pt"
      
      stroke-linecap   = "round"
      stroke-linejoin = "round"
      fill                       = "none"
      
      />









      <path d            = "M887.5,627.868417743718 C812.5,671.16968793294 937.5,714.4709581221618 787.5,714.4709581221618  "
      stroke                   = "#171717"
      stroke-width       = "1.4pt"
      
      stroke-linecap   = "round"
      stroke-linejoin = "round"
      fill                       = "none"
      
      />









      <path d            = "M687.5000000000001,801.0734985006058 C762.5000000000001,757.7722283113839 637.5000000000001,714.4709581221618 787.5000000000001,714.4709581221618  "
      stroke                   = "#171717"
      stroke-width       = "1.4pt"
      
      stroke-linecap   = "round"
      stroke-linejoin = "round"
      fill                       = "none"
      
      />









      <path d            = "M962.5000000000001,757.7722283113839 C887.5000000000001,801.0734985006058 1012.5000000000001,844.3747686898278 862.5000000000001,844.3747686898278  "
      stroke                   = "#171717"
      stroke-width       = "1.4pt"
      
      stroke-linecap   = "round"
      stroke-linejoin = "round"
      fill                       = "none"
      
      />









      <path d            = "M537.5,21.650635094610976 C612.5,-21.65063509461097 487.5,-64.9519052838329 637.5,-64.9519052838329  "
      stroke                   = "#171717"
      stroke-width       = "1.4pt"
      
      stroke-linecap   = "round"
      stroke-linejoin = "round"
      fill                       = "none"
      
      />









      <path d            = "M812.5,-21.650635094610976 C737.5,21.65063509461097 862.5,64.9519052838329 712.5,64.9519052838329  "
      stroke                   = "#171717"
      stroke-width       = "1.4pt"
      
      stroke-linecap   = "round"
      stroke-linejoin = "round"
      fill                       = "none"
      
      />









      <path d            = "M612.5,151.55444566227678 C687.5,108.25317547305482 562.5,64.9519052838329 712.5,64.9519052838329  "
      stroke                   = "#171717"
      stroke-width       = "1.4pt"
      
      stroke-linecap   = "round"
      stroke-linejoin = "round"
      fill                       = "none"
      
      />









      <path d            = "M887.5,108.25317547305482 C812.5,151.55444566227678 937.5,194.8557158514987 787.5,194.8557158514987  "
      stroke                   = "#171717"
      stroke-width       = "1.4pt"
      
      stroke-linecap   = "round"
      stroke-linejoin = "round"
      fill                       = "none"
      
      />









      <path d            = "M687.5,281.45825622994255 C762.5,238.15698604072062 637.5,194.8557158514987 787.5,194.8557158514987  "
      stroke                   = "#171717"
      stroke-width       = "1.4pt"
      
      stroke-linecap   = "round"
      stroke-linejoin = "round"
      fill                       = "none"
      
      />









      <path d            = "M962.5,238.15698604072062 C887.5,281.45825622994255 1012.5,324.7595264191645 862.5,324.7595264191645  "
      stroke                   = "#171717"
      stroke-width       = "1.4pt"
      
      stroke-linecap   = "round"
      stroke-linejoin = "round"
      fill                       = "none"
      
      />









      <path d            = "M762.5,411.36206679760835 C837.5,368.06079660838645 712.5,324.7595264191645 862.5,324.7595264191645  "
      stroke                   = "#171717"
      stroke-width       = "1.4pt"
      
      stroke-linecap   = "round"
      stroke-linejoin = "round"
      fill                       = "none"
      
      />









      <path d            = "M1037.5,368.06079660838645 C962.5,411.36206679760835 1087.5,454.6633369868303 937.5,454.6633369868303  "
      stroke                   = "#171717"
      stroke-width       = "1.4pt"
      
      stroke-linecap   = "round"
      stroke-linejoin = "round"
      fill                       = "none"
      
      />









      <path d            = "M837.5,541.2658773652742 C912.5,497.96460717605225 787.5,454.6633369868303 937.5,454.6633369868303  "
      stroke                   = "#171717"
      stroke-width       = "1.4pt"
      
      stroke-linecap   = "round"
      stroke-linejoin = "round"
      fill                       = "none"
      
      />









      <path d            = "M1112.5,497.96460717605225 C1037.5,541.2658773652742 1162.5,584.5671475544962 1012.5,584.5671475544962  "
      stroke                   = "#171717"
      stroke-width       = "1.4pt"
      
      stroke-linecap   = "round"
      stroke-linejoin = "round"
      fill                       = "none"
      
      />









      <path d            = "M912.5,671.16968793294 C987.5,627.868417743718 862.5,584.5671475544962 1012.5,584.5671475544962  "
      stroke                   = "#171717"
      stroke-width       = "1.4pt"
      
      stroke-linecap   = "round"
      stroke-linejoin = "round"
      fill                       = "none"
      
      />









      <path d            = "M1187.5,627.868417743718 C1112.5,671.16968793294 1237.5,714.4709581221618 1087.5,714.4709581221618  "
      stroke                   = "#171717"
      stroke-width       = "1.4pt"
      
      stroke-linecap   = "round"
      stroke-linejoin = "round"
      fill                       = "none"
      
      />









      <path d            = "M987.5,801.0734985006058 C1062.5,757.7722283113839 937.5,714.4709581221618 1087.5,714.4709581221618  "
      stroke                   = "#171717"
      stroke-width       = "1.4pt"
      
      stroke-linecap   = "round"
      stroke-linejoin = "round"
      fill                       = "none"
      
      />









      <path d            = "M1262.5,757.7722283113839 C1187.5,801.0734985006058 1312.5,844.3747686898278 1162.5,844.3747686898278  "
      stroke                   = "#171717"
      stroke-width       = "1.4pt"
      
      stroke-linecap   = "round"
      stroke-linejoin = "round"
      fill                       = "none"
      
      />









      <path d            = "M837.5,21.650635094610976 C912.5,-21.65063509461097 787.5,-64.9519052838329 937.5,-64.9519052838329  "
      stroke                   = "#171717"
      stroke-width       = "1.4pt"
      
      stroke-linecap   = "round"
      stroke-linejoin = "round"
      fill                       = "none"
      
      />









      <path d            = "M1112.5,-21.650635094610976 C1037.5,21.65063509461097 1162.5,64.9519052838329 1012.5,64.9519052838329  "
      stroke                   = "#171717"
      stroke-width       = "1.4pt"
      
      stroke-linecap   = "round"
      stroke-linejoin = "round"
      fill                       = "none"
      
      />









      <path d            = "M912.5,151.55444566227678 C987.5,108.25317547305482 862.5,64.9519052838329 1012.5,64.9519052838329  "
      stroke                   = "#171717"
      stroke-width       = "1.4pt"
      
      stroke-linecap   = "round"
      stroke-linejoin = "round"
      fill                       = "none"
      
      />









      <path d            = "M1187.5,108.25317547305482 C1112.5,151.55444566227678 1237.5,194.8557158514987 1087.5,194.8557158514987  "
      stroke                   = "#171717"
      stroke-width       = "1.4pt"
      
      stroke-linecap   = "round"
      stroke-linejoin = "round"
      fill                       = "none"
      
      />









      <path d            = "M987.5,281.45825622994255 C1062.5,238.15698604072062 937.5,194.8557158514987 1087.5,194.8557158514987  "
      stroke                   = "#171717"
      stroke-width       = "1.4pt"
      
      stroke-linecap   = "round"
      stroke-linejoin = "round"
      fill                       = "none"
      
      />









      <path d            = "M1262.5,238.15698604072062 C1187.5,281.45825622994255 1312.5,324.7595264191645 1162.5,324.7595264191645  "
      stroke                   = "#171717"
      stroke-width       = "1.4pt"
      
      stroke-linecap   = "round"
      stroke-linejoin = "round"
      fill                       = "none"
      
      />









      <path d            = "M1062.5,411.36206679760835 C1137.5,368.06079660838645 1012.5,324.7595264191645 1162.5,324.7595264191645  "
      stroke                   = "#171717"
      stroke-width       = "1.4pt"
      
      stroke-linecap   = "round"
      stroke-linejoin = "round"
      fill                       = "none"
      
      />









      <path d            = "M1337.5,368.06079660838645 C1262.5,411.36206679760835 1387.5,454.6633369868303 1237.5,454.6633369868303  "
      stroke                   = "#171717"
      stroke-width       = "1.4pt"
      
      stroke-linecap   = "round"
      stroke-linejoin = "round"
      fill                       = "none"
      
      />









      <path d            = "M1137.5,541.2658773652742 C1212.5,497.96460717605225 1087.5,454.6633369868303 1237.5,454.6633369868303  "
      stroke                   = "#171717"
      stroke-width       = "1.4pt"
      
      stroke-linecap   = "round"
      stroke-linejoin = "round"
      fill                       = "none"
      
      />









      <path d            = "M1412.5,497.96460717605225 C1337.5,541.2658773652742 1462.5,584.5671475544962 1312.5,584.5671475544962  "
      stroke                   = "#171717"
      stroke-width       = "1.4pt"
      
      stroke-linecap   = "round"
      stroke-linejoin = "round"
      fill                       = "none"
      
      />









      <path d            = "M1212.5,671.16968793294 C1287.5,627.868417743718 1162.5,584.5671475544962 1312.5,584.5671475544962  "
      stroke                   = "#171717"
      stroke-width       = "1.4pt"
      
      stroke-linecap   = "round"
      stroke-linejoin = "round"
      fill                       = "none"
      
      />









      <path d            = "M1487.5,627.868417743718 C1412.5,671.16968793294 1537.5,714.4709581221618 1387.5,714.4709581221618  "
      stroke                   = "#171717"
      stroke-width       = "1.4pt"
      
      stroke-linecap   = "round"
      stroke-linejoin = "round"
      fill                       = "none"
      
      />









      <path d            = "M1287.5,801.0734985006058 C1362.5,757.7722283113839 1237.5,714.4709581221618 1387.5,714.4709581221618  "
      stroke                   = "#171717"
      stroke-width       = "1.4pt"
      
      stroke-linecap   = "round"
      stroke-linejoin = "round"
      fill                       = "none"
      
      />









      <path d            = "M1562.5,757.7722283113839 C1487.5,801.0734985006058 1612.5,844.3747686898278 1462.5,844.3747686898278  "
      stroke                   = "#171717"
      stroke-width       = "1.4pt"
      
      stroke-linecap   = "round"
      stroke-linejoin = "round"
      fill                       = "none"
      
      />









      <path d            = "M1137.5,21.650635094610976 C1212.5,-21.65063509461097 1087.5,-64.9519052838329 1237.5,-64.9519052838329  "
      stroke                   = "#171717"
      stroke-width       = "1.4pt"
      
      stroke-linecap   = "round"
      stroke-linejoin = "round"
      fill                       = "none"
      
      />









      <path d            = "M1412.5,-21.650635094610976 C1337.5,21.65063509461097 1462.5,64.9519052838329 1312.5,64.9519052838329  "
      stroke                   = "#171717"
      stroke-width       = "1.4pt"
      
      stroke-linecap   = "round"
      stroke-linejoin = "round"
      fill                       = "none"
      
      />









      <path d            = "M1212.5,151.55444566227678 C1287.5,108.25317547305482 1162.5,64.9519052838329 1312.5,64.9519052838329  "
      stroke                   = "#171717"
      stroke-width       = "1.4pt"
      
      stroke-linecap   = "round"
      stroke-linejoin = "round"
      fill                       = "none"
      
      />









      <path d            = "M1487.5,108.25317547305482 C1412.5,151.55444566227678 1537.5,194.8557158514987 1387.5,194.8557158514987  "
      stroke                   = "#171717"
      stroke-width       = "1.4pt"
      
      stroke-linecap   = "round"
      stroke-linejoin = "round"
      fill                       = "none"
      
      />









      <path d            = "M1287.5,281.45825622994255 C1362.5,238.15698604072062 1237.5,194.8557158514987 1387.5,194.8557158514987  "
      stroke                   = "#171717"
      stroke-width       = "1.4pt"
      
      stroke-linecap   = "round"
      stroke-linejoin = "round"
      fill                       = "none"
      
      />









      <path d            = "M1562.5,238.15698604072062 C1487.5,281.45825622994255 1612.5,324.7595264191645 1462.5,324.7595264191645  "
      stroke                   = "#171717"
      stroke-width       = "1.4pt"
      
      stroke-linecap   = "round"
      stroke-linejoin = "round"
      fill                       = "none"
      
      />









      <path d            = "M1362.5,411.36206679760835 C1437.5,368.06079660838645 1312.5,324.7595264191645 1462.5,324.7595264191645  "
      stroke                   = "#171717"
      stroke-width       = "1.4pt"
      
      stroke-linecap   = "round"
      stroke-linejoin = "round"
      fill                       = "none"
      
      />









      <path d            = "M1637.5,368.06079660838645 C1562.5,411.36206679760835 1687.5,454.6633369868303 1537.5,454.6633369868303  "
      stroke                   = "#171717"
      stroke-width       = "1.4pt"
      
      stroke-linecap   = "round"
      stroke-linejoin = "round"
      fill                       = "none"
      
      />









      <path d            = "M1437.5,541.2658773652742 C1512.5,497.96460717605225 1387.5,454.6633369868303 1537.5,454.6633369868303  "
      stroke                   = "#171717"
      stroke-width       = "1.4pt"
      
      stroke-linecap   = "round"
      stroke-linejoin = "round"
      fill                       = "none"
      
      />









      <path d            = "M1712.5,497.96460717605225 C1637.5,541.2658773652742 1762.5,584.5671475544962 1612.5,584.5671475544962  "
      stroke                   = "#171717"
      stroke-width       = "1.4pt"
      
      stroke-linecap   = "round"
      stroke-linejoin = "round"
      fill                       = "none"
      
      />









      <path d            = "M1512.5,671.16968793294 C1587.5,627.868417743718 1462.5,584.5671475544962 1612.5,584.5671475544962  "
      stroke                   = "#171717"
      stroke-width       = "1.4pt"
      
      stroke-linecap   = "round"
      stroke-linejoin = "round"
      fill                       = "none"
      
      />









      <path d            = "M1787.5,627.868417743718 C1712.5,671.16968793294 1837.5,714.4709581221618 1687.5,714.4709581221618  "
      stroke                   = "#171717"
      stroke-width       = "1.4pt"
      
      stroke-linecap   = "round"
      stroke-linejoin = "round"
      fill                       = "none"
      
      />









      <path d            = "M1587.5,801.0734985006058 C1662.5,757.7722283113839 1537.5,714.4709581221618 1687.5,714.4709581221618  "
      stroke                   = "#171717"
      stroke-width       = "1.4pt"
      
      stroke-linecap   = "round"
      stroke-linejoin = "round"
      fill                       = "none"
      
      />









      <path d            = "M1862.5,757.7722283113839 C1787.5,801.0734985006058 1912.5,844.3747686898278 1762.5,844.3747686898278  "
      stroke                   = "#171717"
      stroke-width       = "1.4pt"
      
      stroke-linecap   = "round"
      stroke-linejoin = "round"
      fill                       = "none"
      
      />









      <path d            = "M1437.5,21.650635094610976 C1512.5,-21.65063509461097 1387.5,-64.9519052838329 1537.5,-64.9519052838329  "
      stroke                   = "#171717"
      stroke-width       = "1.4pt"
      
      stroke-linecap   = "round"
      stroke-linejoin = "round"
      fill                       = "none"
      
      />









      <path d            = "M1712.5,-21.650635094610976 C1637.5,21.65063509461097 1762.5,64.9519052838329 1612.5,64.9519052838329  "
      stroke                   = "#171717"
      stroke-width       = "1.4pt"
      
      stroke-linecap   = "round"
      stroke-linejoin = "round"
      fill                       = "none"
      
      />









      <path d            = "M1512.5,151.55444566227678 C1587.5,108.25317547305482 1462.5,64.9519052838329 1612.5,64.9519052838329  "
      stroke                   = "#171717"
      stroke-width       = "1.4pt"
      
      stroke-linecap   = "round"
      stroke-linejoin = "round"
      fill                       = "none"
      
      />









      <path d            = "M1787.5,108.25317547305482 C1712.5,151.55444566227678 1837.5,194.8557158514987 1687.5,194.8557158514987  "
      stroke                   = "#171717"
      stroke-width       = "1.4pt"
      
      stroke-linecap   = "round"
      stroke-linejoin = "round"
      fill                       = "none"
      
      />









      <path d            = "M1587.5,281.45825622994255 C1662.5,238.15698604072062 1537.5,194.8557158514987 1687.5,194.8557158514987  "
      stroke                   = "#171717"
      stroke-width       = "1.4pt"
      
      stroke-linecap   = "round"
      stroke-linejoin = "round"
      fill                       = "none"
      
      />









      <path d            = "M1862.5,238.15698604072062 C1787.5,281.45825622994255 1912.5,324.7595264191645 1762.5,324.7595264191645  "
      stroke                   = "#171717"
      stroke-width       = "1.4pt"
      
      stroke-linecap   = "round"
      stroke-linejoin = "round"
      fill                       = "none"
      
      />









      <path d            = "M1662.5,411.36206679760835 C1737.5,368.06079660838645 1612.5,324.7595264191645 1762.5,324.7595264191645  "
      stroke                   = "#171717"
      stroke-width       = "1.4pt"
      
      stroke-linecap   = "round"
      stroke-linejoin = "round"
      fill                       = "none"
      
      />









      <path d            = "M1937.5,368.06079660838645 C1862.5,411.36206679760835 1987.5,454.6633369868303 1837.5,454.6633369868303  "
      stroke                   = "#171717"
      stroke-width       = "1.4pt"
      
      stroke-linecap   = "round"
      stroke-linejoin = "round"
      fill                       = "none"
      
      />









      <path d            = "M1737.5,541.2658773652742 C1812.5,497.96460717605225 1687.5,454.6633369868303 1837.5,454.6633369868303  "
      stroke                   = "#171717"
      stroke-width       = "1.4pt"
      
      stroke-linecap   = "round"
      stroke-linejoin = "round"
      fill                       = "none"
      
      />









      <path d            = "M2012.5,497.96460717605225 C1937.5,541.2658773652742 2062.5,584.5671475544962 1912.5,584.5671475544962  "
      stroke                   = "#171717"
      stroke-width       = "1.4pt"
      
      stroke-linecap   = "round"
      stroke-linejoin = "round"
      fill                       = "none"
      
      />









      <path d            = "M1812.5,671.16968793294 C1887.5,627.868417743718 1762.5,584.5671475544962 1912.5,584.5671475544962  "
      stroke                   = "#171717"
      stroke-width       = "1.4pt"
      
      stroke-linecap   = "round"
      stroke-linejoin = "round"
      fill                       = "none"
      
      />









      <path d            = "M2087.5,627.868417743718 C2012.5,671.16968793294 2137.5,714.4709581221618 1987.5,714.4709581221618  "
      stroke                   = "#171717"
      stroke-width       = "1.4pt"
      
      stroke-linecap   = "round"
      stroke-linejoin = "round"
      fill                       = "none"
      
      />









      <path d            = "M1887.5,801.0734985006058 C1962.5,757.7722283113839 1837.5,714.4709581221618 1987.5,714.4709581221618  "
      stroke                   = "#171717"
      stroke-width       = "1.4pt"
      
      stroke-linecap   = "round"
      stroke-linejoin = "round"
      fill                       = "none"
      
      />









      <path d            = "M2162.5,757.7722283113839 C2087.5,801.0734985006058 2212.5,844.3747686898278 2062.5,844.3747686898278  "
      stroke                   = "#171717"
      stroke-width       = "1.4pt"
      
      stroke-linecap   = "round"
      stroke-linejoin = "round"
      fill                       = "none"
      
      />









      <path d            = "M1737.5,21.650635094610976 C1812.5,-21.65063509461097 1687.5,-64.9519052838329 1837.5,-64.9519052838329  "
      stroke                   = "#171717"
      stroke-width       = "1.4pt"
      
      stroke-linecap   = "round"
      stroke-linejoin = "round"
      fill                       = "none"
      
      />









      <path d            = "M2012.5,-21.650635094610976 C1937.5,21.65063509461097 2062.5,64.9519052838329 1912.5,64.9519052838329  "
      stroke                   = "#171717"
      stroke-width       = "1.4pt"
      
      stroke-linecap   = "round"
      stroke-linejoin = "round"
      fill                       = "none"
      
      />









      <path d            = "M1812.5,151.55444566227678 C1887.5,108.25317547305482 1762.5,64.9519052838329 1912.5,64.9519052838329  "
      stroke                   = "#171717"
      stroke-width       = "1.4pt"
      
      stroke-linecap   = "round"
      stroke-linejoin = "round"
      fill                       = "none"
      
      />









      <path d            = "M2087.5,108.25317547305482 C2012.5,151.55444566227678 2137.5,194.8557158514987 1987.5,194.8557158514987  "
      stroke                   = "#171717"
      stroke-width       = "1.4pt"
      
      stroke-linecap   = "round"
      stroke-linejoin = "round"
      fill                       = "none"
      
      />









      <path d            = "M1887.5,281.45825622994255 C1962.5,238.15698604072062 1837.5,194.8557158514987 1987.5,194.8557158514987  "
      stroke                   = "#171717"
      stroke-width       = "1.4pt"
      
      stroke-linecap   = "round"
      stroke-linejoin = "round"
      fill                       = "none"
      
      />









      <path d            = "M2162.5,238.15698604072062 C2087.5,281.45825622994255 2212.5,324.7595264191645 2062.5,324.7595264191645  "
      stroke                   = "#171717"
      stroke-width       = "1.4pt"
      
      stroke-linecap   = "round"
      stroke-linejoin = "round"
      fill                       = "none"
      
      />









      <path d            = "M1962.5,411.36206679760835 C2037.5,368.06079660838645 1912.5,324.7595264191645 2062.5,324.7595264191645  "
      stroke                   = "#171717"
      stroke-width       = "1.4pt"
      
      stroke-linecap   = "round"
      stroke-linejoin = "round"
      fill                       = "none"
      
      />









      <path d            = "M2237.5,368.06079660838645 C2162.5,411.36206679760835 2287.5,454.6633369868303 2137.5,454.6633369868303  "
      stroke                   = "#171717"
      stroke-width       = "1.4pt"
      
      stroke-linecap   = "round"
      stroke-linejoin = "round"
      fill                       = "none"
      
      />









      <path d            = "M2037.5,541.2658773652742 C2112.5,497.96460717605225 1987.5,454.6633369868303 2137.5,454.6633369868303  "
      stroke                   = "#171717"
      stroke-width       = "1.4pt"
      
      stroke-linecap   = "round"
      stroke-linejoin = "round"
      fill                       = "none"
      
      />









      <path d            = "M2312.5,497.96460717605225 C2237.5,541.2658773652742 2362.5,584.5671475544962 2212.5,584.5671475544962  "
      stroke                   = "#171717"
      stroke-width       = "1.4pt"
      
      stroke-linecap   = "round"
      stroke-linejoin = "round"
      fill                       = "none"
      
      />









      <path d            = "M2112.5,671.16968793294 C2187.5,627.868417743718 2062.5,584.5671475544962 2212.5,584.5671475544962  "
      stroke                   = "#171717"
      stroke-width       = "1.4pt"
      
      stroke-linecap   = "round"
      stroke-linejoin = "round"
      fill                       = "none"
      
      />









      <path d            = "M2387.5,627.868417743718 C2312.5,671.16968793294 2437.5,714.4709581221618 2287.5,714.4709581221618  "
      stroke                   = "#171717"
      stroke-width       = "1.4pt"
      
      stroke-linecap   = "round"
      stroke-linejoin = "round"
      fill                       = "none"
      
      />









      <path d            = "M2187.5,801.0734985006058 C2262.5,757.7722283113839 2137.5,714.4709581221618 2287.5,714.4709581221618  "
      stroke                   = "#171717"
      stroke-width       = "1.4pt"
      
      stroke-linecap   = "round"
      stroke-linejoin = "round"
      fill                       = "none"
      
      />









      <path d            = "M2462.5,757.7722283113839 C2387.5,801.0734985006058 2512.5,844.3747686898278 2362.5,844.3747686898278  "
      stroke                   = "#171717"
      stroke-width       = "1.4pt"
      
      stroke-linecap   = "round"
      stroke-linejoin = "round"
      fill                       = "none"
      
      />









      <path d            = "M2037.5,21.650635094610976 C2112.5,-21.65063509461097 1987.5,-64.9519052838329 2137.5,-64.9519052838329  "
      stroke                   = "#171717"
      stroke-width       = "1.4pt"
      
      stroke-linecap   = "round"
      stroke-linejoin = "round"
      fill                       = "none"
      
      />









      <path d            = "M2312.5,-21.650635094610976 C2237.5,21.65063509461097 2362.5,64.9519052838329 2212.5,64.9519052838329  "
      stroke                   = "#171717"
      stroke-width       = "1.4pt"
      
      stroke-linecap   = "round"
      stroke-linejoin = "round"
      fill                       = "none"
      
      />









      <path d            = "M2112.5,151.55444566227678 C2187.5,108.25317547305482 2062.5,64.9519052838329 2212.5,64.9519052838329  "
      stroke                   = "#171717"
      stroke-width       = "1.4pt"
      
      stroke-linecap   = "round"
      stroke-linejoin = "round"
      fill                       = "none"
      
      />









      <path d            = "M2387.5,108.25317547305482 C2312.5,151.55444566227678 2437.5,194.8557158514987 2287.5,194.8557158514987  "
      stroke                   = "#171717"
      stroke-width       = "1.4pt"
      
      stroke-linecap   = "round"
      stroke-linejoin = "round"
      fill                       = "none"
      
      />









      <path d            = "M2187.5,281.45825622994255 C2262.5,238.15698604072062 2137.5,194.8557158514987 2287.5,194.8557158514987  "
      stroke                   = "#171717"
      stroke-width       = "1.4pt"
      
      stroke-linecap   = "round"
      stroke-linejoin = "round"
      fill                       = "none"
      
      />









      <path d            = "M2462.5,238.15698604072062 C2387.5,281.45825622994255 2512.5,324.7595264191645 2362.5,324.7595264191645  "
      stroke                   = "#171717"
      stroke-width       = "1.4pt"
      
      stroke-linecap   = "round"
      stroke-linejoin = "round"
      fill                       = "none"
      
      />









      <path d            = "M2262.5,411.36206679760835 C2337.5,368.06079660838645 2212.5,324.7595264191645 2362.5,324.7595264191645  "
      stroke                   = "#171717"
      stroke-width       = "1.4pt"
      
      stroke-linecap   = "round"
      stroke-linejoin = "round"
      fill                       = "none"
      
      />









      <path d            = "M2537.5,368.06079660838645 C2462.5,411.36206679760835 2587.5,454.6633369868303 2437.5,454.6633369868303  "
      stroke                   = "#171717"
      stroke-width       = "1.4pt"
      
      stroke-linecap   = "round"
      stroke-linejoin = "round"
      fill                       = "none"
      
      />









      <path d            = "M2337.5,541.2658773652742 C2412.5,497.96460717605225 2287.5,454.6633369868303 2437.5,454.6633369868303  "
      stroke                   = "#171717"
      stroke-width       = "1.4pt"
      
      stroke-linecap   = "round"
      stroke-linejoin = "round"
      fill                       = "none"
      
      />









      <path d            = "M2612.5,497.96460717605225 C2537.5,541.2658773652742 2662.5,584.5671475544962 2512.5,584.5671475544962  "
      stroke                   = "#171717"
      stroke-width       = "1.4pt"
      
      stroke-linecap   = "round"
      stroke-linejoin = "round"
      fill                       = "none"
      
      />









      <path d            = "M2412.5,671.16968793294 C2487.5,627.868417743718 2362.5,584.5671475544962 2512.5,584.5671475544962  "
      stroke                   = "#171717"
      stroke-width       = "1.4pt"
      
      stroke-linecap   = "round"
      stroke-linejoin = "round"
      fill                       = "none"
      
      />









      <path d            = "M2687.5,627.868417743718 C2612.5,671.16968793294 2737.5,714.4709581221618 2587.5,714.4709581221618  "
      stroke                   = "#171717"
      stroke-width       = "1.4pt"
      
      stroke-linecap   = "round"
      stroke-linejoin = "round"
      fill                       = "none"
      
      />









      <path d            = "M2487.5,801.0734985006058 C2562.5,757.7722283113839 2437.5,714.4709581221618 2587.5,714.4709581221618  "
      stroke                   = "#171717"
      stroke-width       = "1.4pt"
      
      stroke-linecap   = "round"
      stroke-linejoin = "round"
      fill                       = "none"
      
      />









      <path d            = "M2762.5,757.7722283113839 C2687.5,801.0734985006058 2812.5,844.3747686898278 2662.5,844.3747686898278  "
      stroke                   = "#171717"
      stroke-width       = "1.4pt"
      
      stroke-linecap   = "round"
      stroke-linejoin = "round"
      fill                       = "none"
      
      />









      <path d            = "M2337.5,21.650635094610976 C2412.5,-21.65063509461097 2287.5,-64.9519052838329 2437.5,-64.9519052838329  "
      stroke                   = "#171717"
      stroke-width       = "1.4pt"
      
      stroke-linecap   = "round"
      stroke-linejoin = "round"
      fill                       = "none"
      
      />









      <path d            = "M2612.5,-21.650635094610976 C2537.5,21.65063509461097 2662.5,64.9519052838329 2512.5,64.9519052838329  "
      stroke                   = "#171717"
      stroke-width       = "1.4pt"
      
      stroke-linecap   = "round"
      stroke-linejoin = "round"
      fill                       = "none"
      
      />









      <path d            = "M2412.5,151.55444566227678 C2487.5,108.25317547305482 2362.5,64.9519052838329 2512.5,64.9519052838329  "
      stroke                   = "#171717"
      stroke-width       = "1.4pt"
      
      stroke-linecap   = "round"
      stroke-linejoin = "round"
      fill                       = "none"
      
      />









      <path d            = "M2687.5,108.25317547305482 C2612.5,151.55444566227678 2737.5,194.8557158514987 2587.5,194.8557158514987  "
      stroke                   = "#171717"
      stroke-width       = "1.4pt"
      
      stroke-linecap   = "round"
      stroke-linejoin = "round"
      fill                       = "none"
      
      />









      <path d            = "M2487.5,281.45825622994255 C2562.5,238.15698604072062 2437.5,194.8557158514987 2587.5,194.8557158514987  "
      stroke                   = "#171717"
      stroke-width       = "1.4pt"
      
      stroke-linecap   = "round"
      stroke-linejoin = "round"
      fill                       = "none"
      
      />









      <path d            = "M2762.5,238.15698604072062 C2687.5,281.45825622994255 2812.5,324.7595264191645 2662.5,324.7595264191645  "
      stroke                   = "#171717"
      stroke-width       = "1.4pt"
      
      stroke-linecap   = "round"
      stroke-linejoin = "round"
      fill                       = "none"
      
      />









      <path d            = "M2562.5,411.36206679760835 C2637.5,368.06079660838645 2512.5,324.7595264191645 2662.5,324.7595264191645  "
      stroke                   = "#171717"
      stroke-width       = "1.4pt"
      
      stroke-linecap   = "round"
      stroke-linejoin = "round"
      fill                       = "none"
      
      />









      <path d            = "M2837.5,368.06079660838645 C2762.5,411.36206679760835 2887.5,454.6633369868303 2737.5,454.6633369868303  "
      stroke                   = "#171717"
      stroke-width       = "1.4pt"
      
      stroke-linecap   = "round"
      stroke-linejoin = "round"
      fill                       = "none"
      
      />









      <path d            = "M2637.5,541.2658773652742 C2712.5,497.96460717605225 2587.5,454.6633369868303 2737.5,454.6633369868303  "
      stroke                   = "#171717"
      stroke-width       = "1.4pt"
      
      stroke-linecap   = "round"
      stroke-linejoin = "round"
      fill                       = "none"
      
      />









      <path d            = "M2912.5,497.96460717605225 C2837.5,541.2658773652742 2962.5,584.5671475544962 2812.5,584.5671475544962  "
      stroke                   = "#171717"
      stroke-width       = "1.4pt"
      
      stroke-linecap   = "round"
      stroke-linejoin = "round"
      fill                       = "none"
      
      />









      <path d            = "M2712.5,671.16968793294 C2787.5,627.868417743718 2662.5,584.5671475544962 2812.5,584.5671475544962  "
      stroke                   = "#171717"
      stroke-width       = "1.4pt"
      
      stroke-linecap   = "round"
      stroke-linejoin = "round"
      fill                       = "none"
      
      />









      <path d            = "M2987.5,627.868417743718 C2912.5,671.16968793294 3037.5,714.4709581221618 2887.5,714.4709581221618  "
      stroke                   = "#171717"
      stroke-width       = "1.4pt"
      
      stroke-linecap   = "round"
      stroke-linejoin = "round"
      fill                       = "none"
      
      />









      <path d            = "M2787.5,801.0734985006058 C2862.5,757.7722283113839 2737.5,714.4709581221618 2887.5,714.4709581221618  "
      stroke                   = "#171717"
      stroke-width       = "1.4pt"
      
      stroke-linecap   = "round"
      stroke-linejoin = "round"
      fill                       = "none"
      
      />









      <path d            = "M3062.5,757.7722283113839 C2987.5,801.0734985006058 3112.5,844.3747686898278 2962.5,844.3747686898278  "
      stroke                   = "#171717"
      stroke-width       = "1.4pt"
      
      stroke-linecap   = "round"
      stroke-linejoin = "round"
      fill                       = "none"
      
      />









      <path d            = "M2637.5,21.650635094610976 C2712.5,-21.65063509461097 2587.5,-64.9519052838329 2737.5,-64.9519052838329  "
      stroke                   = "#171717"
      stroke-width       = "1.4pt"
      
      stroke-linecap   = "round"
      stroke-linejoin = "round"
      fill                       = "none"
      
      />









      <path d            = "M2912.5,-21.650635094610976 C2837.5,21.65063509461097 2962.5,64.9519052838329 2812.5,64.9519052838329  "
      stroke                   = "#171717"
      stroke-width       = "1.4pt"
      
      stroke-linecap   = "round"
      stroke-linejoin = "round"
      fill                       = "none"
      
      />









      <path d            = "M2712.5,151.55444566227678 C2787.5,108.25317547305482 2662.5,64.9519052838329 2812.5,64.9519052838329  "
      stroke                   = "#171717"
      stroke-width       = "1.4pt"
      
      stroke-linecap   = "round"
      stroke-linejoin = "round"
      fill                       = "none"
      
      />









      <path d            = "M2987.5,108.25317547305482 C2912.5,151.55444566227678 3037.5,194.8557158514987 2887.5,194.8557158514987  "
      stroke                   = "#171717"
      stroke-width       = "1.4pt"
      
      stroke-linecap   = "round"
      stroke-linejoin = "round"
      fill                       = "none"
      
      />









      <path d            = "M2787.5,281.45825622994255 C2862.5,238.15698604072062 2737.5,194.8557158514987 2887.5,194.8557158514987  "
      stroke                   = "#171717"
      stroke-width       = "1.4pt"
      
      stroke-linecap   = "round"
      stroke-linejoin = "round"
      fill                       = "none"
      
      />









      <path d            = "M3062.5,238.15698604072062 C2987.5,281.45825622994255 3112.5,324.7595264191645 2962.5,324.7595264191645  "
      stroke                   = "#171717"
      stroke-width       = "1.4pt"
      
      stroke-linecap   = "round"
      stroke-linejoin = "round"
      fill                       = "none"
      
      />









      <path d            = "M2862.5,411.36206679760835 C2937.5,368.06079660838645 2812.5,324.7595264191645 2962.5,324.7595264191645  "
      stroke                   = "#171717"
      stroke-width       = "1.4pt"
      
      stroke-linecap   = "round"
      stroke-linejoin = "round"
      fill                       = "none"
      
      />









      <path d            = "M3137.5,368.06079660838645 C3062.5,411.36206679760835 3187.5,454.6633369868303 3037.5,454.6633369868303  "
      stroke                   = "#171717"
      stroke-width       = "1.4pt"
      
      stroke-linecap   = "round"
      stroke-linejoin = "round"
      fill                       = "none"
      
      />









      <path d            = "M2937.5,541.2658773652742 C3012.5,497.96460717605225 2887.5,454.6633369868303 3037.5,454.6633369868303  "
      stroke                   = "#171717"
      stroke-width       = "1.4pt"
      
      stroke-linecap   = "round"
      stroke-linejoin = "round"
      fill                       = "none"
      
      />









      <path d            = "M3212.5,497.96460717605225 C3137.5,541.2658773652742 3262.5,584.5671475544962 3112.5,584.5671475544962  "
      stroke                   = "#171717"
      stroke-width       = "1.4pt"
      
      stroke-linecap   = "round"
      stroke-linejoin = "round"
      fill                       = "none"
      
      />









      <path d            = "M3012.5,671.16968793294 C3087.5,627.868417743718 2962.5,584.5671475544962 3112.5,584.5671475544962  "
      stroke                   = "#171717"
      stroke-width       = "1.4pt"
      
      stroke-linecap   = "round"
      stroke-linejoin = "round"
      fill                       = "none"
      
      />









      <path d            = "M3287.5,627.868417743718 C3212.5,671.16968793294 3337.5,714.4709581221618 3187.5,714.4709581221618  "
      stroke                   = "#171717"
      stroke-width       = "1.4pt"
      
      stroke-linecap   = "round"
      stroke-linejoin = "round"
      fill                       = "none"
      
      />









      <path d            = "M3087.5,801.0734985006058 C3162.5,757.7722283113839 3037.5,714.4709581221618 3187.5,714.4709581221618  "
      stroke                   = "#171717"
      stroke-width       = "1.4pt"
      
      stroke-linecap   = "round"
      stroke-linejoin = "round"
      fill                       = "none"
      
      />









      <path d            = "M3362.5,757.7722283113839 C3287.5,801.0734985006058 3412.5,844.3747686898278 3262.5,844.3747686898278  "
      stroke                   = "#171717"
      stroke-width       = "1.4pt"
      
      stroke-linecap   = "round"
      stroke-linejoin = "round"
      fill                       = "none"
      
      />









    
  </g>
</svg>
