<?xml version="1.0" encoding="UTF-8"?>

<svg version             = "1.2"
     baseProfile         = "full"
     width               = "1200px"
     height              = "800px"
     viewBox             = "-87.5 -87.5 3500.0 2450.0"
     preserveAspectRatio = "xMidYMid meet"
     viewport-fill       = "white"
     xmlns               = "http://www.w3.org/2000/svg">

    
    <!--  Render window is: [-87.5, -87.5] to [3412.5, 2362.5] -->
    

    
    <!--  Render viewport is: [0, 0] to [1200, 800] -->
    

    
    <!-- Useable viewport is: [0, 0] to [1200, 800] -->
    

    
    <!-- Clip box is: [-87.5, -87.5] to [3412.5, 2362.5] -->
    

    <desc>description text here</desc>

    

    
    <clipPath id="lattice">
      <rect x            = "-87.5"
            y            = "-87.5"
            width        = "3500.0"
            height       = "2450.0"/>
    </clipPath>
    

    <g clip-path       = "url(#lattice)"
       vector-effect   = "non-scaling-stroke"
       color-rendering = "optimizeQuality"
       shape-rendering = "geometricPrecision">

      


      <polygon points       = "3412.5 -87.5  3412.5 2362.5  -87.5 2362.5  -87.5 -87.5  "
               stroke                   = "none"
               stroke-width       = "0"
               
               
               
               fill                       = "#FAFAFA"
               
      />











      <path d            = "M-87.5,87.5 Q29.166666666666686,29.166666666666686 87.5,-29.16666666666667 "
      stroke                   = "#171717"
      stroke-width       = "1.4pt"
      
      stroke-linecap   = "round"
      stroke-linejoin = "round"
      fill                       = "none"
      
      />









      <path d            = "M87.5,-87.5 Q145.83333333333331,29.166666666666686 204.16666666666669,87.5 "
      stroke                   = "#171717"
      stroke-width       = "1.4pt"
      
      stroke-linecap   = "round"
      stroke-linejoin = "round"
      fill                       = "none"
      
      />









      <path d            = "M262.5,87.5 Q145.83333333333331,145.83333333333331 87.5,204.16666666666669 "
      stroke                   = "#171717"
      stroke-width       = "1.4pt"
      
      stroke-linecap   = "round"
      stroke-linejoin = "round"
      fill                       = "none"
      
      />









      <path d            = "M87.5,262.5 Q29.166666666666686,145.83333333333331 -29.16666666666667,87.5 "
      stroke                   = "#171717"
      stroke-width       = "1.4pt"
      
      stroke-linecap   = "round"
      stroke-linejoin = "round"
      fill                       = "none"
      
      />









      <path d            = "M-87.5,437.5 Q29.166666666666686,379.1666666666667 87.5,320.8333333333333 "
      stroke                   = "#171717"
      stroke-width       = "1.4pt"
      
      stroke-linecap   = "round"
      stroke-linejoin = "round"
      fill                       = "none"
      
      />









      <path d            = "M87.5,262.5 Q145.83333333333331,379.1666666666667 204.16666666666669,437.5 "
      stroke                   = "#171717"
      stroke-width       = "1.4pt"
      
      stroke-linecap   = "round"
      stroke-linejoin = "round"
      fill                       = "none"
      
      />









      <path d            = "M262.5,437.5 Q145.83333333333331,495.8333333333333 87.5,554.1666666666667 "
      stroke                   = "#171717"
      stroke-width       = "1.4pt"
      
      stroke-linecap   = "round"
      stroke-linejoin = "round"
      fill                       = "none"
      
      />









      <path d            = "M87.5,612.5 Q29.166666666666686,495.8333333333333 -29.16666666666667,437.5 "
      stroke                   = "#171717"
      stroke-width       = "1.4pt"
      
      stroke-linecap   = "round"
      stroke-linejoin = "round"
      fill                       = "none"
      
      />









      <path d            = "M-87.5,787.5 Q29.166666666666686,729.1666666666667 87.5,670.8333333333334 "
      stroke                   = "#171717"
      stroke-width       = "1.4pt"
      
      stroke-linecap   = "round"
      stroke-linejoin = "round"
      fill                       = "none"
      
      />









      <path d            = "M87.5,612.5 Q145.83333333333331,729.1666666666667 204.16666666666669,787.5 "
      stroke                   = "#171717"
      stroke-width       = "1.4pt"
      
      stroke-linecap   = "round"
      stroke-linejoin = "round"
      fill                       = "none"
      
      />









      <path d            = "M262.5,787.5 Q145.83333333333331,845.8333333333333 87.5,904.1666666666667 "
      stroke                   = "#171717"
      stroke-width       = "1.4pt"
      
      stroke-linecap   = "round"
      stroke-linejoin = "round"
      fill                       = "none"
      
      />









      <path d            = "M87.5,962.5 Q29.166666666666686,845.8333333333333 -29.16666666666667,787.5 "
      stroke                   = "#171717"
      stroke-width       = "1.4pt"
      
      stroke-linecap   = "round"
      stroke-linejoin = "round"
      fill                       = "none"
      
      />









      <path d            = "M-87.5,1137.5 Q29.166666666666686,1079.1666666666667 87.5,1020.8333333333334 "
      stroke                   = "#171717"
      stroke-width       = "1.4pt"
      
      stroke-linecap   = "round"
      stroke-linejoin = "round"
      fill                       = "none"
      
      />









      <path d            = "M87.5,962.5 Q145.83333333333331,1079.1666666666667 204.16666666666669,1137.5 "
      stroke                   = "#171717"
      stroke-width       = "1.4pt"
      
      stroke-linecap   = "round"
      stroke-linejoin = "round"
      fill                       = "none"
      
      />









      <path d            = "M262.5,1137.5 Q145.83333333333331,1195.8333333333333 87.5,1254.1666666666667 "
      stroke                   = "#171717"
      stroke-width       = "1.4pt"
      
      stroke-linecap   = "round"
      stroke-linejoin = "round"
      fill                       = "none"
      
      />









      <path d            = "M87.5,1312.5 Q29.166666666666686,1195.8333333333333 -29.16666666666667,1137.5 "
      stroke                   = "#171717"
      stroke-width       = "1.4pt"
      
      stroke-linecap   = "round"
      stroke-linejoin = "round"
      fill                       = "none"
      
      />









      <path d            = "M-87.5,1487.5 Q29.166666666666686,1429.1666666666667 87.5,1370.8333333333333 "
      stroke                   = "#171717"
      stroke-width       = "1.4pt"
      
      stroke-linecap   = "round"
      stroke-linejoin = "round"
      fill                       = "none"
      
      />









      <path d            = "M87.5,1312.5 Q145.83333333333331,1429.1666666666667 204.16666666666669,1487.5 "
      stroke                   = "#171717"
      stroke-width       = "1.4pt"
      
      stroke-linecap   = "round"
      stroke-linejoin = "round"
      fill                       = "none"
      
      />









      <path d            = "M262.5,1487.5 Q145.83333333333331,1545.8333333333333 87.5,1604.1666666666667 "
      stroke                   = "#171717"
      stroke-width       = "1.4pt"
      
      stroke-linecap   = "round"
      stroke-linejoin = "round"
      fill                       = "none"
      
      />









      <path d            = "M87.5,1662.5 Q29.166666666666686,1545.8333333333333 -29.16666666666667,1487.5 "
      stroke                   = "#171717"
      stroke-width       = "1.4pt"
      
      stroke-linecap   = "round"
      stroke-linejoin = "round"
      fill                       = "none"
      
      />









      <path d            = "M-87.5,1837.5 Q29.166666666666686,1779.1666666666667 87.5,1720.8333333333333 "
      stroke                   = "#171717"
      stroke-width       = "1.4pt"
      
      stroke-linecap   = "round"
      stroke-linejoin = "round"
      fill                       = "none"
      
      />









      <path d            = "M87.5,1662.5 Q145.83333333333331,1779.1666666666667 204.16666666666669,1837.5 "
      stroke                   = "#171717"
      stroke-width       = "1.4pt"
      
      stroke-linecap   = "round"
      stroke-linejoin = "round"
      fill                       = "none"
      
      />









      <path d            = "M262.5,1837.5 Q145.83333333333331,1895.8333333333333 87.5,1954.1666666666667 "
      stroke                   = "#171717"
      stroke-width       = "1.4pt"
      
      stroke-linecap   = "round"
      stroke-linejoin = "round"
      fill                       = "none"
      
      />









      <path d            = "M87.5,2012.5 Q29.166666666666686,1895.8333333333333 -29.16666666666667,1837.5 "
      stroke                   = "#171717"
      stroke-width       = "1.4pt"
      
      stroke-linecap   = "round"
      stroke-linejoin = "round"
      fill                       = "none"
      
      />









      <path d            = "M-87.5,2187.5 Q29.166666666666686,2129.1666666666665 87.5,2070.8333333333335 "
      stroke                   = "#171717"
      stroke-width       = "1.4pt"
      
      stroke-linecap   = "round"
      stroke-linejoin = "round"
      fill                       = "none"
      
      />









      <path d            = "M87.5,2012.5 Q145.83333333333331,2129.1666666666665 204.16666666666669,2187.5 "
      stroke                   = "#171717"
      stroke-width       = "1.4pt"
      
      stroke-linecap   = "round"
      stroke-linejoin = "round"
      fill                       = "none"
      
      />









      <path d            = "M262.5,2187.5 Q145.83333333333331,2245.8333333333335 87.5,2304.1666666666665 "
      stroke                   = "#171717"
      stroke-width       = "1.4pt"
      
      stroke-linecap   = "round"
      stroke-linejoin = "round"
      fill                       = "none"
      
      />









      <path d            = "M87.5,2362.5 Q29.166666666666686,2245.8333333333335 -29.16666666666667,2187.5 "
      stroke                   = "#171717"
      stroke-width       = "1.4pt"
      
      stroke-linecap   = "round"
      stroke-linejoin = "round"
      fill                       = "none"
      
      />









      <path d            = "M262.5,87.5 Q379.1666666666667,29.166666666666686 437.5,-29.16666666666667 "
      stroke                   = "#171717"
      stroke-width       = "1.4pt"
      
      stroke-linecap   = "round"
      stroke-linejoin = "round"
      fill                       = "none"
      
      />









      <path d            = "M437.5,-87.5 Q495.8333333333333,29.166666666666686 554.1666666666667,87.5 "
      stroke                   = "#171717"
      stroke-width       = "1.4pt"
      
      stroke-linecap   = "round"
      stroke-linejoin = "round"
      fill                       = "none"
      
      />









      <path d            = "M612.5,87.5 Q495.8333333333333,145.83333333333331 437.5,204.16666666666669 "
      stroke                   = "#171717"
      stroke-width       = "1.4pt"
      
      stroke-linecap   = "round"
      stroke-linejoin = "round"
      fill                       = "none"
      
      />









      <path d            = "M437.5,262.5 Q379.1666666666667,145.83333333333331 320.8333333333333,87.5 "
      stroke                   = "#171717"
      stroke-width       = "1.4pt"
      
      stroke-linecap   = "round"
      stroke-linejoin = "round"
      fill                       = "none"
      
      />









      <path d            = "M262.5,437.5 Q379.1666666666667,379.1666666666667 437.5,320.8333333333333 "
      stroke                   = "#171717"
      stroke-width       = "1.4pt"
      
      stroke-linecap   = "round"
      stroke-linejoin = "round"
      fill                       = "none"
      
      />









      <path d            = "M437.5,262.5 Q495.8333333333333,379.1666666666667 554.1666666666667,437.5 "
      stroke                   = "#171717"
      stroke-width       = "1.4pt"
      
      stroke-linecap   = "round"
      stroke-linejoin = "round"
      fill                       = "none"
      
      />









      <path d            = "M612.5,437.5 Q495.8333333333333,495.8333333333333 437.5,554.1666666666667 "
      stroke                   = "#171717"
      stroke-width       = "1.4pt"
      
      stroke-linecap   = "round"
      stroke-linejoin = "round"
      fill                       = "none"
      
      />









      <path d            = "M437.5,612.5 Q379.1666666666667,495.8333333333333 320.8333333333333,437.5 "
      stroke                   = "#171717"
      stroke-width       = "1.4pt"
      
      stroke-linecap   = "round"
      stroke-linejoin = "round"
      fill                       = "none"
      
      />









      <path d            = "M262.5,787.5 Q379.1666666666667,729.1666666666667 437.5,670.8333333333334 "
      stroke                   = "#171717"
      stroke-width       = "1.4pt"
      
      stroke-linecap   = "round"
      stroke-linejoin = "round"
      fill                       = "none"
      
      />









      <path d            = "M437.5,612.5 Q495.8333333333333,729.1666666666667 554.1666666666667,787.5 "
      stroke                   = "#171717"
      stroke-width       = "1.4pt"
      
      stroke-linecap   = "round"
      stroke-linejoin = "round"
      fill                       = "none"
      
      />









      <path d            = "M612.5,787.5 Q495.8333333333333,845.8333333333333 437.5,904.1666666666667 "
      stroke                   = "#171717"
      stroke-width       = "1.4pt"
      
      stroke-linecap   = "round"
      stroke-linejoin = "round"
      fill                       = "none"
      
      />









      <path d            = "M437.5,962.5 Q379.1666666666667,845.8333333333333 320.8333333333333,787.5 "
      stroke                   = "#171717"
      stroke-width       = "1.4pt"
      
      stroke-linecap   = "round"
      stroke-linejoin = "round"
      fill                       = "none"
      
      />









      <path d            = "M262.5,1137.5 Q379.1666666666667,1079.1666666666667 437.5,1020.8333333333334 "
      stroke                   = "#171717"
      stroke-width       = "1.4pt"
      
      stroke-linecap   = "round"
      stroke-linejoin = "round"
      fill                       = "none"
      
      />









      <path d            = "M437.5,962.5 Q495.8333333333333,1079.1666666666667 554.1666666666667,1137.5 "
      stroke                   = "#171717"
      stroke-width       = "1.4pt"
      
      stroke-linecap   = "round"
      stroke-linejoin = "round"
      fill                       = "none"
      
      />









      <path d            = "M612.5,1137.5 Q495.8333333333333,1195.8333333333333 437.5,1254.1666666666667 "
      stroke                   = "#171717"
      stroke-width       = "1.4pt"
      
      stroke-linecap   = "round"
      stroke-linejoin = "round"
      fill                       = "none"
      
      />









      <path d            = "M437.5,1312.5 Q379.1666666666667,1195.8333333333333 320.8333333333333,1137.5 "
      stroke                   = "#171717"
      stroke-width       = "1.4pt"
      
      stroke-linecap   = "round"
      stroke-linejoin = "round"
      fill                       = "none"
      
      />









      <path d            = "M262.5,1487.5 Q379.1666666666667,1429.1666666666667 437.5,1370.8333333333333 "
      stroke                   = "#171717"
      stroke-width       = "1.4pt"
      
      stroke-linecap   = "round"
      stroke-linejoin = "round"
      fill                       = "none"
      
      />









      <path d            = "M437.5,1312.5 Q495.8333333333333,1429.1666666666667 554.1666666666667,1487.5 "
      stroke                   = "#171717"
      stroke-width       = "1.4pt"
      
      stroke-linecap   = "round"
      stroke-linejoin = "round"
      fill                       = "none"
      
      />









      <path d            = "M612.5,1487.5 Q495.8333333333333,1545.8333333333333 437.5,1604.1666666666667 "
      stroke                   = "#171717"
      stroke-width       = "1.4pt"
      
      stroke-linecap   = "round"
      stroke-linejoin = "round"
      fill                       = "none"
      
      />









      <path d            = "M437.5,1662.5 Q379.1666666666667,1545.8333333333333 320.8333333333333,1487.5 "
      stroke                   = "#171717"
      stroke-width       = "1.4pt"
      
      stroke-linecap   = "round"
      stroke-linejoin = "round"
      fill                       = "none"
      
      />









      <path d            = "M262.5,1837.5 Q379.1666666666667,1779.1666666666667 437.5,1720.8333333333333 "
      stroke                   = "#171717"
      stroke-width       = "1.4pt"
      
      stroke-linecap   = "round"
      stroke-linejoin = "round"
      fill                       = "none"
      
      />









      <path d            = "M437.5,1662.5 Q495.8333333333333,1779.1666666666667 554.1666666666667,1837.5 "
      stroke                   = "#171717"
      stroke-width       = "1.4pt"
      
      stroke-linecap   = "round"
      stroke-linejoin = "round"
      fill                       = "none"
      
      />









      <path d            = "M612.5,1837.5 Q495.8333333333333,1895.8333333333333 437.5,1954.1666666666667 "
      stroke                   = "#171717"
      stroke-width       = "1.4pt"
      
      stroke-linecap   = "round"
      stroke-linejoin = "round"
      fill                       = "none"
      
      />









      <path d            = "M437.5,2012.5 Q379.1666666666667,1895.8333333333333 320.8333333333333,1837.5 "
      stroke                   = "#171717"
      stroke-width       = "1.4pt"
      
      stroke-linecap   = "round"
      stroke-linejoin = "round"
      fill                       = "none"
      
      />









      <path d            = "M262.5,2187.5 Q379.1666666666667,2129.1666666666665 437.5,2070.8333333333335 "
      stroke                   = "#171717"
      stroke-width       = "1.4pt"
      
      stroke-linecap   = "round"
      stroke-linejoin = "round"
      fill                       = "none"
      
      />









      <path d            = "M437.5,2012.5 Q495.8333333333333,2129.1666666666665 554.1666666666667,2187.5 "
      stroke                   = "#171717"
      stroke-width       = "1.4pt"
      
      stroke-linecap   = "round"
      stroke-linejoin = "round"
      fill                       = "none"
      
      />









      <path d            = "M612.5,2187.5 Q495.8333333333333,2245.8333333333335 437.5,2304.1666666666665 "
      stroke                   = "#171717"
      stroke-width       = "1.4pt"
      
      stroke-linecap   = "round"
      stroke-linejoin = "round"
      fill                       = "none"
      
      />









      <path d            = "M437.5,2362.5 Q379.1666666666667,2245.8333333333335 320.8333333333333,2187.5 "
      stroke                   = "#171717"
      stroke-width       = "1.4pt"
      
      stroke-linecap   = "round"
      stroke-linejoin = "round"
      fill                       = "none"
      
      />









      <path d            = "M612.5,87.5 Q729.1666666666667,29.166666666666686 787.5,-29.16666666666667 "
      stroke                   = "#171717"
      stroke-width       = "1.4pt"
      
      stroke-linecap   = "round"
      stroke-linejoin = "round"
      fill                       = "none"
      
      />









      <path d            = "M787.5,-87.5 Q845.8333333333333,29.166666666666686 904.1666666666667,87.5 "
      stroke                   = "#171717"
      stroke-width       = "1.4pt"
      
      stroke-linecap   = "round"
      stroke-linejoin = "round"
      fill                       = "none"
      
      />









      <path d            = "M962.5,87.5 Q845.8333333333333,145.83333333333331 787.5,204.16666666666669 "
      stroke                   = "#171717"
      stroke-width       = "1.4pt"
      
      stroke-linecap   = "round"
      stroke-linejoin = "round"
      fill                       = "none"
      
      />









      <path d            = "M787.5,262.5 Q729.1666666666667,145.83333333333331 670.8333333333334,87.5 "
      stroke                   = "#171717"
      stroke-width       = "1.4pt"
      
      stroke-linecap   = "round"
      stroke-linejoin = "round"
      fill                       = "none"
      
      />









      <path d            = "M612.5,437.5 Q729.1666666666667,379.1666666666667 787.5,320.8333333333333 "
      stroke                   = "#171717"
      stroke-width       = "1.4pt"
      
      stroke-linecap   = "round"
      stroke-linejoin = "round"
      fill                       = "none"
      
      />









      <path d            = "M787.5,262.5 Q845.8333333333333,379.1666666666667 904.1666666666667,437.5 "
      stroke                   = "#171717"
      stroke-width       = "1.4pt"
      
      stroke-linecap   = "round"
      stroke-linejoin = "round"
      fill                       = "none"
      
      />









      <path d            = "M962.5,437.5 Q845.8333333333333,495.8333333333333 787.5,554.1666666666667 "
      stroke                   = "#171717"
      stroke-width       = "1.4pt"
      
      stroke-linecap   = "round"
      stroke-linejoin = "round"
      fill                       = "none"
      
      />









      <path d            = "M787.5,612.5 Q729.1666666666667,495.8333333333333 670.8333333333334,437.5 "
      stroke                   = "#171717"
      stroke-width       = "1.4pt"
      
      stroke-linecap   = "round"
      stroke-linejoin = "round"
      fill                       = "none"
      
      />









      <path d            = "M612.5,787.5 Q729.1666666666667,729.1666666666667 787.5,670.8333333333334 "
      stroke                   = "#171717"
      stroke-width       = "1.4pt"
      
      stroke-linecap   = "round"
      stroke-linejoin = "round"
      fill                       = "none"
      
      />









      <path d            = "M787.5,612.5 Q845.8333333333333,729.1666666666667 904.1666666666667,787.5 "
      stroke                   = "#171717"
      stroke-width       = "1.4pt"
      
      stroke-linecap   = "round"
      stroke-linejoin = "round"
      fill                       = "none"
      
      />









      <path d            = "M962.5,787.5 Q845.8333333333333,845.8333333333333 787.5,904.1666666666667 "
      stroke                   = "#171717"
      stroke-width       = "1.4pt"
      
      stroke-linecap   = "round"
      stroke-linejoin = "round"
      fill                       = "none"
      
      />









      <path d            = "M787.5,962.5 Q729.1666666666667,845.8333333333333 670.8333333333334,787.5 "
      stroke                   = "#171717"
      stroke-width       = "1.4pt"
      
      stroke-linecap   = "round"
      stroke-linejoin = "round"
      fill                       = "none"
      
      />









      <path d            = "M612.5,1137.5 Q729.1666666666667,1079.1666666666667 787.5,1020.8333333333334 "
      stroke                   = "#171717"
      stroke-width       = "1.4pt"
      
      stroke-linecap   = "round"
      stroke-linejoin = "round"
      fill                       = "none"
      
      />









      <path d            = "M787.5,962.5 Q845.8333333333333,1079.1666666666667 904.1666666666667,1137.5 "
      stroke                   = "#171717"
      stroke-width       = "1.4pt"
      
      stroke-linecap   = "round"
      stroke-linejoin = "round"
      fill                       = "none"
      
      />









      <path d            = "M962.5,1137.5 Q845.8333333333333,1195.8333333333333 787.5,1254.1666666666667 "
      stroke                   = "#171717"
      stroke-width       = "1.4pt"
      
      stroke-linecap   = "round"
      stroke-linejoin = "round"
      fill                       = "none"
      
      />









      <path d            = "M787.5,1312.5 Q729.1666666666667,1195.8333333333333 670.8333333333334,1137.5 "
      stroke                   = "#171717"
      stroke-width       = "1.4pt"
      
      stroke-linecap   = "round"
      stroke-linejoin = "round"
      fill                       = "none"
      
      />









      <path d            = "M612.5,1487.5 Q729.1666666666667,1429.1666666666667 787.5,1370.8333333333333 "
      stroke                   = "#171717"
      stroke-width       = "1.4pt"
      
      stroke-linecap   = "round"
      stroke-linejoin = "round"
      fill                       = "none"
      
      />









      <path d            = "M787.5,1312.5 Q845.8333333333333,1429.1666666666667 904.1666666666667,1487.5 "
      stroke                   = "#171717"
      stroke-width       = "1.4pt"
      
      stroke-linecap   = "round"
      stroke-linejoin = "round"
      fill                       = "none"
      
      />









      <path d            = "M962.5,1487.5 Q845.8333333333333,1545.8333333333333 787.5,1604.1666666666667 "
      stroke                   = "#171717"
      stroke-width       = "1.4pt"
      
      stroke-linecap   = "round"
      stroke-linejoin = "round"
      fill                       = "none"
      
      />









      <path d            = "M787.5,1662.5 Q729.1666666666667,1545.8333333333333 670.8333333333334,1487.5 "
      stroke                   = "#171717"
      stroke-width       = "1.4pt"
      
      stroke-linecap   = "round"
      stroke-linejoin = "round"
      fill                       = "none"
      
      />









      <path d            = "M612.5,1837.5 Q729.1666666666667,1779.1666666666667 787.5,1720.8333333333333 "
      stroke                   = "#171717"
      stroke-width       = "1.4pt"
      
      stroke-linecap   = "round"
      stroke-linejoin = "round"
      fill                       = "none"
      
      />









      <path d            = "M787.5,1662.5 Q845.8333333333333,1779.1666666666667 904.1666666666667,1837.5 "
      stroke                   = "#171717"
      stroke-width       = "1.4pt"
      
      stroke-linecap   = "round"
      stroke-linejoin = "round"
      fill                       = "none"
      
      />









      <path d            = "M962.5,1837.5 Q845.8333333333333,1895.8333333333333 787.5,1954.1666666666667 "
      stroke                   = "#171717"
      stroke-width       = "1.4pt"
      
      stroke-linecap   = "round"
      stroke-linejoin = "round"
      fill                       = "none"
      
      />









      <path d            = "M787.5,2012.5 Q729.1666666666667,1895.8333333333333 670.8333333333334,1837.5 "
      stroke                   = "#171717"
      stroke-width       = "1.4pt"
      
      stroke-linecap   = "round"
      stroke-linejoin = "round"
      fill                       = "none"
      
      />









      <path d            = "M612.5,2187.5 Q729.1666666666667,2129.1666666666665 787.5,2070.8333333333335 "
      stroke                   = "#171717"
      stroke-width       = "1.4pt"
      
      stroke-linecap   = "round"
      stroke-linejoin = "round"
      fill                       = "none"
      
      />









      <path d            = "M787.5,2012.5 Q845.8333333333333,2129.1666666666665 904.1666666666667,2187.5 "
      stroke                   = "#171717"
      stroke-width       = "1.4pt"
      
      stroke-linecap   = "round"
      stroke-linejoin = "round"
      fill                       = "none"
      
      />









      <path d            = "M962.5,2187.5 Q845.8333333333333,2245.8333333333335 787.5,2304.1666666666665 "
      stroke                   = "#171717"
      stroke-width       = "1.4pt"
      
      stroke-linecap   = "round"
      stroke-linejoin = "round"
      fill                       = "none"
      
      />









      <path d            = "M787.5,2362.5 Q729.1666666666667,2245.8333333333335 670.8333333333334,2187.5 "
      stroke                   = "#171717"
      stroke-width       = "1.4pt"
      
      stroke-linecap   = "round"
      stroke-linejoin = "round"
      fill                       = "none"
      
      />









      <path d            = "M962.5,87.5 Q1079.1666666666667,29.166666666666686 1137.5,-29.16666666666667 "
      stroke                   = "#171717"
      stroke-width       = "1.4pt"
      
      stroke-linecap   = "round"
      stroke-linejoin = "round"
      fill                       = "none"
      
      />









      <path d            = "M1137.5,-87.5 Q1195.8333333333333,29.166666666666686 1254.1666666666667,87.5 "
      stroke                   = "#171717"
      stroke-width       = "1.4pt"
      
      stroke-linecap   = "round"
      stroke-linejoin = "round"
      fill                       = "none"
      
      />









      <path d            = "M1312.5,87.5 Q1195.8333333333333,145.83333333333331 1137.5,204.16666666666669 "
      stroke                   = "#171717"
      stroke-width       = "1.4pt"
      
      stroke-linecap   = "round"
      stroke-linejoin = "round"
      fill                       = "none"
      
      />









      <path d            = "M1137.5,262.5 Q1079.1666666666667,145.83333333333331 1020.8333333333334,87.5 "
      stroke                   = "#171717"
      stroke-width       = "1.4pt"
      
      stroke-linecap   = "round"
      stroke-linejoin = "round"
      fill                       = "none"
      
      />









      <path d            = "M962.5,437.5 Q1079.1666666666667,379.1666666666667 1137.5,320.8333333333333 "
      stroke                   = "#171717"
      stroke-width       = "1.4pt"
      
      stroke-linecap   = "round"
      stroke-linejoin = "round"
      fill                       = "none"
      
      />









      <path d            = "M1137.5,262.5 Q1195.8333333333333,379.1666666666667 1254.1666666666667,437.5 "
      stroke                   = "#171717"
      stroke-width       = "1.4pt"
      
      stroke-linecap   = "round"
      stroke-linejoin = "round"
      fill                       = "none"
      
      />









      <path d            = "M1312.5,437.5 Q1195.8333333333333,495.8333333333333 1137.5,554.1666666666667 "
      stroke                   = "#171717"
      stroke-width       = "1.4pt"
      
      stroke-linecap   = "round"
      stroke-linejoin = "round"
      fill                       = "none"
      
      />









      <path d            = "M1137.5,612.5 Q1079.1666666666667,495.8333333333333 1020.8333333333334,437.5 "
      stroke                   = "#171717"
      stroke-width       = "1.4pt"
      
      stroke-linecap   = "round"
      stroke-linejoin = "round"
      fill                       = "none"
      
      />









      <path d            = "M962.5,787.5 Q1079.1666666666667,729.1666666666667 1137.5,670.8333333333334 "
      stroke                   = "#171717"
      stroke-width       = "1.4pt"
      
      stroke-linecap   = "round"
      stroke-linejoin = "round"
      fill                       = "none"
      
      />









      <path d            = "M1137.5,612.5 Q1195.8333333333333,729.1666666666667 1254.1666666666667,787.5 "
      stroke                   = "#171717"
      stroke-width       = "1.4pt"
      
      stroke-linecap   = "round"
      stroke-linejoin = "round"
      fill                       = "none"
      
      />









      <path d            = "M1312.5,787.5 Q1195.8333333333333,845.8333333333333 1137.5,904.1666666666667 "
      stroke                   = "#171717"
      stroke-width       = "1.4pt"
      
      stroke-linecap   = "round"
      stroke-linejoin = "round"
      fill                       = "none"
      
      />









      <path d            = "M1137.5,962.5 Q1079.1666666666667,845.8333333333333 1020.8333333333334,787.5 "
      stroke                   = "#171717"
      stroke-width       = "1.4pt"
      
      stroke-linecap   = "round"
      stroke-linejoin = "round"
      fill                       = "none"
      
      />









      <path d            = "M962.5,1137.5 Q1079.1666666666667,1079.1666666666667 1137.5,1020.8333333333334 "
      stroke                   = "#171717"
      stroke-width       = "1.4pt"
      
      stroke-linecap   = "round"
      stroke-linejoin = "round"
      fill                       = "none"
      
      />









      <path d            = "M1137.5,962.5 Q1195.8333333333333,1079.1666666666667 1254.1666666666667,1137.5 "
      stroke                   = "#171717"
      stroke-width       = "1.4pt"
      
      stroke-linecap   = "round"
      stroke-linejoin = "round"
      fill                       = "none"
      
      />









      <path d            = "M1312.5,1137.5 Q1195.8333333333333,1195.8333333333333 1137.5,1254.1666666666667 "
      stroke                   = "#171717"
      stroke-width       = "1.4pt"
      
      stroke-linecap   = "round"
      stroke-linejoin = "round"
      fill                       = "none"
      
      />









      <path d            = "M1137.5,1312.5 Q1079.1666666666667,1195.8333333333333 1020.8333333333334,1137.5 "
      stroke                   = "#171717"
      stroke-width       = "1.4pt"
      
      stroke-linecap   = "round"
      stroke-linejoin = "round"
      fill                       = "none"
      
      />









      <path d            = "M962.5,1487.5 Q1079.1666666666667,1429.1666666666667 1137.5,1370.8333333333333 "
      stroke                   = "#171717"
      stroke-width       = "1.4pt"
      
      stroke-linecap   = "round"
      stroke-linejoin = "round"
      fill                       = "none"
      
      />









      <path d            = "M1137.5,1312.5 Q1195.8333333333333,1429.1666666666667 1254.1666666666667,1487.5 "
      stroke                   = "#171717"
      stroke-width       = "1.4pt"
      
      stroke-linecap   = "round"
      stroke-linejoin = "round"
      fill                       = "none"
      
      />









      <path d            = "M1312.5,1487.5 Q1195.8333333333333,1545.8333333333333 1137.5,1604.1666666666667 "
      stroke                   = "#171717"
      stroke-width       = "1.4pt"
      
      stroke-linecap   = "round"
      stroke-linejoin = "round"
      fill                       = "none"
      
      />









      <path d            = "M1137.5,1662.5 Q1079.1666666666667,1545.8333333333333 1020.8333333333334,1487.5 "
      stroke                   = "#171717"
      stroke-width       = "1.4pt"
      
      stroke-linecap   = "round"
      stroke-linejoin = "round"
      fill                       = "none"
      
      />









      <path d            = "M962.5,1837.5 Q1079.1666666666667,1779.1666666666667 1137.5,1720.8333333333333 "
      stroke                   = "#171717"
      stroke-width       = "1.4pt"
      
      stroke-linecap   = "round"
      stroke-linejoin = "round"
      fill                       = "none"
      
      />









      <path d            = "M1137.5,1662.5 Q1195.8333333333333,1779.1666666666667 1254.1666666666667,1837.5 "
      stroke                   = "#171717"
      stroke-width       = "1.4pt"
      
      stroke-linecap   = "round"
      stroke-linejoin = "round"
      fill                       = "none"
      
      />









      <path d            = "M1312.5,1837.5 Q1195.8333333333333,1895.8333333333333 1137.5,1954.1666666666667 "
      stroke                   = "#171717"
      stroke-width       = "1.4pt"
      
      stroke-linecap   = "round"
      stroke-linejoin = "round"
      fill                       = "none"
      
      />









      <path d            = "M1137.5,2012.5 Q1079.1666666666667,1895.8333333333333 1020.8333333333334,1837.5 "
      stroke                   = "#171717"
      stroke-width       = "1.4pt"
      
      stroke-linecap   = "round"
      stroke-linejoin = "round"
      fill                       = "none"
      
      />









      <path d            = "M962.5,2187.5 Q1079.1666666666667,2129.1666666666665 1137.5,2070.8333333333335 "
      stroke                   = "#171717"
      stroke-width       = "1.4pt"
      
      stroke-linecap   = "round"
      stroke-linejoin = "round"
      fill                       = "none"
      
      />









      <path d            = "M1137.5,2012.5 Q1195.8333333333333,2129.1666666666665 1254.1666666666667,2187.5 "
      stroke                   = "#171717"
      stroke-width       = "1.4pt"
      
      stroke-linecap   = "round"
      stroke-linejoin = "round"
      fill                       = "none"
      
      />









      <path d            = "M1312.5,2187.5 Q1195.8333333333333,2245.8333333333335 1137.5,2304.1666666666665 "
      stroke                   = "#171717"
      stroke-width       = "1.4pt"
      
      stroke-linecap   = "round"
      stroke-linejoin = "round"
      fill                       = "none"
      
      />









      <path d            = "M1137.5,2362.5 Q1079.1666666666667,2245.8333333333335 1020.8333333333334,2187.5 "
      stroke                   = "#171717"
      stroke-width       = "1.4pt"
      
      stroke-linecap   = "round"
      stroke-linejoin = "round"
      fill                       = "none"
      
      />









      <path d            = "M1312.5,87.5 Q1429.1666666666667,29.166666666666686 1487.5,-29.16666666666667 "
      stroke                   = "#171717"
      stroke-width       = "1.4pt"
      
      stroke-linecap   = "round"
      stroke-linejoin = "round"
      fill                       = "none"
      
      />









      <path d            = "M1487.5,-87.5 Q1545.8333333333333,29.166666666666686 1604.1666666666667,87.5 "
      stroke                   = "#171717"
      stroke-width       = "1.4pt"
      
      stroke-linecap   = "round"
      stroke-linejoin = "round"
      fill                       = "none"
      
      />









      <path d            = "M1662.5,87.5 Q1545.8333333333333,145.83333333333331 1487.5,204.16666666666669 "
      stroke                   = "#171717"
      stroke-width       = "1.4pt"
      
      stroke-linecap   = "round"
      stroke-linejoin = "round"
      fill                       = "none"
      
      />









      <path d            = "M1487.5,262.5 Q1429.1666666666667,145.83333333333331 1370.8333333333333,87.5 "
      stroke                   = "#171717"
      stroke-width       = "1.4pt"
      
      stroke-linecap   = "round"
      stroke-linejoin = "round"
      fill                       = "none"
      
      />









      <path d            = "M1312.5,437.5 Q1429.1666666666667,379.1666666666667 1487.5,320.8333333333333 "
      stroke                   = "#171717"
      stroke-width       = "1.4pt"
      
      stroke-linecap   = "round"
      stroke-linejoin = "round"
      fill                       = "none"
      
      />









      <path d            = "M1487.5,262.5 Q1545.8333333333333,379.1666666666667 1604.1666666666667,437.5 "
      stroke                   = "#171717"
      stroke-width       = "1.4pt"
      
      stroke-linecap   = "round"
      stroke-linejoin = "round"
      fill                       = "none"
      
      />









      <path d            = "M1662.5,437.5 Q1545.8333333333333,495.8333333333333 1487.5,554.1666666666667 "
      stroke                   = "#171717"
      stroke-width       = "1.4pt"
      
      stroke-linecap   = "round"
      stroke-linejoin = "round"
      fill                       = "none"
      
      />









      <path d            = "M1487.5,612.5 Q1429.1666666666667,495.8333333333333 1370.8333333333333,437.5 "
      stroke                   = "#171717"
      stroke-width       = "1.4pt"
      
      stroke-linecap   = "round"
      stroke-linejoin = "round"
      fill                       = "none"
      
      />









      <path d            = "M1312.5,787.5 Q1429.1666666666667,729.1666666666667 1487.5,670.8333333333334 "
      stroke                   = "#171717"
      stroke-width       = "1.4pt"
      
      stroke-linecap   = "round"
      stroke-linejoin = "round"
      fill                       = "none"
      
      />









      <path d            = "M1487.5,612.5 Q1545.8333333333333,729.1666666666667 1604.1666666666667,787.5 "
      stroke                   = "#171717"
      stroke-width       = "1.4pt"
      
      stroke-linecap   = "round"
      stroke-linejoin = "round"
      fill                       = "none"
      
      />









      <path d            = "M1662.5,787.5 Q1545.8333333333333,845.8333333333333 1487.5,904.1666666666667 "
      stroke                   = "#171717"
      stroke-width       = "1.4pt"
      
      stroke-linecap   = "round"
      stroke-linejoin = "round"
      fill                       = "none"
      
      />









      <path d            = "M1487.5,962.5 Q1429.1666666666667,845.8333333333333 1370.8333333333333,787.5 "
      stroke                   = "#171717"
      stroke-width       = "1.4pt"
      
      stroke-linecap   = "round"
      stroke-linejoin = "round"
      fill                       = "none"
      
      />









      <path d            = "M1312.5,1137.5 Q1429.1666666666667,1079.1666666666667 1487.5,1020.8333333333334 "
      stroke                   = "#171717"
      stroke-width       = "1.4pt"
      
      stroke-linecap   = "round"
      stroke-linejoin = "round"
      fill                       = "none"
      
      />









      <path d            = "M1487.5,962.5 Q1545.8333333333333,1079.1666666666667 1604.1666666666667,1137.5 "
      stroke                   = "#171717"
      stroke-width       = "1.4pt"
      
      stroke-linecap   = "round"
      stroke-linejoin = "round"
      fill                       = "none"
      
      />









      <path d            = "M1662.5,1137.5 Q1545.8333333333333,1195.8333333333333 1487.5,1254.1666666666667 "
      stroke                   = "#171717"
      stroke-width       = "1.4pt"
      
      stroke-linecap   = "round"
      stroke-linejoin = "round"
      fill                       = "none"
      
      />









      <path d            = "M1487.5,1312.5 Q1429.1666666666667,1195.8333333333333 1370.8333333333333,1137.5 "
      stroke                   = "#171717"
      stroke-width       = "1.4pt"
      
      stroke-linecap   = "round"
      stroke-linejoin = "round"
      fill                       = "none"
      
      />









      <path d            = "M1312.5,1487.5 Q1429.1666666666667,1429.1666666666667 1487.5,1370.8333333333333 "
      stroke                   = "#171717"
      stroke-width       = "1.4pt"
      
      stroke-linecap   = "round"
      stroke-linejoin = "round"
      fill                       = "none"
      
      />









      <path d            = "M1487.5,1312.5 Q1545.8333333333333,1429.1666666666667 1604.1666666666667,1487.5 "
      stroke                   = "#171717"
      stroke-width       = "1.4pt"
      
      stroke-linecap   = "round"
      stroke-linejoin = "round"
      fill                       = "none"
      
      />









      <path d            = "M1662.5,1487.5 Q1545.8333333333333,1545.8333333333333 1487.5,1604.1666666666667 "
      stroke                   = "#171717"
      stroke-width       = "1.4pt"
      
      stroke-linecap   = "round"
      stroke-linejoin = "round"
      fill                       = "none"
      
      />









      <path d            = "M1487.5,1662.5 Q1429.1666666666667,1545.8333333333333 1370.8333333333333,1487.5 "
      stroke                   = "#171717"
      stroke-width       = "1.4pt"
      
      stroke-linecap   = "round"
      stroke-linejoin = "round"
      fill                       = "none"
      
      />









      <path d            = "M1312.5,1837.5 Q1429.1666666666667,1779.1666666666667 1487.5,1720.8333333333333 "
      stroke                   = "#171717"
      stroke-width       = "1.4pt"
      
      stroke-linecap   = "round"
      stroke-linejoin = "round"
      fill                       = "none"
      
      />









      <path d            = "M1487.5,1662.5 Q1545.8333333333333,1779.1666666666667 1604.1666666666667,1837.5 "
      stroke                   = "#171717"
      stroke-width       = "1.4pt"
      
      stroke-linecap   = "round"
      stroke-linejoin = "round"
      fill                       = "none"
      
      />









      <path d            = "M1662.5,1837.5 Q1545.8333333333333,1895.8333333333333 1487.5,1954.1666666666667 "
      stroke                   = "#171717"
      stroke-width       = "1.4pt"
      
      stroke-linecap   = "round"
      stroke-linejoin = "round"
      fill                       = "none"
      
      />









      <path d            = "M1487.5,2012.5 Q1429.1666666666667,1895.8333333333333 1370.8333333333333,1837.5 "
      stroke                   = "#171717"
      stroke-width       = "1.4pt"
      
      stroke-linecap   = "round"
      stroke-linejoin = "round"
      fill                       = "none"
      
      />









      <path d            = "M1312.5,2187.5 Q1429.1666666666667,2129.1666666666665 1487.5,2070.8333333333335 "
      stroke                   = "#171717"
      stroke-width       = "1.4pt"
      
      stroke-linecap   = "round"
      stroke-linejoin = "round"
      fill                       = "none"
      
      />









      <path d            = "M1487.5,2012.5 Q1545.8333333333333,2129.1666666666665 1604.1666666666667,2187.5 "
      stroke                   = "#171717"
      stroke-width       = "1.4pt"
      
      stroke-linecap   = "round"
      stroke-linejoin = "round"
      fill                       = "none"
      
      />









      <path d            = "M1662.5,2187.5 Q1545.8333333333333,2245.8333333333335 1487.5,2304.1666666666665 "
      stroke                   = "#171717"
      stroke-width       = "1.4pt"
      
      stroke-linecap   = "round"
      stroke-linejoin = "round"
      fill                       = "none"
      
      />









      <path d            = "M1487.5,2362.5 Q1429.1666666666667,2245.8333333333335 1370.8333333333333,2187.5 "
      stroke                   = "#171717"
      stroke-width       = "1.4pt"
      
      stroke-linecap   = "round"
      stroke-linejoin = "round"
      fill                       = "none"
      
      />









      <path d            = "M1662.5,87.5 Q1779.1666666666667,29.166666666666686 1837.5,-29.16666666666667 "
      stroke                   = "#171717"
      stroke-width       = "1.4pt"
      
      stroke-linecap   = "round"
      stroke-linejoin = "round"
      fill                       = "none"
      
      />









      <path d            = "M1837.5,-87.5 Q1895.8333333333333,29.166666666666686 1954.1666666666667,87.5 "
      stroke                   = "#171717"
      stroke-width       = "1.4pt"
      
      stroke-linecap   = "round"
      stroke-linejoin = "round"
      fill                       = "none"
      
      />









      <path d            = "M2012.5,87.5 Q1895.8333333333333,145.83333333333331 1837.5,204.16666666666669 "
      stroke                   = "#171717"
      stroke-width       = "1.4pt"
      
      stroke-linecap   = "round"
      stroke-linejoin = "round"
      fill                       = "none"
      
      />









      <path d            = "M1837.5,262.5 Q1779.1666666666667,145.83333333333331 1720.8333333333333,87.5 "
      stroke                   = "#171717"
      stroke-width       = "1.4pt"
      
      stroke-linecap   = "round"
      stroke-linejoin = "round"
      fill                       = "none"
      
      />









      <path d            = "M1662.5,437.5 Q1779.1666666666667,379.1666666666667 1837.5,320.8333333333333 "
      stroke                   = "#171717"
      stroke-width       = "1.4pt"
      
      stroke-linecap   = "round"
      stroke-linejoin = "round"
      fill                       = "none"
      
      />









      <path d            = "M1837.5,262.5 Q1895.8333333333333,379.1666666666667 1954.1666666666667,437.5 "
      stroke                   = "#171717"
      stroke-width       = "1.4pt"
      
      stroke-linecap   = "round"
      stroke-linejoin = "round"
      fill                       = "none"
      
      />









      <path d            = "M2012.5,437.5 Q1895.8333333333333,495.8333333333333 1837.5,554.1666666666667 "
      stroke                   = "#171717"
      stroke-width       = "1.4pt"
      
      stroke-linecap   = "round"
      stroke-linejoin = "round"
      fill                       = "none"
      
      />









      <path d            = "M1837.5,612.5 Q1779.1666666666667,495.8333333333333 1720.8333333333333,437.5 "
      stroke                   = "#171717"
      stroke-width       = "1.4pt"
      
      stroke-linecap   = "round"
      stroke-linejoin = "round"
      fill                       = "none"
      
      />









      <path d            = "M1662.5,787.5 Q1779.1666666666667,729.1666666666667 1837.5,670.8333333333334 "
      stroke                   = "#171717"
      stroke-width       = "1.4pt"
      
      stroke-linecap   = "round"
      stroke-linejoin = "round"
      fill                       = "none"
      
      />









      <path d            = "M1837.5,612.5 Q1895.8333333333333,729.1666666666667 1954.1666666666667,787.5 "
      stroke                   = "#171717"
      stroke-width       = "1.4pt"
      
      stroke-linecap   = "round"
      stroke-linejoin = "round"
      fill                       = "none"
      
      />









      <path d            = "M2012.5,787.5 Q1895.8333333333333,845.8333333333333 1837.5,904.1666666666667 "
      stroke                   = "#171717"
      stroke-width       = "1.4pt"
      
      stroke-linecap   = "round"
      stroke-linejoin = "round"
      fill                       = "none"
      
      />









      <path d            = "M1837.5,962.5 Q1779.1666666666667,845.8333333333333 1720.8333333333333,787.5 "
      stroke                   = "#171717"
      stroke-width       = "1.4pt"
      
      stroke-linecap   = "round"
      stroke-linejoin = "round"
      fill                       = "none"
      
      />









      <path d            = "M1662.5,1137.5 Q1779.1666666666667,1079.1666666666667 1837.5,1020.8333333333334 "
      stroke                   = "#171717"
      stroke-width       = "1.4pt"
      
      stroke-linecap   = "round"
      stroke-linejoin = "round"
      fill                       = "none"
      
      />









      <path d            = "M1837.5,962.5 Q1895.8333333333333,1079.1666666666667 1954.1666666666667,1137.5 "
      stroke                   = "#171717"
      stroke-width       = "1.4pt"
      
      stroke-linecap   = "round"
      stroke-linejoin = "round"
      fill                       = "none"
      
      />









      <path d            = "M2012.5,1137.5 Q1895.8333333333333,1195.8333333333333 1837.5,1254.1666666666667 "
      stroke                   = "#171717"
      stroke-width       = "1.4pt"
      
      stroke-linecap   = "round"
      stroke-linejoin = "round"
      fill                       = "none"
      
      />









      <path d            = "M1837.5,1312.5 Q1779.1666666666667,1195.8333333333333 1720.8333333333333,1137.5 "
      stroke                   = "#171717"
      stroke-width       = "1.4pt"
      
      stroke-linecap   = "round"
      stroke-linejoin = "round"
      fill                       = "none"
      
      />









      <path d            = "M1662.5,1487.5 Q1779.1666666666667,1429.1666666666667 1837.5,1370.8333333333333 "
      stroke                   = "#171717"
      stroke-width       = "1.4pt"
      
      stroke-linecap   = "round"
      stroke-linejoin = "round"
      fill                       = "none"
      
      />









      <path d            = "M1837.5,1312.5 Q1895.8333333333333,1429.1666666666667 1954.1666666666667,1487.5 "
      stroke                   = "#171717"
      stroke-width       = "1.4pt"
      
      stroke-linecap   = "round"
      stroke-linejoin = "round"
      fill                       = "none"
      
      />









      <path d            = "M2012.5,1487.5 Q1895.8333333333333,1545.8333333333333 1837.5,1604.1666666666667 "
      stroke                   = "#171717"
      stroke-width       = "1.4pt"
      
      stroke-linecap   = "round"
      stroke-linejoin = "round"
      fill                       = "none"
      
      />









      <path d            = "M1837.5,1662.5 Q1779.1666666666667,1545.8333333333333 1720.8333333333333,1487.5 "
      stroke                   = "#171717"
      stroke-width       = "1.4pt"
      
      stroke-linecap   = "round"
      stroke-linejoin = "round"
      fill                       = "none"
      
      />









      <path d            = "M1662.5,1837.5 Q1779.1666666666667,1779.1666666666667 1837.5,1720.8333333333333 "
      stroke                   = "#171717"
      stroke-width       = "1.4pt"
      
      stroke-linecap   = "round"
      stroke-linejoin = "round"
      fill                       = "none"
      
      />









      <path d            = "M1837.5,1662.5 Q1895.8333333333333,1779.1666666666667 1954.1666666666667,1837.5 "
      stroke                   = "#171717"
      stroke-width       = "1.4pt"
      
      stroke-linecap   = "round"
      stroke-linejoin = "round"
      fill                       = "none"
      
      />









      <path d            = "M2012.5,1837.5 Q1895.8333333333333,1895.8333333333333 1837.5,1954.1666666666667 "
      stroke                   = "#171717"
      stroke-width       = "1.4pt"
      
      stroke-linecap   = "round"
      stroke-linejoin = "round"
      fill                       = "none"
      
      />









      <path d            = "M1837.5,2012.5 Q1779.1666666666667,1895.8333333333333 1720.8333333333333,1837.5 "
      stroke                   = "#171717"
      stroke-width       = "1.4pt"
      
      stroke-linecap   = "round"
      stroke-linejoin = "round"
      fill                       = "none"
      
      />









      <path d            = "M1662.5,2187.5 Q1779.1666666666667,2129.1666666666665 1837.5,2070.8333333333335 "
      stroke                   = "#171717"
      stroke-width       = "1.4pt"
      
      stroke-linecap   = "round"
      stroke-linejoin = "round"
      fill                       = "none"
      
      />









      <path d            = "M1837.5,2012.5 Q1895.8333333333333,2129.1666666666665 1954.1666666666667,2187.5 "
      stroke                   = "#171717"
      stroke-width       = "1.4pt"
      
      stroke-linecap   = "round"
      stroke-linejoin = "round"
      fill                       = "none"
      
      />









      <path d            = "M2012.5,2187.5 Q1895.8333333333333,2245.8333333333335 1837.5,2304.1666666666665 "
      stroke                   = "#171717"
      stroke-width       = "1.4pt"
      
      stroke-linecap   = "round"
      stroke-linejoin = "round"
      fill                       = "none"
      
      />









      <path d            = "M1837.5,2362.5 Q1779.1666666666667,2245.8333333333335 1720.8333333333333,2187.5 "
      stroke                   = "#171717"
      stroke-width       = "1.4pt"
      
      stroke-linecap   = "round"
      stroke-linejoin = "round"
      fill                       = "none"
      
      />









      <path d            = "M2012.5,87.5 Q2129.1666666666665,29.166666666666686 2187.5,-29.16666666666667 "
      stroke                   = "#171717"
      stroke-width       = "1.4pt"
      
      stroke-linecap   = "round"
      stroke-linejoin = "round"
      fill                       = "none"
      
      />









      <path d            = "M2187.5,-87.5 Q2245.8333333333335,29.166666666666686 2304.1666666666665,87.5 "
      stroke                   = "#171717"
      stroke-width       = "1.4pt"
      
      stroke-linecap   = "round"
      stroke-linejoin = "round"
      fill                       = "none"
      
      />









      <path d            = "M2362.5,87.5 Q2245.8333333333335,145.83333333333331 2187.5,204.16666666666669 "
      stroke                   = "#171717"
      stroke-width       = "1.4pt"
      
      stroke-linecap   = "round"
      stroke-linejoin = "round"
      fill                       = "none"
      
      />









      <path d            = "M2187.5,262.5 Q2129.1666666666665,145.83333333333331 2070.8333333333335,87.5 "
      stroke                   = "#171717"
      stroke-width       = "1.4pt"
      
      stroke-linecap   = "round"
      stroke-linejoin = "round"
      fill                       = "none"
      
      />









      <path d            = "M2012.5,437.5 Q2129.1666666666665,379.1666666666667 2187.5,320.8333333333333 "
      stroke                   = "#171717"
      stroke-width       = "1.4pt"
      
      stroke-linecap   = "round"
      stroke-linejoin = "round"
      fill                       = "none"
      
      />









      <path d            = "M2187.5,262.5 Q2245.8333333333335,379.1666666666667 2304.1666666666665,437.5 "
      stroke                   = "#171717"
      stroke-width       = "1.4pt"
      
      stroke-linecap   = "round"
      stroke-linejoin = "round"
      fill                       = "none"
      
      />









      <path d            = "M2362.5,437.5 Q2245.8333333333335,495.8333333333333 2187.5,554.1666666666667 "
      stroke                   = "#171717"
      stroke-width       = "1.4pt"
      
      stroke-linecap   = "round"
      stroke-linejoin = "round"
      fill                       = "none"
      
      />









      <path d            = "M2187.5,612.5 Q2129.1666666666665,495.8333333333333 2070.8333333333335,437.5 "
      stroke                   = "#171717"
      stroke-width       = "1.4pt"
      
      stroke-linecap   = "round"
      stroke-linejoin = "round"
      fill                       = "none"
      
      />









      <path d            = "M2012.5,787.5 Q2129.1666666666665,729.1666666666667 2187.5,670.8333333333334 "
      stroke                   = "#171717"
      stroke-width       = "1.4pt"
      
      stroke-linecap   = "round"
      stroke-linejoin = "round"
      fill                       = "none"
      
      />









      <path d            = "M2187.5,612.5 Q2245.8333333333335,729.1666666666667 2304.1666666666665,787.5 "
      stroke                   = "#171717"
      stroke-width       = "1.4pt"
      
      stroke-linecap   = "round"
      stroke-linejoin = "round"
      fill                       = "none"
      
      />









      <path d            = "M2362.5,787.5 Q2245.8333333333335,845.8333333333333 2187.5,904.1666666666667 "
      stroke                   = "#171717"
      stroke-width       = "1.4pt"
      
      stroke-linecap   = "round"
      stroke-linejoin = "round"
      fill                       = "none"
      
      />









      <path d            = "M2187.5,962.5 Q2129.1666666666665,845.8333333333333 2070.8333333333335,787.5 "
      stroke                   = "#171717"
      stroke-width       = "1.4pt"
      
      stroke-linecap   = "round"
      stroke-linejoin = "round"
      fill                       = "none"
      
      />









      <path d            = "M2012.5,1137.5 Q2129.1666666666665,1079.1666666666667 2187.5,1020.8333333333334 "
      stroke                   = "#171717"
      stroke-width       = "1.4pt"
      
      stroke-linecap   = "round"
      stroke-linejoin = "round"
      fill                       = "none"
      
      />









      <path d            = "M2187.5,962.5 Q2245.8333333333335,1079.1666666666667 2304.1666666666665,1137.5 "
      stroke                   = "#171717"
      stroke-width       = "1.4pt"
      
      stroke-linecap   = "round"
      stroke-linejoin = "round"
      fill                       = "none"
      
      />









      <path d            = "M2362.5,1137.5 Q2245.8333333333335,1195.8333333333333 2187.5,1254.1666666666667 "
      stroke                   = "#171717"
      stroke-width       = "1.4pt"
      
      stroke-linecap   = "round"
      stroke-linejoin = "round"
      fill                       = "none"
      
      />









      <path d            = "M2187.5,1312.5 Q2129.1666666666665,1195.8333333333333 2070.8333333333335,1137.5 "
      stroke                   = "#171717"
      stroke-width       = "1.4pt"
      
      stroke-linecap   = "round"
      stroke-linejoin = "round"
      fill                       = "none"
      
      />









      <path d            = "M2012.5,1487.5 Q2129.1666666666665,1429.1666666666667 2187.5,1370.8333333333333 "
      stroke                   = "#171717"
      stroke-width       = "1.4pt"
      
      stroke-linecap   = "round"
      stroke-linejoin = "round"
      fill                       = "none"
      
      />









      <path d            = "M2187.5,1312.5 Q2245.8333333333335,1429.1666666666667 2304.1666666666665,1487.5 "
      stroke                   = "#171717"
      stroke-width       = "1.4pt"
      
      stroke-linecap   = "round"
      stroke-linejoin = "round"
      fill                       = "none"
      
      />









      <path d            = "M2362.5,1487.5 Q2245.8333333333335,1545.8333333333333 2187.5,1604.1666666666667 "
      stroke                   = "#171717"
      stroke-width       = "1.4pt"
      
      stroke-linecap   = "round"
      stroke-linejoin = "round"
      fill                       = "none"
      
      />









      <path d            = "M2187.5,1662.5 Q2129.1666666666665,1545.8333333333333 2070.8333333333335,1487.5 "
      stroke                   = "#171717"
      stroke-width       = "1.4pt"
      
      stroke-linecap   = "round"
      stroke-linejoin = "round"
      fill                       = "none"
      
      />









      <path d            = "M2012.5,1837.5 Q2129.1666666666665,1779.1666666666667 2187.5,1720.8333333333333 "
      stroke                   = "#171717"
      stroke-width       = "1.4pt"
      
      stroke-linecap   = "round"
      stroke-linejoin = "round"
      fill                       = "none"
      
      />









      <path d            = "M2187.5,1662.5 Q2245.8333333333335,1779.1666666666667 2304.1666666666665,1837.5 "
      stroke                   = "#171717"
      stroke-width       = "1.4pt"
      
      stroke-linecap   = "round"
      stroke-linejoin = "round"
      fill                       = "none"
      
      />









      <path d            = "M2362.5,1837.5 Q2245.8333333333335,1895.8333333333333 2187.5,1954.1666666666667 "
      stroke                   = "#171717"
      stroke-width       = "1.4pt"
      
      stroke-linecap   = "round"
      stroke-linejoin = "round"
      fill                       = "none"
      
      />









      <path d            = "M2187.5,2012.5 Q2129.1666666666665,1895.8333333333333 2070.8333333333335,1837.5 "
      stroke                   = "#171717"
      stroke-width       = "1.4pt"
      
      stroke-linecap   = "round"
      stroke-linejoin = "round"
      fill                       = "none"
      
      />









      <path d            = "M2012.5,2187.5 Q2129.1666666666665,2129.1666666666665 2187.5,2070.8333333333335 "
      stroke                   = "#171717"
      stroke-width       = "1.4pt"
      
      stroke-linecap   = "round"
      stroke-linejoin = "round"
      fill                       = "none"
      
      />









      <path d            = "M2187.5,2012.5 Q2245.8333333333335,2129.1666666666665 2304.1666666666665,2187.5 "
      stroke                   = "#171717"
      stroke-width       = "1.4pt"
      
      stroke-linecap   = "round"
      stroke-linejoin = "round"
      fill                       = "none"
      
      />









      <path d            = "M2362.5,2187.5 Q2245.8333333333335,2245.8333333333335 2187.5,2304.1666666666665 "
      stroke                   = "#171717"
      stroke-width       = "1.4pt"
      
      stroke-linecap   = "round"
      stroke-linejoin = "round"
      fill                       = "none"
      
      />









      <path d            = "M2187.5,2362.5 Q2129.1666666666665,2245.8333333333335 2070.8333333333335,2187.5 "
      stroke                   = "#171717"
      stroke-width       = "1.4pt"
      
      stroke-linecap   = "round"
      stroke-linejoin = "round"
      fill                       = "none"
      
      />









      <path d            = "M2362.5,87.5 Q2479.1666666666665,29.166666666666686 2537.5,-29.16666666666667 "
      stroke                   = "#171717"
      stroke-width       = "1.4pt"
      
      stroke-linecap   = "round"
      stroke-linejoin = "round"
      fill                       = "none"
      
      />









      <path d            = "M2537.5,-87.5 Q2595.8333333333335,29.166666666666686 2654.1666666666665,87.5 "
      stroke                   = "#171717"
      stroke-width       = "1.4pt"
      
      stroke-linecap   = "round"
      stroke-linejoin = "round"
      fill                       = "none"
      
      />









      <path d            = "M2712.5,87.5 Q2595.8333333333335,145.83333333333331 2537.5,204.16666666666669 "
      stroke                   = "#171717"
      stroke-width       = "1.4pt"
      
      stroke-linecap   = "round"
      stroke-linejoin = "round"
      fill                       = "none"
      
      />









      <path d            = "M2537.5,262.5 Q2479.1666666666665,145.83333333333331 2420.8333333333335,87.5 "
      stroke                   = "#171717"
      stroke-width       = "1.4pt"
      
      stroke-linecap   = "round"
      stroke-linejoin = "round"
      fill                       = "none"
      
      />









      <path d            = "M2362.5,437.5 Q2479.1666666666665,379.1666666666667 2537.5,320.8333333333333 "
      stroke                   = "#171717"
      stroke-width       = "1.4pt"
      
      stroke-linecap   = "round"
      stroke-linejoin = "round"
      fill                       = "none"
      
      />









      <path d            = "M2537.5,262.5 Q2595.8333333333335,379.1666666666667 2654.1666666666665,437.5 "
      stroke                   = "#171717"
      stroke-width       = "1.4pt"
      
      stroke-linecap   = "round"
      stroke-linejoin = "round"
      fill                       = "none"
      
      />









      <path d            = "M2712.5,437.5 Q2595.8333333333335,495.8333333333333 2537.5,554.1666666666667 "
      stroke                   = "#171717"
      stroke-width       = "1.4pt"
      
      stroke-linecap   = "round"
      stroke-linejoin = "round"
      fill                       = "none"
      
      />









      <path d            = "M2537.5,612.5 Q2479.1666666666665,495.8333333333333 2420.8333333333335,437.5 "
      stroke                   = "#171717"
      stroke-width       = "1.4pt"
      
      stroke-linecap   = "round"
      stroke-linejoin = "round"
      fill                       = "none"
      
      />









      <path d            = "M2362.5,787.5 Q2479.1666666666665,729.1666666666667 2537.5,670.8333333333334 "
      stroke                   = "#171717"
      stroke-width       = "1.4pt"
      
      stroke-linecap   = "round"
      stroke-linejoin = "round"
      fill                       = "none"
      
      />









      <path d            = "M2537.5,612.5 Q2595.8333333333335,729.1666666666667 2654.1666666666665,787.5 "
      stroke                   = "#171717"
      stroke-width       = "1.4pt"
      
      stroke-linecap   = "round"
      stroke-linejoin = "round"
      fill                       = "none"
      
      />









      <path d            = "M2712.5,787.5 Q2595.8333333333335,845.8333333333333 2537.5,904.1666666666667 "
      stroke                   = "#171717"
      stroke-width       = "1.4pt"
      
      stroke-linecap   = "round"
      stroke-linejoin = "round"
      fill                       = "none"
      
      />









      <path d            = "M2537.5,962.5 Q2479.1666666666665,845.8333333333333 2420.8333333333335,787.5 "
      stroke                   = "#171717"
      stroke-width       = "1.4pt"
      
      stroke-linecap   = "round"
      stroke-linejoin = "round"
      fill                       = "none"
      
      />









      <path d            = "M2362.5,1137.5 Q2479.1666666666665,1079.1666666666667 2537.5,1020.8333333333334 "
      stroke                   = "#171717"
      stroke-width       = "1.4pt"
      
      stroke-linecap   = "round"
      stroke-linejoin = "round"
      fill                       = "none"
      
      />









      <path d            = "M2537.5,962.5 Q2595.8333333333335,1079.1666666666667 2654.1666666666665,1137.5 "
      stroke                   = "#171717"
      stroke-width       = "1.4pt"
      
      stroke-linecap   = "round"
      stroke-linejoin = "round"
      fill                       = "none"
      
      />









      <path d            = "M2712.5,1137.5 Q2595.8333333333335,1195.8333333333333 2537.5,1254.1666666666667 "
      stroke                   = "#171717"
      stroke-width       = "1.4pt"
      
      stroke-linecap   = "round"
      stroke-linejoin = "round"
      fill                       = "none"
      
      />









      <path d            = "M2537.5,1312.5 Q2479.1666666666665,1195.8333333333333 2420.8333333333335,1137.5 "
      stroke                   = "#171717"
      stroke-width       = "1.4pt"
      
      stroke-linecap   = "round"
      stroke-linejoin = "round"
      fill                       = "none"
      
      />









      <path d            = "M2362.5,1487.5 Q2479.1666666666665,1429.1666666666667 2537.5,1370.8333333333333 "
      stroke                   = "#171717"
      stroke-width       = "1.4pt"
      
      stroke-linecap   = "round"
      stroke-linejoin = "round"
      fill                       = "none"
      
      />









      <path d            = "M2537.5,1312.5 Q2595.8333333333335,1429.1666666666667 2654.1666666666665,1487.5 "
      stroke                   = "#171717"
      stroke-width       = "1.4pt"
      
      stroke-linecap   = "round"
      stroke-linejoin = "round"
      fill                       = "none"
      
      />









      <path d            = "M2712.5,1487.5 Q2595.8333333333335,1545.8333333333333 2537.5,1604.1666666666667 "
      stroke                   = "#171717"
      stroke-width       = "1.4pt"
      
      stroke-linecap   = "round"
      stroke-linejoin = "round"
      fill                       = "none"
      
      />









      <path d            = "M2537.5,1662.5 Q2479.1666666666665,1545.8333333333333 2420.8333333333335,1487.5 "
      stroke                   = "#171717"
      stroke-width       = "1.4pt"
      
      stroke-linecap   = "round"
      stroke-linejoin = "round"
      fill                       = "none"
      
      />









      <path d            = "M2362.5,1837.5 Q2479.1666666666665,1779.1666666666667 2537.5,1720.8333333333333 "
      stroke                   = "#171717"
      stroke-width       = "1.4pt"
      
      stroke-linecap   = "round"
      stroke-linejoin = "round"
      fill                       = "none"
      
      />









      <path d            = "M2537.5,1662.5 Q2595.8333333333335,1779.1666666666667 2654.1666666666665,1837.5 "
      stroke                   = "#171717"
      stroke-width       = "1.4pt"
      
      stroke-linecap   = "round"
      stroke-linejoin = "round"
      fill                       = "none"
      
      />









      <path d            = "M2712.5,1837.5 Q2595.8333333333335,1895.8333333333333 2537.5,1954.1666666666667 "
      stroke                   = "#171717"
      stroke-width       = "1.4pt"
      
      stroke-linecap   = "round"
      stroke-linejoin = "round"
      fill                       = "none"
      
      />









      <path d            = "M2537.5,2012.5 Q2479.1666666666665,1895.8333333333333 2420.8333333333335,1837.5 "
      stroke                   = "#171717"
      stroke-width       = "1.4pt"
      
      stroke-linecap   = "round"
      stroke-linejoin = "round"
      fill                       = "none"
      
      />









      <path d            = "M2362.5,2187.5 Q2479.1666666666665,2129.1666666666665 2537.5,2070.8333333333335 "
      stroke                   = "#171717"
      stroke-width       = "1.4pt"
      
      stroke-linecap   = "round"
      stroke-linejoin = "round"
      fill                       = "none"
      
      />









      <path d            = "M2537.5,2012.5 Q2595.8333333333335,2129.1666666666665 2654.1666666666665,2187.5 "
      stroke                   = "#171717"
      stroke-width       = "1.4pt"
      
      stroke-linecap   = "round"
      stroke-linejoin = "round"
      fill                       = "none"
      
      />









      <path d            = "M2712.5,2187.5 Q2595.8333333333335,2245.8333333333335 2537.5,2304.1666666666665 "
      stroke                   = "#171717"
      stroke-width       = "1.4pt"
      
      stroke-linecap   = "round"
      stroke-linejoin = "round"
      fill                       = "none"
      
      />









      <path d            = "M2537.5,2362.5 Q2479.1666666666665,2245.8333333333335 2420.8333333333335,2187.5 "
      stroke                   = "#171717"
      stroke-width       = "1.4pt"
      
      stroke-linecap   = "round"
      stroke-linejoin = "round"
      fill                       = "none"
      
      />









      <path d            = "M2712.5,87.5 Q2829.1666666666665,29.166666666666686 2887.5,-29.16666666666667 "
      stroke                   = "#171717"
      stroke-width       = "1.4pt"
      
      stroke-linecap   = "round"
      stroke-linejoin = "round"
      fill                       = "none"
      
      />









      <path d            = "M2887.5,-87.5 Q2945.8333333333335,29.166666666666686 3004.1666666666665,87.5 "
      stroke                   = "#171717"
      stroke-width       = "1.4pt"
      
      stroke-linecap   = "round"
      stroke-linejoin = "round"
      fill                       = "none"
      
      />









      <path d            = "M3062.5,87.5 Q2945.8333333333335,145.83333333333331 2887.5,204.16666666666669 "
      stroke                   = "#171717"
      stroke-width       = "1.4pt"
      
      stroke-linecap   = "round"
      stroke-linejoin = "round"
      fill                       = "none"
      
      />









      <path d            = "M2887.5,262.5 Q2829.1666666666665,145.83333333333331 2770.8333333333335,87.5 "
      stroke                   = "#171717"
      stroke-width       = "1.4pt"
      
      stroke-linecap   = "round"
      stroke-linejoin = "round"
      fill                       = "none"
      
      />









      <path d            = "M2712.5,437.5 Q2829.1666666666665,379.1666666666667 2887.5,320.8333333333333 "
      stroke                   = "#171717"
      stroke-width       = "1.4pt"
      
      stroke-linecap   = "round"
      stroke-linejoin = "round"
      fill                       = "none"
      
      />









      <path d            = "M2887.5,262.5 Q2945.8333333333335,379.1666666666667 3004.1666666666665,437.5 "
      stroke                   = "#171717"
      stroke-width       = "1.4pt"
      
      stroke-linecap   = "round"
      stroke-linejoin = "round"
      fill                       = "none"
      
      />









      <path d            = "M3062.5,437.5 Q2945.8333333333335,495.8333333333333 2887.5,554.1666666666667 "
      stroke                   = "#171717"
      stroke-width       = "1.4pt"
      
      stroke-linecap   = "round"
      stroke-linejoin = "round"
      fill                       = "none"
      
      />









      <path d            = "M2887.5,612.5 Q2829.1666666666665,495.8333333333333 2770.8333333333335,437.5 "
      stroke                   = "#171717"
      stroke-width       = "1.4pt"
      
      stroke-linecap   = "round"
      stroke-linejoin = "round"
      fill                       = "none"
      
      />









      <path d            = "M2712.5,787.5 Q2829.1666666666665,729.1666666666667 2887.5,670.8333333333334 "
      stroke                   = "#171717"
      stroke-width       = "1.4pt"
      
      stroke-linecap   = "round"
      stroke-linejoin = "round"
      fill                       = "none"
      
      />









      <path d            = "M2887.5,612.5 Q2945.8333333333335,729.1666666666667 3004.1666666666665,787.5 "
      stroke                   = "#171717"
      stroke-width       = "1.4pt"
      
      stroke-linecap   = "round"
      stroke-linejoin = "round"
      fill                       = "none"
      
      />









      <path d            = "M3062.5,787.5 Q2945.8333333333335,845.8333333333333 2887.5,904.1666666666667 "
      stroke                   = "#171717"
      stroke-width       = "1.4pt"
      
      stroke-linecap   = "round"
      stroke-linejoin = "round"
      fill                       = "none"
      
      />









      <path d            = "M2887.5,962.5 Q2829.1666666666665,845.8333333333333 2770.8333333333335,787.5 "
      stroke                   = "#171717"
      stroke-width       = "1.4pt"
      
      stroke-linecap   = "round"
      stroke-linejoin = "round"
      fill                       = "none"
      
      />









      <path d            = "M2712.5,1137.5 Q2829.1666666666665,1079.1666666666667 2887.5,1020.8333333333334 "
      stroke                   = "#171717"
      stroke-width       = "1.4pt"
      
      stroke-linecap   = "round"
      stroke-linejoin = "round"
      fill                       = "none"
      
      />









      <path d            = "M2887.5,962.5 Q2945.8333333333335,1079.1666666666667 3004.1666666666665,1137.5 "
      stroke                   = "#171717"
      stroke-width       = "1.4pt"
      
      stroke-linecap   = "round"
      stroke-linejoin = "round"
      fill                       = "none"
      
      />









      <path d            = "M3062.5,1137.5 Q2945.8333333333335,1195.8333333333333 2887.5,1254.1666666666667 "
      stroke                   = "#171717"
      stroke-width       = "1.4pt"
      
      stroke-linecap   = "round"
      stroke-linejoin = "round"
      fill                       = "none"
      
      />









      <path d            = "M2887.5,1312.5 Q2829.1666666666665,1195.8333333333333 2770.8333333333335,1137.5 "
      stroke                   = "#171717"
      stroke-width       = "1.4pt"
      
      stroke-linecap   = "round"
      stroke-linejoin = "round"
      fill                       = "none"
      
      />









      <path d            = "M2712.5,1487.5 Q2829.1666666666665,1429.1666666666667 2887.5,1370.8333333333333 "
      stroke                   = "#171717"
      stroke-width       = "1.4pt"
      
      stroke-linecap   = "round"
      stroke-linejoin = "round"
      fill                       = "none"
      
      />









      <path d            = "M2887.5,1312.5 Q2945.8333333333335,1429.1666666666667 3004.1666666666665,1487.5 "
      stroke                   = "#171717"
      stroke-width       = "1.4pt"
      
      stroke-linecap   = "round"
      stroke-linejoin = "round"
      fill                       = "none"
      
      />









      <path d            = "M3062.5,1487.5 Q2945.8333333333335,1545.8333333333333 2887.5,1604.1666666666667 "
      stroke                   = "#171717"
      stroke-width       = "1.4pt"
      
      stroke-linecap   = "round"
      stroke-linejoin = "round"
      fill                       = "none"
      
      />









      <path d            = "M2887.5,1662.5 Q2829.1666666666665,1545.8333333333333 2770.8333333333335,1487.5 "
      stroke                   = "#171717"
      stroke-width       = "1.4pt"
      
      stroke-linecap   = "round"
      stroke-linejoin = "round"
      fill                       = "none"
      
      />









      <path d            = "M2712.5,1837.5 Q2829.1666666666665,1779.1666666666667 2887.5,1720.8333333333333 "
      stroke                   = "#171717"
      stroke-width       = "1.4pt"
      
      stroke-linecap   = "round"
      stroke-linejoin = "round"
      fill                       = "none"
      
      />









      <path d            = "M2887.5,1662.5 Q2945.8333333333335,1779.1666666666667 3004.1666666666665,1837.5 "
      stroke                   = "#171717"
      stroke-width       = "1.4pt"
      
      stroke-linecap   = "round"
      stroke-linejoin = "round"
      fill                       = "none"
      
      />









      <path d            = "M3062.5,1837.5 Q2945.8333333333335,1895.8333333333333 2887.5,1954.1666666666667 "
      stroke                   = "#171717"
      stroke-width       = "1.4pt"
      
      stroke-linecap   = "round"
      stroke-linejoin = "round"
      fill                       = "none"
      
      />









      <path d            = "M2887.5,2012.5 Q2829.1666666666665,1895.8333333333333 2770.8333333333335,1837.5 "
      stroke                   = "#171717"
      stroke-width       = "1.4pt"
      
      stroke-linecap   = "round"
      stroke-linejoin = "round"
      fill                       = "none"
      
      />









      <path d            = "M2712.5,2187.5 Q2829.1666666666665,2129.1666666666665 2887.5,2070.8333333333335 "
      stroke                   = "#171717"
      stroke-width       = "1.4pt"
      
      stroke-linecap   = "round"
      stroke-linejoin = "round"
      fill                       = "none"
      
      />









      <path d            = "M2887.5,2012.5 Q2945.8333333333335,2129.1666666666665 3004.1666666666665,2187.5 "
      stroke                   = "#171717"
      stroke-width       = "1.4pt"
      
      stroke-linecap   = "round"
      stroke-linejoin = "round"
      fill                       = "none"
      
      />









      <path d            = "M3062.5,2187.5 Q2945.8333333333335,2245.8333333333335 2887.5,2304.1666666666665 "
      stroke                   = "#171717"
      stroke-width       = "1.4pt"
      
      stroke-linecap   = "round"
      stroke-linejoin = "round"
      fill                       = "none"
      
      />









      <path d            = "M2887.5,2362.5 Q2829.1666666666665,2245.8333333333335 2770.8333333333335,2187.5 "
      stroke                   = "#171717"
      stroke-width       = "1.4pt"
      
      stroke-linecap   = "round"
      stroke-linejoin = "round"
      fill                       = "none"
      
      />









      <path d            = "M3062.5,87.5 Q3179.1666666666665,29.166666666666686 3237.5,-29.16666666666667 "
      stroke                   = "#171717"
      stroke-width       = "1.4pt"
      
      stroke-linecap   = "round"
      stroke-linejoin = "round"
      fill                       = "none"
      
      />









      <path d            = "M3237.5,-87.5 Q3295.8333333333335,29.166666666666686 3354.1666666666665,87.5 "
      stroke                   = "#171717"
      stroke-width       = "1.4pt"
      
      stroke-linecap   = "round"
      stroke-linejoin = "round"
      fill                       = "none"
      
      />









      <path d            = "M3412.5,87.5 Q3295.8333333333335,145.83333333333331 3237.5,204.16666666666669 "
      stroke                   = "#171717"
      stroke-width       = "1.4pt"
      
      stroke-linecap   = "round"
      stroke-linejoin = "round"
      fill                       = "none"
      
      />









      <path d            = "M3237.5,262.5 Q3179.1666666666665,145.83333333333331 3120.8333333333335,87.5 "
      stroke                   = "#171717"
      stroke-width       = "1.4pt"
      
      stroke-linecap   = "round"
      stroke-linejoin = "round"
      fill                       = "none"
      
      />









      <path d            = "M3062.5,437.5 Q3179.1666666666665,379.1666666666667 3237.5,320.8333333333333 "
      stroke                   = "#171717"
      stroke-width       = "1.4pt"
      
      stroke-linecap   = "round"
      stroke-linejoin = "round"
      fill                       = "none"
      
      />









      <path d            = "M3237.5,262.5 Q3295.8333333333335,379.1666666666667 3354.1666666666665,437.5 "
      stroke                   = "#171717"
      stroke-width       = "1.4pt"
      
      stroke-linecap   = "round"
      stroke-linejoin = "round"
      fill                       = "none"
      
      />









      <path d            = "M3412.5,437.5 Q3295.8333333333335,495.8333333333333 3237.5,554.1666666666667 "
      stroke                   = "#171717"
      stroke-width       = "1.4pt"
      
      stroke-linecap   = "round"
      stroke-linejoin = "round"
      fill                       = "none"
      
      />









      <path d            = "M3237.5,612.5 Q3179.1666666666665,495.8333333333333 3120.8333333333335,437.5 "
      stroke                   = "#171717"
      stroke-width       = "1.4pt"
      
      stroke-linecap   = "round"
      stroke-linejoin = "round"
      fill                       = "none"
      
      />









      <path d            = "M3062.5,787.5 Q3179.1666666666665,729.1666666666667 3237.5,670.8333333333334 "
      stroke                   = "#171717"
      stroke-width       = "1.4pt"
      
      stroke-linecap   = "round"
      stroke-linejoin = "round"
      fill                       = "none"
      
      />









      <path d            = "M3237.5,612.5 Q3295.8333333333335,729.1666666666667 3354.1666666666665,787.5 "
      stroke                   = "#171717"
      stroke-width       = "1.4pt"
      
      stroke-linecap   = "round"
      stroke-linejoin = "round"
      fill                       = "none"
      
      />









      <path d            = "M3412.5,787.5 Q3295.8333333333335,845.8333333333333 3237.5,904.1666666666667 "
      stroke                   = "#171717"
      stroke-width       = "1.4pt"
      
      stroke-linecap   = "round"
      stroke-linejoin = "round"
      fill                       = "none"
      
      />









      <path d            = "M3237.5,962.5 Q3179.1666666666665,845.8333333333333 3120.8333333333335,787.5 "
      stroke                   = "#171717"
      stroke-width       = "1.4pt"
      
      stroke-linecap   = "round"
      stroke-linejoin = "round"
      fill                       = "none"
      
      />









      <path d            = "M3062.5,1137.5 Q3179.1666666666665,1079.1666666666667 3237.5,1020.8333333333334 "
      stroke                   = "#171717"
      stroke-width       = "1.4pt"
      
      stroke-linecap   = "round"
      stroke-linejoin = "round"
      fill                       = "none"
      
      />









      <path d            = "M3237.5,962.5 Q3295.8333333333335,1079.1666666666667 3354.1666666666665,1137.5 "
      stroke                   = "#171717"
      stroke-width       = "1.4pt"
      
      stroke-linecap   = "round"
      stroke-linejoin = "round"
      fill                       = "none"
      
      />









      <path d            = "M3412.5,1137.5 Q3295.8333333333335,1195.8333333333333 3237.5,1254.1666666666667 "
      stroke                   = "#171717"
      stroke-width       = "1.4pt"
      
      stroke-linecap   = "round"
      stroke-linejoin = "round"
      fill                       = "none"
      
      />









      <path d            = "M3237.5,1312.5 Q3179.1666666666665,1195.8333333333333 3120.8333333333335,1137.5 "
      stroke                   = "#171717"
      stroke-width       = "1.4pt"
      
      stroke-linecap   = "round"
      stroke-linejoin = "round"
      fill                       = "none"
      
      />









      <path d            = "M3062.5,1487.5 Q3179.1666666666665,1429.1666666666667 3237.5,1370.8333333333333 "
      stroke                   = "#171717"
      stroke-width       = "1.4pt"
      
      stroke-linecap   = "round"
      stroke-linejoin = "round"
      fill                       = "none"
      
      />









      <path d            = "M3237.5,1312.5 Q3295.8333333333335,1429.1666666666667 3354.1666666666665,1487.5 "
      stroke                   = "#171717"
      stroke-width       = "1.4pt"
      
      stroke-linecap   = "round"
      stroke-linejoin = "round"
      fill                       = "none"
      
      />









      <path d            = "M3412.5,1487.5 Q3295.8333333333335,1545.8333333333333 3237.5,1604.1666666666667 "
      stroke                   = "#171717"
      stroke-width       = "1.4pt"
      
      stroke-linecap   = "round"
      stroke-linejoin = "round"
      fill                       = "none"
      
      />









      <path d            = "M3237.5,1662.5 Q3179.1666666666665,1545.8333333333333 3120.8333333333335,1487.5 "
      stroke                   = "#171717"
      stroke-width       = "1.4pt"
      
      stroke-linecap   = "round"
      stroke-linejoin = "round"
      fill                       = "none"
      
      />









      <path d            = "M3062.5,1837.5 Q3179.1666666666665,1779.1666666666667 3237.5,1720.8333333333333 "
      stroke                   = "#171717"
      stroke-width       = "1.4pt"
      
      stroke-linecap   = "round"
      stroke-linejoin = "round"
      fill                       = "none"
      
      />









      <path d            = "M3237.5,1662.5 Q3295.8333333333335,1779.1666666666667 3354.1666666666665,1837.5 "
      stroke                   = "#171717"
      stroke-width       = "1.4pt"
      
      stroke-linecap   = "round"
      stroke-linejoin = "round"
      fill                       = "none"
      
      />









      <path d            = "M3412.5,1837.5 Q3295.8333333333335,1895.8333333333333 3237.5,1954.1666666666667 "
      stroke                   = "#171717"
      stroke-width       = "1.4pt"
      
      stroke-linecap   = "round"
      stroke-linejoin = "round"
      fill                       = "none"
      
      />









      <path d            = "M3237.5,2012.5 Q3179.1666666666665,1895.8333333333333 3120.8333333333335,1837.5 "
      stroke                   = "#171717"
      stroke-width       = "1.4pt"
      
      stroke-linecap   = "round"
      stroke-linejoin = "round"
      fill                       = "none"
      
      />









      <path d            = "M3062.5,2187.5 Q3179.1666666666665,2129.1666666666665 3237.5,2070.8333333333335 "
      stroke                   = "#171717"
      stroke-width       = "1.4pt"
      
      stroke-linecap   = "round"
      stroke-linejoin = "round"
      fill                       = "none"
      
      />









      <path d            = "M3237.5,2012.5 Q3295.8333333333335,2129.1666666666665 3354.1666666666665,2187.5 "
      stroke                   = "#171717"
      stroke-width       = "1.4pt"
      
      stroke-linecap   = "round"
      stroke-linejoin = "round"
      fill                       = "none"
      
      />









      <path d            = "M3412.5,2187.5 Q3295.8333333333335,2245.8333333333335 3237.5,2304.1666666666665 "
      stroke                   = "#171717"
      stroke-width       = "1.4pt"
      
      stroke-linecap   = "round"
      stroke-linejoin = "round"
      fill                       = "none"
      
      />









      <path d            = "M3237.5,2362.5 Q3179.1666666666665,2245.8333333333335 3120.8333333333335,2187.5 "
      stroke                   = "#171717"
      stroke-width       = "1.4pt"
      
      stroke-linecap   = "round"
      stroke-linejoin = "round"
      fill                       = "none"
      
      />








    
  </g>
</svg>
