<?xml version="1.0" encoding="UTF-8"?>

<svg version             = "1.2"
     baseProfile         = "full"
     width               = "1200px"
     height              = "800px"
     viewBox             = "-100.0 -75.0 4000.0 2100.0"
     preserveAspectRatio = "xMidYMid meet"
     viewport-fill       = "white"
     xmlns               = "http://www.w3.org/2000/svg">

    
    <!--  Render window is: [-100.0, -75.0] to [3900.0, 2025.0] -->
    

    
    <!--  Render viewport is: [0, 0] to [1200, 800] -->
    

    
    <!-- Useable viewport is: [0, 0] to [1200, 800] -->
    

    
    <!-- Clip box is: [-100.0, -75.0] to [3900.0, 2025.0] -->
    

    <desc>description text here</desc>

    

    
    <clipPath id="lattice">
      <rect x            = "-100.0"
            y            = "-75.0"
            width        = "4000.0"
            height       = "2100.0"/>
    </clipPath>
    

    <g clip-path       = "url(#lattice)"
       vector-effect   = "non-scaling-stroke"
       color-rendering = "optimizeQuality"
       shape-rendering = "geometricPrecision">

      


      <polygon points       = "3900.0 -75.0  3900.0 2025.0  -100.0 2025.0  -100.0 -75.0  "
               stroke                   = "none"
               stroke-width       = "0"
               
               
               
               fill                       = "#FAFAFA"
               
      />










      <path d            = "M100.0,-75.0 C-100.0,-75.0 0.0,-75.0 0.0,75.0  "
      stroke                   = "#171717"
      stroke-width       = "1.4pt"
      
      stroke-linecap   = "round"
      stroke-linejoin = "round"
      fill                       = "none"
      
      />









      <path d            = "M300.0,75.0 C100.0,75.0 200.0,75.0 200.0,-75.0  "
      stroke                   = "#171717"
      stroke-width       = "1.4pt"
      
      stroke-linecap   = "round"
      stroke-linejoin = "round"
      fill                       = "none"
      
      />









      <path d            = "M-100.0,75.0 C100.0,75.0 0.0,75.0 0.0,225.0  "
      stroke                   = "#171717"
      stroke-width       = "1.4pt"
      
      stroke-linecap   = "round"
      stroke-linejoin = "round"
      fill                       = "none"
      
      />









      <path d            = "M100.0,225.0 C300.0,225.0 200.0,225.0 200.0,75.0  "
      stroke                   = "#171717"
      stroke-width       = "1.4pt"
      
      stroke-linecap   = "round"
      stroke-linejoin = "round"
      fill                       = "none"
      
      />









      <path d            = "M100.0,225.0 C-100.0,225.0 0.0,225.0 0.0,375.0  "
      stroke                   = "#171717"
      stroke-width       = "1.4pt"
      
      stroke-linecap   = "round"
      stroke-linejoin = "round"
      fill                       = "none"
      
      />









      <path d            = "M300.0,375.0 C100.0,375.0 200.0,375.0 200.0,225.0  "
      stroke                   = "#171717"
      stroke-width       = "1.4pt"
      
      stroke-linecap   = "round"
      stroke-linejoin = "round"
      fill                       = "none"
      
      />









      <path d            = "M-100.0,375.0 C100.0,375.0 0.0,375.0 0.0,525.0  "
      stroke                   = "#171717"
      stroke-width       = "1.4pt"
      
      stroke-linecap   = "round"
      stroke-linejoin = "round"
      fill                       = "none"
      
      />









      <path d            = "M100.0,525.0 C300.0,525.0 200.0,525.0 200.0,375.0  "
      stroke                   = "#171717"
      stroke-width       = "1.4pt"
      
      stroke-linecap   = "round"
      stroke-linejoin = "round"
      fill                       = "none"
      
      />









      <path d            = "M100.0,525.0 C-100.0,525.0 0.0,525.0 0.0,675.0  "
      stroke                   = "#171717"
      stroke-width       = "1.4pt"
      
      stroke-linecap   = "round"
      stroke-linejoin = "round"
      fill                       = "none"
      
      />









      <path d            = "M300.0,675.0 C100.0,675.0 200.0,675.0 200.0,525.0  "
      stroke                   = "#171717"
      stroke-width       = "1.4pt"
      
      stroke-linecap   = "round"
      stroke-linejoin = "round"
      fill                       = "none"
      
      />









      <path d            = "M-100.0,675.0 C100.0,675.0 0.0,675.0 0.0,825.0  "
      stroke                   = "#171717"
      stroke-width       = "1.4pt"
      
      stroke-linecap   = "round"
      stroke-linejoin = "round"
      fill                       = "none"
      
      />









      <path d            = "M100.0,825.0 C300.0,825.0 200.0,825.0 200.0,675.0  "
      stroke                   = "#171717"
      stroke-width       = "1.4pt"
      
      stroke-linecap   = "round"
      stroke-linejoin = "round"
      fill                       = "none"
      
      />









      <path d            = "M100.0,825.0 C-100.0,825.0 0.0,825.0 0.0,975.0  "
      stroke                   = "#171717"
      stroke-width       = "1.4pt"
      
      stroke-linecap   = "round"
      stroke-linejoin = "round"
      fill                       = "none"
      
      />









      <path d            = "M300.0,975.0 C100.0,975.0 200.0,975.0 200.0,825.0  "
      stroke                   = "#171717"
      stroke-width       = "1.4pt"
      
      stroke-linecap   = "round"
      stroke-linejoin = "round"
      fill                       = "none"
      
      />









      <path d            = "M-100.0,975.0 C100.0,975.0 0.0,975.0 0.0,1125.0  "
      stroke                   = "#171717"
      stroke-width       = "1.4pt"
      
      stroke-linecap   = "round"
      stroke-linejoin = "round"
      fill                       = "none"
      
      />









      <path d            = "M100.0,1125.0 C300.0,1125.0 200.0,1125.0 200.0,975.0  "
      stroke                   = "#171717"
      stroke-width       = "1.4pt"
      
      stroke-linecap   = "round"
      stroke-linejoin = "round"
      fill                       = "none"
      
      />









      <path d            = "M100.0,1125.0 C-100.0,1125.0 0.0,1125.0 0.0,1275.0  "
      stroke                   = "#171717"
      stroke-width       = "1.4pt"
      
      stroke-linecap   = "round"
      stroke-linejoin = "round"
      fill                       = "none"
      
      />









      <path d            = "M300.0,1275.0 C100.0,1275.0 200.0,1275.0 200.0,1125.0  "
      stroke                   = "#171717"
      stroke-width       = "1.4pt"
      
      stroke-linecap   = "round"
      stroke-linejoin = "round"
      fill                       = "none"
      
      />









      <path d            = "M-100.0,1275.0 C100.0,1275.0 0.0,1275.0 0.0,1425.0  "
      stroke                   = "#171717"
      stroke-width       = "1.4pt"
      
      stroke-linecap   = "round"
      stroke-linejoin = "round"
      fill                       = "none"
      
      />









      <path d            = "M100.0,1425.0 C300.0,1425.0 200.0,1425.0 200.0,1275.0  "
      stroke                   = "#171717"
      stroke-width       = "1.4pt"
      
      stroke-linecap   = "round"
      stroke-linejoin = "round"
      fill                       = "none"
      
      />









      <path d            = "M100.0,1425.0 C-100.0,1425.0 0.0,1425.0 0.0,1575.0  "
      stroke                   = "#171717"
      stroke-width       = "1.4pt"
      
      stroke-linecap   = "round"
      stroke-linejoin = "round"
      fill                       = "none"
      
      />









      <path d            = "M300.0,1575.0 C100.0,1575.0 200.0,1575.0 200.0,1425.0  "
      stroke                   = "#171717"
      stroke-width       = "1.4pt"
      
      stroke-linecap   = "round"
      stroke-linejoin = "round"
      fill                       = "none"
      
      />









      <path d            = "M-100.0,1575.0 C100.0,1575.0 0.0,1575.0 0.0,1725.0  "
      stroke                   = "#171717"
      stroke-width       = "1.4pt"
      
      stroke-linecap   = "round"
      stroke-linejoin = "round"
      fill                       = "none"
      
      />









      <path d            = "M100.0,1725.0 C300.0,1725.0 200.0,1725.0 200.0,1575.0  "
      stroke                   = "#171717"
      stroke-width       = "1.4pt"
      
      stroke-linecap   = "round"
      stroke-linejoin = "round"
      fill                       = "none"
      
      />









      <path d            = "M100.0,1725.0 C-100.0,1725.0 0.0,1725.0 0.0,1875.0  "
      stroke                   = "#171717"
      stroke-width       = "1.4pt"
      
      stroke-linecap   = "round"
      stroke-linejoin = "round"
      fill                       = "none"
      
      />









      <path d            = "M300.0,1875.0 C100.0,1875.0 200.0,1875.0 200.0,1725.0  "
      stroke                   = "#171717"
      stroke-width       = "1.4pt"
      
      stroke-linecap   = "round"
      stroke-linejoin = "round"
      fill                       = "none"
      
      />









      <path d            = "M-100.0,1875.0 C100.0,1875.0 0.0,1875.0 0.0,2025.0  "
      stroke                   = "#171717"
      stroke-width       = "1.4pt"
      
      stroke-linecap   = "round"
      stroke-linejoin = "round"
      fill                       = "none"
      
      />









      <path d            = "M100.0,2025.0 C300.0,2025.0 200.0,2025.0 200.0,1875.0  "
      stroke                   = "#171717"
      stroke-width       = "1.4pt"
      
      stroke-linecap   = "round"
      stroke-linejoin = "round"
      fill                       = "none"
      
      />









      <path d            = "M500.0,-75.0 C300.0,-75.0 400.0,-75.0 400.0,75.0  "
      stroke                   = "#171717"
      stroke-width       = "1.4pt"
      
      stroke-linecap   = "round"
      stroke-linejoin = "round"
      fill                       = "none"
      
      />









      <path d            = "M700.0,75.0 C500.0,75.0 600.0,75.0 600.0,-75.0  "
      stroke                   = "#171717"
      stroke-width       = "1.4pt"
      
      stroke-linecap   = "round"
      stroke-linejoin = "round"
      fill                       = "none"
      
      />









      <path d            = "M300.0,75.0 C500.0,75.0 400.0,75.0 400.0,225.0  "
      stroke                   = "#171717"
      stroke-width       = "1.4pt"
      
      stroke-linecap   = "round"
      stroke-linejoin = "round"
      fill                       = "none"
      
      />









      <path d            = "M500.0,225.0 C700.0,225.0 600.0,225.0 600.0,75.0  "
      stroke                   = "#171717"
      stroke-width       = "1.4pt"
      
      stroke-linecap   = "round"
      stroke-linejoin = "round"
      fill                       = "none"
      
      />









      <path d            = "M500.0,225.0 C300.0,225.0 400.0,225.0 400.0,375.0  "
      stroke                   = "#171717"
      stroke-width       = "1.4pt"
      
      stroke-linecap   = "round"
      stroke-linejoin = "round"
      fill                       = "none"
      
      />









      <path d            = "M700.0,375.0 C500.0,375.0 600.0,375.0 600.0,225.0  "
      stroke                   = "#171717"
      stroke-width       = "1.4pt"
      
      stroke-linecap   = "round"
      stroke-linejoin = "round"
      fill                       = "none"
      
      />









      <path d            = "M300.0,375.0 C500.0,375.0 400.0,375.0 400.0,525.0  "
      stroke                   = "#171717"
      stroke-width       = "1.4pt"
      
      stroke-linecap   = "round"
      stroke-linejoin = "round"
      fill                       = "none"
      
      />









      <path d            = "M500.0,525.0 C700.0,525.0 600.0,525.0 600.0,375.0  "
      stroke                   = "#171717"
      stroke-width       = "1.4pt"
      
      stroke-linecap   = "round"
      stroke-linejoin = "round"
      fill                       = "none"
      
      />









      <path d            = "M500.0,525.0 C300.0,525.0 400.0,525.0 400.0,675.0  "
      stroke                   = "#171717"
      stroke-width       = "1.4pt"
      
      stroke-linecap   = "round"
      stroke-linejoin = "round"
      fill                       = "none"
      
      />









      <path d            = "M700.0,675.0 C500.0,675.0 600.0,675.0 600.0,525.0  "
      stroke                   = "#171717"
      stroke-width       = "1.4pt"
      
      stroke-linecap   = "round"
      stroke-linejoin = "round"
      fill                       = "none"
      
      />









      <path d            = "M300.0,675.0 C500.0,675.0 400.0,675.0 400.0,825.0  "
      stroke                   = "#171717"
      stroke-width       = "1.4pt"
      
      stroke-linecap   = "round"
      stroke-linejoin = "round"
      fill                       = "none"
      
      />









      <path d            = "M500.0,825.0 C700.0,825.0 600.0,825.0 600.0,675.0  "
      stroke                   = "#171717"
      stroke-width       = "1.4pt"
      
      stroke-linecap   = "round"
      stroke-linejoin = "round"
      fill                       = "none"
      
      />









      <path d            = "M500.0,825.0 C300.0,825.0 400.0,825.0 400.0,975.0  "
      stroke                   = "#171717"
      stroke-width       = "1.4pt"
      
      stroke-linecap   = "round"
      stroke-linejoin = "round"
      fill                       = "none"
      
      />









      <path d            = "M700.0,975.0 C500.0,975.0 600.0,975.0 600.0,825.0  "
      stroke                   = "#171717"
      stroke-width       = "1.4pt"
      
      stroke-linecap   = "round"
      stroke-linejoin = "round"
      fill                       = "none"
      
      />









      <path d            = "M300.0,975.0 C500.0,975.0 400.0,975.0 400.0,1125.0  "
      stroke                   = "#171717"
      stroke-width       = "1.4pt"
      
      stroke-linecap   = "round"
      stroke-linejoin = "round"
      fill                       = "none"
      
      />









      <path d            = "M500.0,1125.0 C700.0,1125.0 600.0,1125.0 600.0,975.0  "
      stroke                   = "#171717"
      stroke-width       = "1.4pt"
      
      stroke-linecap   = "round"
      stroke-linejoin = "round"
      fill                       = "none"
      
      />









      <path d            = "M500.0,1125.0 C300.0,1125.0 400.0,1125.0 400.0,1275.0  "
      stroke                   = "#171717"
      stroke-width       = "1.4pt"
      
      stroke-linecap   = "round"
      stroke-linejoin = "round"
      fill                       = "none"
      
      />









      <path d            = "M700.0,1275.0 C500.0,1275.0 600.0,1275.0 600.0,1125.0  "
      stroke                   = "#171717"
      stroke-width       = "1.4pt"
      
      stroke-linecap   = "round"
      stroke-linejoin = "round"
      fill                       = "none"
      
      />









      <path d            = "M300.0,1275.0 C500.0,1275.0 400.0,1275.0 400.0,1425.0  "
      stroke                   = "#171717"
      stroke-width       = "1.4pt"
      
      stroke-linecap   = "round"
      stroke-linejoin = "round"
      fill                       = "none"
      
      />









      <path d            = "M500.0,1425.0 C700.0,1425.0 600.0,1425.0 600.0,1275.0  "
      stroke                   = "#171717"
      stroke-width       = "1.4pt"
      
      stroke-linecap   = "round"
      stroke-linejoin = "round"
      fill                       = "none"
      
      />









      <path d            = "M500.0,1425.0 C300.0,1425.0 400.0,1425.0 400.0,1575.0  "
      stroke                   = "#171717"
      stroke-width       = "1.4pt"
      
      stroke-linecap   = "round"
      stroke-linejoin = "round"
      fill                       = "none"
      
      />









      <path d            = "M700.0,1575.0 C500.0,1575.0 600.0,1575.0 600.0,1425.0  "
      stroke                   = "#171717"
      stroke-width       = "1.4pt"
      
      stroke-linecap   = "round"
      stroke-linejoin = "round"
      fill                       = "none"
      
      />









      <path d            = "M300.0,1575.0 C500.0,1575.0 400.0,1575.0 400.0,1725.0  "
      stroke                   = "#171717"
      stroke-width       = "1.4pt"
      
      stroke-linecap   = "round"
      stroke-linejoin = "round"
      fill                       = "none"
      
      />









      <path d            = "M500.0,1725.0 C700.0,1725.0 600.0,1725.0 600.0,1575.0  "
      stroke                   = "#171717"
      stroke-width       = "1.4pt"
      
      stroke-linecap   = "round"
      stroke-linejoin = "round"
      fill                       = "none"
      
      />









      <path d            = "M500.0,1725.0 C300.0,1725.0 400.0,1725.0 400.0,1875.0  "
      stroke                   = "#171717"
      stroke-width       = "1.4pt"
      
      stroke-linecap   = "round"
      stroke-linejoin = "round"
      fill                       = "none"
      
      />









      <path d            = "M700.0,1875.0 C500.0,1875.0 600.0,1875.0 600.0,1725.0  "
      stroke                   = "#171717"
      stroke-width       = "1.4pt"
      
      stroke-linecap   = "round"
      stroke-linejoin = "round"
      fill                       = "none"
      
      />









      <path d            = "M300.0,1875.0 C500.0,1875.0 400.0,1875.0 400.0,2025.0  "
      stroke                   = "#171717"
      stroke-width       = "1.4pt"
      
      stroke-linecap   = "round"
      stroke-linejoin = "round"
      fill                       = "none"
      
      />









      <path d            = "M500.0,2025.0 C700.0,2025.0 600.0,2025.0 600.0,1875.0  "
      stroke                   = "#171717"
      stroke-width       = "1.4pt"
      
      stroke-linecap   = "round"
      stroke-linejoin = "round"
      fill                       = "none"
      
      />









      <path d            = "M900.0,-75.0 C700.0,-75.0 800.0,-75.0 800.0,75.0  "
      stroke                   = "#171717"
      stroke-width       = "1.4pt"
      
      stroke-linecap   = "round"
      stroke-linejoin = "round"
      fill                       = "none"
      
      />









      <path d            = "M1100.0,75.0 C900.0,75.0 1000.0,75.0 1000.0,-75.0  "
      stroke                   = "#171717"
      stroke-width       = "1.4pt"
      
      stroke-linecap   = "round"
      stroke-linejoin = "round"
      fill                       = "none"
      
      />









      <path d            = "M700.0,75.0 C900.0,75.0 800.0,75.0 800.0,225.0  "
      stroke                   = "#171717"
      stroke-width       = "1.4pt"
      
      stroke-linecap   = "round"
      stroke-linejoin = "round"
      fill                       = "none"
      
      />









      <path d            = "M900.0,225.0 C1100.0,225.0 1000.0,225.0 1000.0,75.0  "
      stroke                   = "#171717"
      stroke-width       = "1.4pt"
      
      stroke-linecap   = "round"
      stroke-linejoin = "round"
      fill                       = "none"
      
      />









      <path d            = "M900.0,225.0 C700.0,225.0 800.0,225.0 800.0,375.0  "
      stroke                   = "#171717"
      stroke-width       = "1.4pt"
      
      stroke-linecap   = "round"
      stroke-linejoin = "round"
      fill                       = "none"
      
      />









      <path d            = "M1100.0,375.0 C900.0,375.0 1000.0,375.0 1000.0,225.0  "
      stroke                   = "#171717"
      stroke-width       = "1.4pt"
      
      stroke-linecap   = "round"
      stroke-linejoin = "round"
      fill                       = "none"
      
      />









      <path d            = "M700.0,375.0 C900.0,375.0 800.0,375.0 800.0,525.0  "
      stroke                   = "#171717"
      stroke-width       = "1.4pt"
      
      stroke-linecap   = "round"
      stroke-linejoin = "round"
      fill                       = "none"
      
      />









      <path d            = "M900.0,525.0 C1100.0,525.0 1000.0,525.0 1000.0,375.0  "
      stroke                   = "#171717"
      stroke-width       = "1.4pt"
      
      stroke-linecap   = "round"
      stroke-linejoin = "round"
      fill                       = "none"
      
      />









      <path d            = "M900.0,525.0 C700.0,525.0 800.0,525.0 800.0,675.0  "
      stroke                   = "#171717"
      stroke-width       = "1.4pt"
      
      stroke-linecap   = "round"
      stroke-linejoin = "round"
      fill                       = "none"
      
      />









      <path d            = "M1100.0,675.0 C900.0,675.0 1000.0,675.0 1000.0,525.0  "
      stroke                   = "#171717"
      stroke-width       = "1.4pt"
      
      stroke-linecap   = "round"
      stroke-linejoin = "round"
      fill                       = "none"
      
      />









      <path d            = "M700.0,675.0 C900.0,675.0 800.0,675.0 800.0,825.0  "
      stroke                   = "#171717"
      stroke-width       = "1.4pt"
      
      stroke-linecap   = "round"
      stroke-linejoin = "round"
      fill                       = "none"
      
      />









      <path d            = "M900.0,825.0 C1100.0,825.0 1000.0,825.0 1000.0,675.0  "
      stroke                   = "#171717"
      stroke-width       = "1.4pt"
      
      stroke-linecap   = "round"
      stroke-linejoin = "round"
      fill                       = "none"
      
      />









      <path d            = "M900.0,825.0 C700.0,825.0 800.0,825.0 800.0,975.0  "
      stroke                   = "#171717"
      stroke-width       = "1.4pt"
      
      stroke-linecap   = "round"
      stroke-linejoin = "round"
      fill                       = "none"
      
      />









      <path d            = "M1100.0,975.0 C900.0,975.0 1000.0,975.0 1000.0,825.0  "
      stroke                   = "#171717"
      stroke-width       = "1.4pt"
      
      stroke-linecap   = "round"
      stroke-linejoin = "round"
      fill                       = "none"
      
      />









      <path d            = "M700.0,975.0 C900.0,975.0 800.0,975.0 800.0,1125.0  "
      stroke                   = "#171717"
      stroke-width       = "1.4pt"
      
      stroke-linecap   = "round"
      stroke-linejoin = "round"
      fill                       = "none"
      
      />









      <path d            = "M900.0,1125.0 C1100.0,1125.0 1000.0,1125.0 1000.0,975.0  "
      stroke                   = "#171717"
      stroke-width       = "1.4pt"
      
      stroke-linecap   = "round"
      stroke-linejoin = "round"
      fill                       = "none"
      
      />









      <path d            = "M900.0,1125.0 C700.0,1125.0 800.0,1125.0 800.0,1275.0  "
      stroke                   = "#171717"
      stroke-width       = "1.4pt"
      
      stroke-linecap   = "round"
      stroke-linejoin = "round"
      fill                       = "none"
      
      />









      <path d            = "M1100.0,1275.0 C900.0,1275.0 1000.0,1275.0 1000.0,1125.0  "
      stroke                   = "#171717"
      stroke-width       = "1.4pt"
      
      stroke-linecap   = "round"
      stroke-linejoin = "round"
      fill                       = "none"
      
      />









      <path d            = "M700.0,1275.0 C900.0,1275.0 800.0,1275.0 800.0,1425.0  "
      stroke                   = "#171717"
      stroke-width       = "1.4pt"
      
      stroke-linecap   = "round"
      stroke-linejoin = "round"
      fill                       = "none"
      
      />









      <path d            = "M900.0,1425.0 C1100.0,1425.0 1000.0,1425.0 1000.0,1275.0  "
      stroke                   = "#171717"
      stroke-width       = "1.4pt"
      
      stroke-linecap   = "round"
      stroke-linejoin = "round"
      fill                       = "none"
      
      />









      <path d            = "M900.0,1425.0 C700.0,1425.0 800.0,1425.0 800.0,1575.0  "
      stroke                   = "#171717"
      stroke-width       = "1.4pt"
      
      stroke-linecap   = "round"
      stroke-linejoin = "round"
      fill                       = "none"
      
      />









      <path d            = "M1100.0,1575.0 C900.0,1575.0 1000.0,1575.0 1000.0,1425.0  "
      stroke                   = "#171717"
      stroke-width       = "1.4pt"
      
      stroke-linecap   = "round"
      stroke-linejoin = "round"
      fill                       = "none"
      
      />









      <path d            = "M700.0,1575.0 C900.0,1575.0 800.0,1575.0 800.0,1725.0  "
      stroke                   = "#171717"
      stroke-width       = "1.4pt"
      
      stroke-linecap   = "round"
      stroke-linejoin = "round"
      fill                       = "none"
      
      />









      <path d            = "M900.0,1725.0 C1100.0,1725.0 1000.0,1725.0 1000.0,1575.0  "
      stroke                   = "#171717"
      stroke-width       = "1.4pt"
      
      stroke-linecap   = "round"
      stroke-linejoin = "round"
      fill                       = "none"
      
      />









      <path d            = "M900.0,1725.0 C700.0,1725.0 800.0,1725.0 800.0,1875.0  "
      stroke                   = "#171717"
      stroke-width       = "1.4pt"
      
      stroke-linecap   = "round"
      stroke-linejoin = "round"
      fill                       = "none"
      
      />









      <path d            = "M1100.0,1875.0 C900.0,1875.0 1000.0,1875.0 1000.0,1725.0  "
      stroke                   = "#171717"
      stroke-width       = "1.4pt"
      
      stroke-linecap   = "round"
      stroke-linejoin = "round"
      fill                       = "none"
      
      />









      <path d            = "M700.0,1875.0 C900.0,1875.0 800.0,1875.0 800.0,2025.0  "
      stroke                   = "#171717"
      stroke-width       = "1.4pt"
      
      stroke-linecap   = "round"
      stroke-linejoin = "round"
      fill                       = "none"
      
      />









      <path d            = "M900.0,2025.0 C1100.0,2025.0 1000.0,2025.0 1000.0,1875.0  "
      stroke                   = "#171717"
      stroke-width       = "1.4pt"
      
      stroke-linecap   = "round"
      stroke-linejoin = "round"
      fill                       = "none"
      
      />









      <path d            = "M1300.0,-75.0 C1100.0,-75.0 1200.0,-75.0 1200.0,75.0  "
      stroke                   = "#171717"
      stroke-width       = "1.4pt"
      
      stroke-linecap   = "round"
      stroke-linejoin = "round"
      fill                       = "none"
      
      />









      <path d            = "M1500.0,75.0 C1300.0,75.0 1400.0,75.0 1400.0,-75.0  "
      stroke                   = "#171717"
      stroke-width       = "1.4pt"
      
      stroke-linecap   = "round"
      stroke-linejoin = "round"
      fill                       = "none"
      
      />









      <path d            = "M1100.0,75.0 C1300.0,75.0 1200.0,75.0 1200.0,225.0  "
      stroke                   = "#171717"
      stroke-width       = "1.4pt"
      
      stroke-linecap   = "round"
      stroke-linejoin = "round"
      fill                       = "none"
      
      />









      <path d            = "M1300.0,225.0 C1500.0,225.0 1400.0,225.0 1400.0,75.0  "
      stroke                   = "#171717"
      stroke-width       = "1.4pt"
      
      stroke-linecap   = "round"
      stroke-linejoin = "round"
      fill                       = "none"
      
      />









      <path d            = "M1300.0,225.0 C1100.0,225.0 1200.0,225.0 1200.0,375.0  "
      stroke                   = "#171717"
      stroke-width       = "1.4pt"
      
      stroke-linecap   = "round"
      stroke-linejoin = "round"
      fill                       = "none"
      
      />









      <path d            = "M1500.0,375.0 C1300.0,375.0 1400.0,375.0 1400.0,225.0  "
      stroke                   = "#171717"
      stroke-width       = "1.4pt"
      
      stroke-linecap   = "round"
      stroke-linejoin = "round"
      fill                       = "none"
      
      />









      <path d            = "M1100.0,375.0 C1300.0,375.0 1200.0,375.0 1200.0,525.0  "
      stroke                   = "#171717"
      stroke-width       = "1.4pt"
      
      stroke-linecap   = "round"
      stroke-linejoin = "round"
      fill                       = "none"
      
      />









      <path d            = "M1300.0,525.0 C1500.0,525.0 1400.0,525.0 1400.0,375.0  "
      stroke                   = "#171717"
      stroke-width       = "1.4pt"
      
      stroke-linecap   = "round"
      stroke-linejoin = "round"
      fill                       = "none"
      
      />









      <path d            = "M1300.0,525.0 C1100.0,525.0 1200.0,525.0 1200.0,675.0  "
      stroke                   = "#171717"
      stroke-width       = "1.4pt"
      
      stroke-linecap   = "round"
      stroke-linejoin = "round"
      fill                       = "none"
      
      />









      <path d            = "M1500.0,675.0 C1300.0,675.0 1400.0,675.0 1400.0,525.0  "
      stroke                   = "#171717"
      stroke-width       = "1.4pt"
      
      stroke-linecap   = "round"
      stroke-linejoin = "round"
      fill                       = "none"
      
      />









      <path d            = "M1100.0,675.0 C1300.0,675.0 1200.0,675.0 1200.0,825.0  "
      stroke                   = "#171717"
      stroke-width       = "1.4pt"
      
      stroke-linecap   = "round"
      stroke-linejoin = "round"
      fill                       = "none"
      
      />









      <path d            = "M1300.0,825.0 C1500.0,825.0 1400.0,825.0 1400.0,675.0  "
      stroke                   = "#171717"
      stroke-width       = "1.4pt"
      
      stroke-linecap   = "round"
      stroke-linejoin = "round"
      fill                       = "none"
      
      />









      <path d            = "M1300.0,825.0 C1100.0,825.0 1200.0,825.0 1200.0,975.0  "
      stroke                   = "#171717"
      stroke-width       = "1.4pt"
      
      stroke-linecap   = "round"
      stroke-linejoin = "round"
      fill                       = "none"
      
      />









      <path d            = "M1500.0,975.0 C1300.0,975.0 1400.0,975.0 1400.0,825.0  "
      stroke                   = "#171717"
      stroke-width       = "1.4pt"
      
      stroke-linecap   = "round"
      stroke-linejoin = "round"
      fill                       = "none"
      
      />









      <path d            = "M1100.0,975.0 C1300.0,975.0 1200.0,975.0 1200.0,1125.0  "
      stroke                   = "#171717"
      stroke-width       = "1.4pt"
      
      stroke-linecap   = "round"
      stroke-linejoin = "round"
      fill                       = "none"
      
      />









      <path d            = "M1300.0,1125.0 C1500.0,1125.0 1400.0,1125.0 1400.0,975.0  "
      stroke                   = "#171717"
      stroke-width       = "1.4pt"
      
      stroke-linecap   = "round"
      stroke-linejoin = "round"
      fill                       = "none"
      
      />









      <path d            = "M1300.0,1125.0 C1100.0,1125.0 1200.0,1125.0 1200.0,1275.0  "
      stroke                   = "#171717"
      stroke-width       = "1.4pt"
      
      stroke-linecap   = "round"
      stroke-linejoin = "round"
      fill                       = "none"
      
      />









      <path d            = "M1500.0,1275.0 C1300.0,1275.0 1400.0,1275.0 1400.0,1125.0  "
      stroke                   = "#171717"
      stroke-width       = "1.4pt"
      
      stroke-linecap   = "round"
      stroke-linejoin = "round"
      fill                       = "none"
      
      />









      <path d            = "M1100.0,1275.0 C1300.0,1275.0 1200.0,1275.0 1200.0,1425.0  "
      stroke                   = "#171717"
      stroke-width       = "1.4pt"
      
      stroke-linecap   = "round"
      stroke-linejoin = "round"
      fill                       = "none"
      
      />









      <path d            = "M1300.0,1425.0 C1500.0,1425.0 1400.0,1425.0 1400.0,1275.0  "
      stroke                   = "#171717"
      stroke-width       = "1.4pt"
      
      stroke-linecap   = "round"
      stroke-linejoin = "round"
      fill                       = "none"
      
      />









      <path d            = "M1300.0,1425.0 C1100.0,1425.0 1200.0,1425.0 1200.0,1575.0  "
      stroke                   = "#171717"
      stroke-width       = "1.4pt"
      
      stroke-linecap   = "round"
      stroke-linejoin = "round"
      fill                       = "none"
      
      />









      <path d            = "M1500.0,1575.0 C1300.0,1575.0 1400.0,1575.0 1400.0,1425.0  "
      stroke                   = "#171717"
      stroke-width       = "1.4pt"
      
      stroke-linecap   = "round"
      stroke-linejoin = "round"
      fill                       = "none"
      
      />









      <path d            = "M1100.0,1575.0 C1300.0,1575.0 1200.0,1575.0 1200.0,1725.0  "
      stroke                   = "#171717"
      stroke-width       = "1.4pt"
      
      stroke-linecap   = "round"
      stroke-linejoin = "round"
      fill                       = "none"
      
      />









      <path d            = "M1300.0,1725.0 C1500.0,1725.0 1400.0,1725.0 1400.0,1575.0  "
      stroke                   = "#171717"
      stroke-width       = "1.4pt"
      
      stroke-linecap   = "round"
      stroke-linejoin = "round"
      fill                       = "none"
      
      />









      <path d            = "M1300.0,1725.0 C1100.0,1725.0 1200.0,1725.0 1200.0,1875.0  "
      stroke                   = "#171717"
      stroke-width       = "1.4pt"
      
      stroke-linecap   = "round"
      stroke-linejoin = "round"
      fill                       = "none"
      
      />









      <path d            = "M1500.0,1875.0 C1300.0,1875.0 1400.0,1875.0 1400.0,1725.0  "
      stroke                   = "#171717"
      stroke-width       = "1.4pt"
      
      stroke-linecap   = "round"
      stroke-linejoin = "round"
      fill                       = "none"
      
      />









      <path d            = "M1100.0,1875.0 C1300.0,1875.0 1200.0,1875.0 1200.0,2025.0  "
      stroke                   = "#171717"
      stroke-width       = "1.4pt"
      
      stroke-linecap   = "round"
      stroke-linejoin = "round"
      fill                       = "none"
      
      />









      <path d            = "M1300.0,2025.0 C1500.0,2025.0 1400.0,2025.0 1400.0,1875.0  "
      stroke                   = "#171717"
      stroke-width       = "1.4pt"
      
      stroke-linecap   = "round"
      stroke-linejoin = "round"
      fill                       = "none"
      
      />









      <path d            = "M1700.0,-75.0 C1500.0,-75.0 1600.0,-75.0 1600.0,75.0  "
      stroke                   = "#171717"
      stroke-width       = "1.4pt"
      
      stroke-linecap   = "round"
      stroke-linejoin = "round"
      fill                       = "none"
      
      />









      <path d            = "M1900.0,75.0 C1700.0,75.0 1800.0,75.0 1800.0,-75.0  "
      stroke                   = "#171717"
      stroke-width       = "1.4pt"
      
      stroke-linecap   = "round"
      stroke-linejoin = "round"
      fill                       = "none"
      
      />









      <path d            = "M1500.0,75.0 C1700.0,75.0 1600.0,75.0 1600.0,225.0  "
      stroke                   = "#171717"
      stroke-width       = "1.4pt"
      
      stroke-linecap   = "round"
      stroke-linejoin = "round"
      fill                       = "none"
      
      />









      <path d            = "M1700.0,225.0 C1900.0,225.0 1800.0,225.0 1800.0,75.0  "
      stroke                   = "#171717"
      stroke-width       = "1.4pt"
      
      stroke-linecap   = "round"
      stroke-linejoin = "round"
      fill                       = "none"
      
      />









      <path d            = "M1700.0,225.0 C1500.0,225.0 1600.0,225.0 1600.0,375.0  "
      stroke                   = "#171717"
      stroke-width       = "1.4pt"
      
      stroke-linecap   = "round"
      stroke-linejoin = "round"
      fill                       = "none"
      
      />









      <path d            = "M1900.0,375.0 C1700.0,375.0 1800.0,375.0 1800.0,225.0  "
      stroke                   = "#171717"
      stroke-width       = "1.4pt"
      
      stroke-linecap   = "round"
      stroke-linejoin = "round"
      fill                       = "none"
      
      />









      <path d            = "M1500.0,375.0 C1700.0,375.0 1600.0,375.0 1600.0,525.0  "
      stroke                   = "#171717"
      stroke-width       = "1.4pt"
      
      stroke-linecap   = "round"
      stroke-linejoin = "round"
      fill                       = "none"
      
      />









      <path d            = "M1700.0,525.0 C1900.0,525.0 1800.0,525.0 1800.0,375.0  "
      stroke                   = "#171717"
      stroke-width       = "1.4pt"
      
      stroke-linecap   = "round"
      stroke-linejoin = "round"
      fill                       = "none"
      
      />









      <path d            = "M1700.0,525.0 C1500.0,525.0 1600.0,525.0 1600.0,675.0  "
      stroke                   = "#171717"
      stroke-width       = "1.4pt"
      
      stroke-linecap   = "round"
      stroke-linejoin = "round"
      fill                       = "none"
      
      />









      <path d            = "M1900.0,675.0 C1700.0,675.0 1800.0,675.0 1800.0,525.0  "
      stroke                   = "#171717"
      stroke-width       = "1.4pt"
      
      stroke-linecap   = "round"
      stroke-linejoin = "round"
      fill                       = "none"
      
      />









      <path d            = "M1500.0,675.0 C1700.0,675.0 1600.0,675.0 1600.0,825.0  "
      stroke                   = "#171717"
      stroke-width       = "1.4pt"
      
      stroke-linecap   = "round"
      stroke-linejoin = "round"
      fill                       = "none"
      
      />









      <path d            = "M1700.0,825.0 C1900.0,825.0 1800.0,825.0 1800.0,675.0  "
      stroke                   = "#171717"
      stroke-width       = "1.4pt"
      
      stroke-linecap   = "round"
      stroke-linejoin = "round"
      fill                       = "none"
      
      />









      <path d            = "M1700.0,825.0 C1500.0,825.0 1600.0,825.0 1600.0,975.0  "
      stroke                   = "#171717"
      stroke-width       = "1.4pt"
      
      stroke-linecap   = "round"
      stroke-linejoin = "round"
      fill                       = "none"
      
      />









      <path d            = "M1900.0,975.0 C1700.0,975.0 1800.0,975.0 1800.0,825.0  "
      stroke                   = "#171717"
      stroke-width       = "1.4pt"
      
      stroke-linecap   = "round"
      stroke-linejoin = "round"
      fill                       = "none"
      
      />









      <path d            = "M1500.0,975.0 C1700.0,975.0 1600.0,975.0 1600.0,1125.0  "
      stroke                   = "#171717"
      stroke-width       = "1.4pt"
      
      stroke-linecap   = "round"
      stroke-linejoin = "round"
      fill                       = "none"
      
      />









      <path d            = "M1700.0,1125.0 C1900.0,1125.0 1800.0,1125.0 1800.0,975.0  "
      stroke                   = "#171717"
      stroke-width       = "1.4pt"
      
      stroke-linecap   = "round"
      stroke-linejoin = "round"
      fill                       = "none"
      
      />









      <path d            = "M1700.0,1125.0 C1500.0,1125.0 1600.0,1125.0 1600.0,1275.0  "
      stroke                   = "#171717"
      stroke-width       = "1.4pt"
      
      stroke-linecap   = "round"
      stroke-linejoin = "round"
      fill                       = "none"
      
      />









      <path d            = "M1900.0,1275.0 C1700.0,1275.0 1800.0,1275.0 1800.0,1125.0  "
      stroke                   = "#171717"
      stroke-width       = "1.4pt"
      
      stroke-linecap   = "round"
      stroke-linejoin = "round"
      fill                       = "none"
      
      />









      <path d            = "M1500.0,1275.0 C1700.0,1275.0 1600.0,1275.0 1600.0,1425.0  "
      stroke                   = "#171717"
      stroke-width       = "1.4pt"
      
      stroke-linecap   = "round"
      stroke-linejoin = "round"
      fill                       = "none"
      
      />









      <path d            = "M1700.0,1425.0 C1900.0,1425.0 1800.0,1425.0 1800.0,1275.0  "
      stroke                   = "#171717"
      stroke-width       = "1.4pt"
      
      stroke-linecap   = "round"
      stroke-linejoin = "round"
      fill                       = "none"
      
      />









      <path d            = "M1700.0,1425.0 C1500.0,1425.0 1600.0,1425.0 1600.0,1575.0  "
      stroke                   = "#171717"
      stroke-width       = "1.4pt"
      
      stroke-linecap   = "round"
      stroke-linejoin = "round"
      fill                       = "none"
      
      />









      <path d            = "M1900.0,1575.0 C1700.0,1575.0 1800.0,1575.0 1800.0,1425.0  "
      stroke                   = "#171717"
      stroke-width       = "1.4pt"
      
      stroke-linecap   = "round"
      stroke-linejoin = "round"
      fill                       = "none"
      
      />









      <path d            = "M1500.0,1575.0 C1700.0,1575.0 1600.0,1575.0 1600.0,1725.0  "
      stroke                   = "#171717"
      stroke-width       = "1.4pt"
      
      stroke-linecap   = "round"
      stroke-linejoin = "round"
      fill                       = "none"
      
      />









      <path d            = "M1700.0,1725.0 C1900.0,1725.0 1800.0,1725.0 1800.0,1575.0  "
      stroke                   = "#171717"
      stroke-width       = "1.4pt"
      
      stroke-linecap   = "round"
      stroke-linejoin = "round"
      fill                       = "none"
      
      />









      <path d            = "M1700.0,1725.0 C1500.0,1725.0 1600.0,1725.0 1600.0,1875.0  "
      stroke                   = "#171717"
      stroke-width       = "1.4pt"
      
      stroke-linecap   = "round"
      stroke-linejoin = "round"
      fill                       = "none"
      
      />









      <path d            = "M1900.0,1875.0 C1700.0,1875.0 1800.0,1875.0 1800.0,1725.0  "
      stroke                   = "#171717"
      stroke-width       = "1.4pt"
      
      stroke-linecap   = "round"
      stroke-linejoin = "round"
      fill                       = "none"
      
      />









      <path d            = "M1500.0,1875.0 C1700.0,1875.0 1600.0,1875.0 1600.0,2025.0  "
      stroke                   = "#171717"
      stroke-width       = "1.4pt"
      
      stroke-linecap   = "round"
      stroke-linejoin = "round"
      fill                       = "none"
      
      />









      <path d            = "M1700.0,2025.0 C1900.0,2025.0 1800.0,2025.0 1800.0,1875.0  "
      stroke                   = "#171717"
      stroke-width       = "1.4pt"
      
      stroke-linecap   = "round"
      stroke-linejoin = "round"
      fill                       = "none"
      
      />









      <path d            = "M2100.0,-75.0 C1900.0,-75.0 2000.0,-75.0 2000.0,75.0  "
      stroke                   = "#171717"
      stroke-width       = "1.4pt"
      
      stroke-linecap   = "round"
      stroke-linejoin = "round"
      fill                       = "none"
      
      />









      <path d            = "M2300.0,75.0 C2100.0,75.0 2200.0,75.0 2200.0,-75.0  "
      stroke                   = "#171717"
      stroke-width       = "1.4pt"
      
      stroke-linecap   = "round"
      stroke-linejoin = "round"
      fill                       = "none"
      
      />









      <path d            = "M1900.0,75.0 C2100.0,75.0 2000.0,75.0 2000.0,225.0  "
      stroke                   = "#171717"
      stroke-width       = "1.4pt"
      
      stroke-linecap   = "round"
      stroke-linejoin = "round"
      fill                       = "none"
      
      />









      <path d            = "M2100.0,225.0 C2300.0,225.0 2200.0,225.0 2200.0,75.0  "
      stroke                   = "#171717"
      stroke-width       = "1.4pt"
      
      stroke-linecap   = "round"
      stroke-linejoin = "round"
      fill                       = "none"
      
      />









      <path d            = "M2100.0,225.0 C1900.0,225.0 2000.0,225.0 2000.0,375.0  "
      stroke                   = "#171717"
      stroke-width       = "1.4pt"
      
      stroke-linecap   = "round"
      stroke-linejoin = "round"
      fill                       = "none"
      
      />









      <path d            = "M2300.0,375.0 C2100.0,375.0 2200.0,375.0 2200.0,225.0  "
      stroke                   = "#171717"
      stroke-width       = "1.4pt"
      
      stroke-linecap   = "round"
      stroke-linejoin = "round"
      fill                       = "none"
      
      />









      <path d            = "M1900.0,375.0 C2100.0,375.0 2000.0,375.0 2000.0,525.0  "
      stroke                   = "#171717"
      stroke-width       = "1.4pt"
      
      stroke-linecap   = "round"
      stroke-linejoin = "round"
      fill                       = "none"
      
      />









      <path d            = "M2100.0,525.0 C2300.0,525.0 2200.0,525.0 2200.0,375.0  "
      stroke                   = "#171717"
      stroke-width       = "1.4pt"
      
      stroke-linecap   = "round"
      stroke-linejoin = "round"
      fill                       = "none"
      
      />









      <path d            = "M2100.0,525.0 C1900.0,525.0 2000.0,525.0 2000.0,675.0  "
      stroke                   = "#171717"
      stroke-width       = "1.4pt"
      
      stroke-linecap   = "round"
      stroke-linejoin = "round"
      fill                       = "none"
      
      />









      <path d            = "M2300.0,675.0 C2100.0,675.0 2200.0,675.0 2200.0,525.0  "
      stroke                   = "#171717"
      stroke-width       = "1.4pt"
      
      stroke-linecap   = "round"
      stroke-linejoin = "round"
      fill                       = "none"
      
      />









      <path d            = "M1900.0,675.0 C2100.0,675.0 2000.0,675.0 2000.0,825.0  "
      stroke                   = "#171717"
      stroke-width       = "1.4pt"
      
      stroke-linecap   = "round"
      stroke-linejoin = "round"
      fill                       = "none"
      
      />









      <path d            = "M2100.0,825.0 C2300.0,825.0 2200.0,825.0 2200.0,675.0  "
      stroke                   = "#171717"
      stroke-width       = "1.4pt"
      
      stroke-linecap   = "round"
      stroke-linejoin = "round"
      fill                       = "none"
      
      />









      <path d            = "M2100.0,825.0 C1900.0,825.0 2000.0,825.0 2000.0,975.0  "
      stroke                   = "#171717"
      stroke-width       = "1.4pt"
      
      stroke-linecap   = "round"
      stroke-linejoin = "round"
      fill                       = "none"
      
      />









      <path d            = "M2300.0,975.0 C2100.0,975.0 2200.0,975.0 2200.0,825.0  "
      stroke                   = "#171717"
      stroke-width       = "1.4pt"
      
      stroke-linecap   = "round"
      stroke-linejoin = "round"
      fill                       = "none"
      
      />









      <path d            = "M1900.0,975.0 C2100.0,975.0 2000.0,975.0 2000.0,1125.0  "
      stroke                   = "#171717"
      stroke-width       = "1.4pt"
      
      stroke-linecap   = "round"
      stroke-linejoin = "round"
      fill                       = "none"
      
      />









      <path d            = "M2100.0,1125.0 C2300.0,1125.0 2200.0,1125.0 2200.0,975.0  "
      stroke                   = "#171717"
      stroke-width       = "1.4pt"
      
      stroke-linecap   = "round"
      stroke-linejoin = "round"
      fill                       = "none"
      
      />









      <path d            = "M2100.0,1125.0 C1900.0,1125.0 2000.0,1125.0 2000.0,1275.0  "
      stroke                   = "#171717"
      stroke-width       = "1.4pt"
      
      stroke-linecap   = "round"
      stroke-linejoin = "round"
      fill                       = "none"
      
      />









      <path d            = "M2300.0,1275.0 C2100.0,1275.0 2200.0,1275.0 2200.0,1125.0  "
      stroke                   = "#171717"
      stroke-width       = "1.4pt"
      
      stroke-linecap   = "round"
      stroke-linejoin = "round"
      fill                       = "none"
      
      />









      <path d            = "M1900.0,1275.0 C2100.0,1275.0 2000.0,1275.0 2000.0,1425.0  "
      stroke                   = "#171717"
      stroke-width       = "1.4pt"
      
      stroke-linecap   = "round"
      stroke-linejoin = "round"
      fill                       = "none"
      
      />









      <path d            = "M2100.0,1425.0 C2300.0,1425.0 2200.0,1425.0 2200.0,1275.0  "
      stroke                   = "#171717"
      stroke-width       = "1.4pt"
      
      stroke-linecap   = "round"
      stroke-linejoin = "round"
      fill                       = "none"
      
      />









      <path d            = "M2100.0,1425.0 C1900.0,1425.0 2000.0,1425.0 2000.0,1575.0  "
      stroke                   = "#171717"
      stroke-width       = "1.4pt"
      
      stroke-linecap   = "round"
      stroke-linejoin = "round"
      fill                       = "none"
      
      />









      <path d            = "M2300.0,1575.0 C2100.0,1575.0 2200.0,1575.0 2200.0,1425.0  "
      stroke                   = "#171717"
      stroke-width       = "1.4pt"
      
      stroke-linecap   = "round"
      stroke-linejoin = "round"
      fill                       = "none"
      
      />









      <path d            = "M1900.0,1575.0 C2100.0,1575.0 2000.0,1575.0 2000.0,1725.0  "
      stroke                   = "#171717"
      stroke-width       = "1.4pt"
      
      stroke-linecap   = "round"
      stroke-linejoin = "round"
      fill                       = "none"
      
      />









      <path d            = "M2100.0,1725.0 C2300.0,1725.0 2200.0,1725.0 2200.0,1575.0  "
      stroke                   = "#171717"
      stroke-width       = "1.4pt"
      
      stroke-linecap   = "round"
      stroke-linejoin = "round"
      fill                       = "none"
      
      />









      <path d            = "M2100.0,1725.0 C1900.0,1725.0 2000.0,1725.0 2000.0,1875.0  "
      stroke                   = "#171717"
      stroke-width       = "1.4pt"
      
      stroke-linecap   = "round"
      stroke-linejoin = "round"
      fill                       = "none"
      
      />









      <path d            = "M2300.0,1875.0 C2100.0,1875.0 2200.0,1875.0 2200.0,1725.0  "
      stroke                   = "#171717"
      stroke-width       = "1.4pt"
      
      stroke-linecap   = "round"
      stroke-linejoin = "round"
      fill                       = "none"
      
      />









      <path d            = "M1900.0,1875.0 C2100.0,1875.0 2000.0,1875.0 2000.0,2025.0  "
      stroke                   = "#171717"
      stroke-width       = "1.4pt"
      
      stroke-linecap   = "round"
      stroke-linejoin = "round"
      fill                       = "none"
      
      />









      <path d            = "M2100.0,2025.0 C2300.0,2025.0 2200.0,2025.0 2200.0,1875.0  "
      stroke                   = "#171717"
      stroke-width       = "1.4pt"
      
      stroke-linecap   = "round"
      stroke-linejoin = "round"
      fill                       = "none"
      
      />









      <path d            = "M2500.0,-75.0 C2300.0,-75.0 2400.0,-75.0 2400.0,75.0  "
      stroke                   = "#171717"
      stroke-width       = "1.4pt"
      
      stroke-linecap   = "round"
      stroke-linejoin = "round"
      fill                       = "none"
      
      />









      <path d            = "M2700.0,75.0 C2500.0,75.0 2600.0,75.0 2600.0,-75.0  "
      stroke                   = "#171717"
      stroke-width       = "1.4pt"
      
      stroke-linecap   = "round"
      stroke-linejoin = "round"
      fill                       = "none"
      
      />









      <path d            = "M2300.0,75.0 C2500.0,75.0 2400.0,75.0 2400.0,225.0  "
      stroke                   = "#171717"
      stroke-width       = "1.4pt"
      
      stroke-linecap   = "round"
      stroke-linejoin = "round"
      fill                       = "none"
      
      />









      <path d            = "M2500.0,225.0 C2700.0,225.0 2600.0,225.0 2600.0,75.0  "
      stroke                   = "#171717"
      stroke-width       = "1.4pt"
      
      stroke-linecap   = "round"
      stroke-linejoin = "round"
      fill                       = "none"
      
      />









      <path d            = "M2500.0,225.0 C2300.0,225.0 2400.0,225.0 2400.0,375.0  "
      stroke                   = "#171717"
      stroke-width       = "1.4pt"
      
      stroke-linecap   = "round"
      stroke-linejoin = "round"
      fill                       = "none"
      
      />









      <path d            = "M2700.0,375.0 C2500.0,375.0 2600.0,375.0 2600.0,225.0  "
      stroke                   = "#171717"
      stroke-width       = "1.4pt"
      
      stroke-linecap   = "round"
      stroke-linejoin = "round"
      fill                       = "none"
      
      />









      <path d            = "M2300.0,375.0 C2500.0,375.0 2400.0,375.0 2400.0,525.0  "
      stroke                   = "#171717"
      stroke-width       = "1.4pt"
      
      stroke-linecap   = "round"
      stroke-linejoin = "round"
      fill                       = "none"
      
      />









      <path d            = "M2500.0,525.0 C2700.0,525.0 2600.0,525.0 2600.0,375.0  "
      stroke                   = "#171717"
      stroke-width       = "1.4pt"
      
      stroke-linecap   = "round"
      stroke-linejoin = "round"
      fill                       = "none"
      
      />









      <path d            = "M2500.0,525.0 C2300.0,525.0 2400.0,525.0 2400.0,675.0  "
      stroke                   = "#171717"
      stroke-width       = "1.4pt"
      
      stroke-linecap   = "round"
      stroke-linejoin = "round"
      fill                       = "none"
      
      />









      <path d            = "M2700.0,675.0 C2500.0,675.0 2600.0,675.0 2600.0,525.0  "
      stroke                   = "#171717"
      stroke-width       = "1.4pt"
      
      stroke-linecap   = "round"
      stroke-linejoin = "round"
      fill                       = "none"
      
      />









      <path d            = "M2300.0,675.0 C2500.0,675.0 2400.0,675.0 2400.0,825.0  "
      stroke                   = "#171717"
      stroke-width       = "1.4pt"
      
      stroke-linecap   = "round"
      stroke-linejoin = "round"
      fill                       = "none"
      
      />









      <path d            = "M2500.0,825.0 C2700.0,825.0 2600.0,825.0 2600.0,675.0  "
      stroke                   = "#171717"
      stroke-width       = "1.4pt"
      
      stroke-linecap   = "round"
      stroke-linejoin = "round"
      fill                       = "none"
      
      />









      <path d            = "M2500.0,825.0 C2300.0,825.0 2400.0,825.0 2400.0,975.0  "
      stroke                   = "#171717"
      stroke-width       = "1.4pt"
      
      stroke-linecap   = "round"
      stroke-linejoin = "round"
      fill                       = "none"
      
      />









      <path d            = "M2700.0,975.0 C2500.0,975.0 2600.0,975.0 2600.0,825.0  "
      stroke                   = "#171717"
      stroke-width       = "1.4pt"
      
      stroke-linecap   = "round"
      stroke-linejoin = "round"
      fill                       = "none"
      
      />









      <path d            = "M2300.0,975.0 C2500.0,975.0 2400.0,975.0 2400.0,1125.0  "
      stroke                   = "#171717"
      stroke-width       = "1.4pt"
      
      stroke-linecap   = "round"
      stroke-linejoin = "round"
      fill                       = "none"
      
      />









      <path d            = "M2500.0,1125.0 C2700.0,1125.0 2600.0,1125.0 2600.0,975.0  "
      stroke                   = "#171717"
      stroke-width       = "1.4pt"
      
      stroke-linecap   = "round"
      stroke-linejoin = "round"
      fill                       = "none"
      
      />









      <path d            = "M2500.0,1125.0 C2300.0,1125.0 2400.0,1125.0 2400.0,1275.0  "
      stroke                   = "#171717"
      stroke-width       = "1.4pt"
      
      stroke-linecap   = "round"
      stroke-linejoin = "round"
      fill                       = "none"
      
      />









      <path d            = "M2700.0,1275.0 C2500.0,1275.0 2600.0,1275.0 2600.0,1125.0  "
      stroke                   = "#171717"
      stroke-width       = "1.4pt"
      
      stroke-linecap   = "round"
      stroke-linejoin = "round"
      fill                       = "none"
      
      />









      <path d            = "M2300.0,1275.0 C2500.0,1275.0 2400.0,1275.0 2400.0,1425.0  "
      stroke                   = "#171717"
      stroke-width       = "1.4pt"
      
      stroke-linecap   = "round"
      stroke-linejoin = "round"
      fill                       = "none"
      
      />









      <path d            = "M2500.0,1425.0 C2700.0,1425.0 2600.0,1425.0 2600.0,1275.0  "
      stroke                   = "#171717"
      stroke-width       = "1.4pt"
      
      stroke-linecap   = "round"
      stroke-linejoin = "round"
      fill                       = "none"
      
      />









      <path d            = "M2500.0,1425.0 C2300.0,1425.0 2400.0,1425.0 2400.0,1575.0  "
      stroke                   = "#171717"
      stroke-width       = "1.4pt"
      
      stroke-linecap   = "round"
      stroke-linejoin = "round"
      fill                       = "none"
      
      />









      <path d            = "M2700.0,1575.0 C2500.0,1575.0 2600.0,1575.0 2600.0,1425.0  "
      stroke                   = "#171717"
      stroke-width       = "1.4pt"
      
      stroke-linecap   = "round"
      stroke-linejoin = "round"
      fill                       = "none"
      
      />









      <path d            = "M2300.0,1575.0 C2500.0,1575.0 2400.0,1575.0 2400.0,1725.0  "
      stroke                   = "#171717"
      stroke-width       = "1.4pt"
      
      stroke-linecap   = "round"
      stroke-linejoin = "round"
      fill                       = "none"
      
      />









      <path d            = "M2500.0,1725.0 C2700.0,1725.0 2600.0,1725.0 2600.0,1575.0  "
      stroke                   = "#171717"
      stroke-width       = "1.4pt"
      
      stroke-linecap   = "round"
      stroke-linejoin = "round"
      fill                       = "none"
      
      />









      <path d            = "M2500.0,1725.0 C2300.0,1725.0 2400.0,1725.0 2400.0,1875.0  "
      stroke                   = "#171717"
      stroke-width       = "1.4pt"
      
      stroke-linecap   = "round"
      stroke-linejoin = "round"
      fill                       = "none"
      
      />









      <path d            = "M2700.0,1875.0 C2500.0,1875.0 2600.0,1875.0 2600.0,1725.0  "
      stroke                   = "#171717"
      stroke-width       = "1.4pt"
      
      stroke-linecap   = "round"
      stroke-linejoin = "round"
      fill                       = "none"
      
      />









      <path d            = "M2300.0,1875.0 C2500.0,1875.0 2400.0,1875.0 2400.0,2025.0  "
      stroke                   = "#171717"
      stroke-width       = "1.4pt"
      
      stroke-linecap   = "round"
      stroke-linejoin = "round"
      fill                       = "none"
      
      />









      <path d            = "M2500.0,2025.0 C2700.0,2025.0 2600.0,2025.0 2600.0,1875.0  "
      stroke                   = "#171717"
      stroke-width       = "1.4pt"
      
      stroke-linecap   = "round"
      stroke-linejoin = "round"
      fill                       = "none"
      
      />









      <path d            = "M2900.0,-75.0 C2700.0,-75.0 2800.0,-75.0 2800.0,75.0  "
      stroke                   = "#171717"
      stroke-width       = "1.4pt"
      
      stroke-linecap   = "round"
      stroke-linejoin = "round"
      fill                       = "none"
      
      />









      <path d            = "M3100.0,75.0 C2900.0,75.0 3000.0,75.0 3000.0,-75.0  "
      stroke                   = "#171717"
      stroke-width       = "1.4pt"
      
      stroke-linecap   = "round"
      stroke-linejoin = "round"
      fill                       = "none"
      
      />









      <path d            = "M2700.0,75.0 C2900.0,75.0 2800.0,75.0 2800.0,225.0  "
      stroke                   = "#171717"
      stroke-width       = "1.4pt"
      
      stroke-linecap   = "round"
      stroke-linejoin = "round"
      fill                       = "none"
      
      />









      <path d            = "M2900.0,225.0 C3100.0,225.0 3000.0,225.0 3000.0,75.0  "
      stroke                   = "#171717"
      stroke-width       = "1.4pt"
      
      stroke-linecap   = "round"
      stroke-linejoin = "round"
      fill                       = "none"
      
      />









      <path d            = "M2900.0,225.0 C2700.0,225.0 2800.0,225.0 2800.0,375.0  "
      stroke                   = "#171717"
      stroke-width       = "1.4pt"
      
      stroke-linecap   = "round"
      stroke-linejoin = "round"
      fill                       = "none"
      
      />









      <path d            = "M3100.0,375.0 C2900.0,375.0 3000.0,375.0 3000.0,225.0  "
      stroke                   = "#171717"
      stroke-width       = "1.4pt"
      
      stroke-linecap   = "round"
      stroke-linejoin = "round"
      fill                       = "none"
      
      />









      <path d            = "M2700.0,375.0 C2900.0,375.0 2800.0,375.0 2800.0,525.0  "
      stroke                   = "#171717"
      stroke-width       = "1.4pt"
      
      stroke-linecap   = "round"
      stroke-linejoin = "round"
      fill                       = "none"
      
      />









      <path d            = "M2900.0,525.0 C3100.0,525.0 3000.0,525.0 3000.0,375.0  "
      stroke                   = "#171717"
      stroke-width       = "1.4pt"
      
      stroke-linecap   = "round"
      stroke-linejoin = "round"
      fill                       = "none"
      
      />









      <path d            = "M2900.0,525.0 C2700.0,525.0 2800.0,525.0 2800.0,675.0  "
      stroke                   = "#171717"
      stroke-width       = "1.4pt"
      
      stroke-linecap   = "round"
      stroke-linejoin = "round"
      fill                       = "none"
      
      />









      <path d            = "M3100.0,675.0 C2900.0,675.0 3000.0,675.0 3000.0,525.0  "
      stroke                   = "#171717"
      stroke-width       = "1.4pt"
      
      stroke-linecap   = "round"
      stroke-linejoin = "round"
      fill                       = "none"
      
      />









      <path d            = "M2700.0,675.0 C2900.0,675.0 2800.0,675.0 2800.0,825.0  "
      stroke                   = "#171717"
      stroke-width       = "1.4pt"
      
      stroke-linecap   = "round"
      stroke-linejoin = "round"
      fill                       = "none"
      
      />









      <path d            = "M2900.0,825.0 C3100.0,825.0 3000.0,825.0 3000.0,675.0  "
      stroke                   = "#171717"
      stroke-width       = "1.4pt"
      
      stroke-linecap   = "round"
      stroke-linejoin = "round"
      fill                       = "none"
      
      />









      <path d            = "M2900.0,825.0 C2700.0,825.0 2800.0,825.0 2800.0,975.0  "
      stroke                   = "#171717"
      stroke-width       = "1.4pt"
      
      stroke-linecap   = "round"
      stroke-linejoin = "round"
      fill                       = "none"
      
      />









      <path d            = "M3100.0,975.0 C2900.0,975.0 3000.0,975.0 3000.0,825.0  "
      stroke                   = "#171717"
      stroke-width       = "1.4pt"
      
      stroke-linecap   = "round"
      stroke-linejoin = "round"
      fill                       = "none"
      
      />









      <path d            = "M2700.0,975.0 C2900.0,975.0 2800.0,975.0 2800.0,1125.0  "
      stroke                   = "#171717"
      stroke-width       = "1.4pt"
      
      stroke-linecap   = "round"
      stroke-linejoin = "round"
      fill                       = "none"
      
      />









      <path d            = "M2900.0,1125.0 C3100.0,1125.0 3000.0,1125.0 3000.0,975.0  "
      stroke                   = "#171717"
      stroke-width       = "1.4pt"
      
      stroke-linecap   = "round"
      stroke-linejoin = "round"
      fill                       = "none"
      
      />









      <path d            = "M2900.0,1125.0 C2700.0,1125.0 2800.0,1125.0 2800.0,1275.0  "
      stroke                   = "#171717"
      stroke-width       = "1.4pt"
      
      stroke-linecap   = "round"
      stroke-linejoin = "round"
      fill                       = "none"
      
      />









      <path d            = "M3100.0,1275.0 C2900.0,1275.0 3000.0,1275.0 3000.0,1125.0  "
      stroke                   = "#171717"
      stroke-width       = "1.4pt"
      
      stroke-linecap   = "round"
      stroke-linejoin = "round"
      fill                       = "none"
      
      />









      <path d            = "M2700.0,1275.0 C2900.0,1275.0 2800.0,1275.0 2800.0,1425.0  "
      stroke                   = "#171717"
      stroke-width       = "1.4pt"
      
      stroke-linecap   = "round"
      stroke-linejoin = "round"
      fill                       = "none"
      
      />









      <path d            = "M2900.0,1425.0 C3100.0,1425.0 3000.0,1425.0 3000.0,1275.0  "
      stroke                   = "#171717"
      stroke-width       = "1.4pt"
      
      stroke-linecap   = "round"
      stroke-linejoin = "round"
      fill                       = "none"
      
      />









      <path d            = "M2900.0,1425.0 C2700.0,1425.0 2800.0,1425.0 2800.0,1575.0  "
      stroke                   = "#171717"
      stroke-width       = "1.4pt"
      
      stroke-linecap   = "round"
      stroke-linejoin = "round"
      fill                       = "none"
      
      />









      <path d            = "M3100.0,1575.0 C2900.0,1575.0 3000.0,1575.0 3000.0,1425.0  "
      stroke                   = "#171717"
      stroke-width       = "1.4pt"
      
      stroke-linecap   = "round"
      stroke-linejoin = "round"
      fill                       = "none"
      
      />









      <path d            = "M2700.0,1575.0 C2900.0,1575.0 2800.0,1575.0 2800.0,1725.0  "
      stroke                   = "#171717"
      stroke-width       = "1.4pt"
      
      stroke-linecap   = "round"
      stroke-linejoin = "round"
      fill                       = "none"
      
      />









      <path d            = "M2900.0,1725.0 C3100.0,1725.0 3000.0,1725.0 3000.0,1575.0  "
      stroke                   = "#171717"
      stroke-width       = "1.4pt"
      
      stroke-linecap   = "round"
      stroke-linejoin = "round"
      fill                       = "none"
      
      />









      <path d            = "M2900.0,1725.0 C2700.0,1725.0 2800.0,1725.0 2800.0,1875.0  "
      stroke                   = "#171717"
      stroke-width       = "1.4pt"
      
      stroke-linecap   = "round"
      stroke-linejoin = "round"
      fill                       = "none"
      
      />









      <path d            = "M3100.0,1875.0 C2900.0,1875.0 3000.0,1875.0 3000.0,1725.0  "
      stroke                   = "#171717"
      stroke-width       = "1.4pt"
      
      stroke-linecap   = "round"
      stroke-linejoin = "round"
      fill                       = "none"
      
      />









      <path d            = "M2700.0,1875.0 C2900.0,1875.0 2800.0,1875.0 2800.0,2025.0  "
      stroke                   = "#171717"
      stroke-width       = "1.4pt"
      
      stroke-linecap   = "round"
      stroke-linejoin = "round"
      fill                       = "none"
      
      />









      <path d            = "M2900.0,2025.0 C3100.0,2025.0 3000.0,2025.0 3000.0,1875.0  "
      stroke                   = "#171717"
      stroke-width       = "1.4pt"
      
      stroke-linecap   = "round"
      stroke-linejoin = "round"
      fill                       = "none"
      
      />









      <path d            = "M3300.0,-75.0 C3100.0,-75.0 3200.0,-75.0 3200.0,75.0  "
      stroke                   = "#171717"
      stroke-width       = "1.4pt"
      
      stroke-linecap   = "round"
      stroke-linejoin = "round"
      fill                       = "none"
      
      />









      <path d            = "M3500.0,75.0 C3300.0,75.0 3400.0,75.0 3400.0,-75.0  "
      stroke                   = "#171717"
      stroke-width       = "1.4pt"
      
      stroke-linecap   = "round"
      stroke-linejoin = "round"
      fill                       = "none"
      
      />









      <path d            = "M3100.0,75.0 C3300.0,75.0 3200.0,75.0 3200.0,225.0  "
      stroke                   = "#171717"
      stroke-width       = "1.4pt"
      
      stroke-linecap   = "round"
      stroke-linejoin = "round"
      fill                       = "none"
      
      />









      <path d            = "M3300.0,225.0 C3500.0,225.0 3400.0,225.0 3400.0,75.0  "
      stroke                   = "#171717"
      stroke-width       = "1.4pt"
      
      stroke-linecap   = "round"
      stroke-linejoin = "round"
      fill                       = "none"
      
      />









      <path d            = "M3300.0,225.0 C3100.0,225.0 3200.0,225.0 3200.0,375.0  "
      stroke                   = "#171717"
      stroke-width       = "1.4pt"
      
      stroke-linecap   = "round"
      stroke-linejoin = "round"
      fill                       = "none"
      
      />









      <path d            = "M3500.0,375.0 C3300.0,375.0 3400.0,375.0 3400.0,225.0  "
      stroke                   = "#171717"
      stroke-width       = "1.4pt"
      
      stroke-linecap   = "round"
      stroke-linejoin = "round"
      fill                       = "none"
      
      />









      <path d            = "M3100.0,375.0 C3300.0,375.0 3200.0,375.0 3200.0,525.0  "
      stroke                   = "#171717"
      stroke-width       = "1.4pt"
      
      stroke-linecap   = "round"
      stroke-linejoin = "round"
      fill                       = "none"
      
      />









      <path d            = "M3300.0,525.0 C3500.0,525.0 3400.0,525.0 3400.0,375.0  "
      stroke                   = "#171717"
      stroke-width       = "1.4pt"
      
      stroke-linecap   = "round"
      stroke-linejoin = "round"
      fill                       = "none"
      
      />









      <path d            = "M3300.0,525.0 C3100.0,525.0 3200.0,525.0 3200.0,675.0  "
      stroke                   = "#171717"
      stroke-width       = "1.4pt"
      
      stroke-linecap   = "round"
      stroke-linejoin = "round"
      fill                       = "none"
      
      />









      <path d            = "M3500.0,675.0 C3300.0,675.0 3400.0,675.0 3400.0,525.0  "
      stroke                   = "#171717"
      stroke-width       = "1.4pt"
      
      stroke-linecap   = "round"
      stroke-linejoin = "round"
      fill                       = "none"
      
      />









      <path d            = "M3100.0,675.0 C3300.0,675.0 3200.0,675.0 3200.0,825.0  "
      stroke                   = "#171717"
      stroke-width       = "1.4pt"
      
      stroke-linecap   = "round"
      stroke-linejoin = "round"
      fill                       = "none"
      
      />









      <path d            = "M3300.0,825.0 C3500.0,825.0 3400.0,825.0 3400.0,675.0  "
      stroke                   = "#171717"
      stroke-width       = "1.4pt"
      
      stroke-linecap   = "round"
      stroke-linejoin = "round"
      fill                       = "none"
      
      />









      <path d            = "M3300.0,825.0 C3100.0,825.0 3200.0,825.0 3200.0,975.0  "
      stroke                   = "#171717"
      stroke-width       = "1.4pt"
      
      stroke-linecap   = "round"
      stroke-linejoin = "round"
      fill                       = "none"
      
      />









      <path d            = "M3500.0,975.0 C3300.0,975.0 3400.0,975.0 3400.0,825.0  "
      stroke                   = "#171717"
      stroke-width       = "1.4pt"
      
      stroke-linecap   = "round"
      stroke-linejoin = "round"
      fill                       = "none"
      
      />









      <path d            = "M3100.0,975.0 C3300.0,975.0 3200.0,975.0 3200.0,1125.0  "
      stroke                   = "#171717"
      stroke-width       = "1.4pt"
      
      stroke-linecap   = "round"
      stroke-linejoin = "round"
      fill                       = "none"
      
      />









      <path d            = "M3300.0,1125.0 C3500.0,1125.0 3400.0,1125.0 3400.0,975.0  "
      stroke                   = "#171717"
      stroke-width       = "1.4pt"
      
      stroke-linecap   = "round"
      stroke-linejoin = "round"
      fill                       = "none"
      
      />









      <path d            = "M3300.0,1125.0 C3100.0,1125.0 3200.0,1125.0 3200.0,1275.0  "
      stroke                   = "#171717"
      stroke-width       = "1.4pt"
      
      stroke-linecap   = "round"
      stroke-linejoin = "round"
      fill                       = "none"
      
      />









      <path d            = "M3500.0,1275.0 C3300.0,1275.0 3400.0,1275.0 3400.0,1125.0  "
      stroke                   = "#171717"
      stroke-width       = "1.4pt"
      
      stroke-linecap   = "round"
      stroke-linejoin = "round"
      fill                       = "none"
      
      />









      <path d            = "M3100.0,1275.0 C3300.0,1275.0 3200.0,1275.0 3200.0,1425.0  "
      stroke                   = "#171717"
      stroke-width       = "1.4pt"
      
      stroke-linecap   = "round"
      stroke-linejoin = "round"
      fill                       = "none"
      
      />









      <path d            = "M3300.0,1425.0 C3500.0,1425.0 3400.0,1425.0 3400.0,1275.0  "
      stroke                   = "#171717"
      stroke-width       = "1.4pt"
      
      stroke-linecap   = "round"
      stroke-linejoin = "round"
      fill                       = "none"
      
      />









      <path d            = "M3300.0,1425.0 C3100.0,1425.0 3200.0,1425.0 3200.0,1575.0  "
      stroke                   = "#171717"
      stroke-width       = "1.4pt"
      
      stroke-linecap   = "round"
      stroke-linejoin = "round"
      fill                       = "none"
      
      />









      <path d            = "M3500.0,1575.0 C3300.0,1575.0 3400.0,1575.0 3400.0,1425.0  "
      stroke                   = "#171717"
      stroke-width       = "1.4pt"
      
      stroke-linecap   = "round"
      stroke-linejoin = "round"
      fill                       = "none"
      
      />









      <path d            = "M3100.0,1575.0 C3300.0,1575.0 3200.0,1575.0 3200.0,1725.0  "
      stroke                   = "#171717"
      stroke-width       = "1.4pt"
      
      stroke-linecap   = "round"
      stroke-linejoin = "round"
      fill                       = "none"
      
      />









      <path d            = "M3300.0,1725.0 C3500.0,1725.0 3400.0,1725.0 3400.0,1575.0  "
      stroke                   = "#171717"
      stroke-width       = "1.4pt"
      
      stroke-linecap   = "round"
      stroke-linejoin = "round"
      fill                       = "none"
      
      />









      <path d            = "M3300.0,1725.0 C3100.0,1725.0 3200.0,1725.0 3200.0,1875.0  "
      stroke                   = "#171717"
      stroke-width       = "1.4pt"
      
      stroke-linecap   = "round"
      stroke-linejoin = "round"
      fill                       = "none"
      
      />









      <path d            = "M3500.0,1875.0 C3300.0,1875.0 3400.0,1875.0 3400.0,1725.0  "
      stroke                   = "#171717"
      stroke-width       = "1.4pt"
      
      stroke-linecap   = "round"
      stroke-linejoin = "round"
      fill                       = "none"
      
      />









      <path d            = "M3100.0,1875.0 C3300.0,1875.0 3200.0,1875.0 3200.0,2025.0  "
      stroke                   = "#171717"
      stroke-width       = "1.4pt"
      
      stroke-linecap   = "round"
      stroke-linejoin = "round"
      fill                       = "none"
      
      />









      <path d            = "M3300.0,2025.0 C3500.0,2025.0 3400.0,2025.0 3400.0,1875.0  "
      stroke                   = "#171717"
      stroke-width       = "1.4pt"
      
      stroke-linecap   = "round"
      stroke-linejoin = "round"
      fill                       = "none"
      
      />









      <path d            = "M3700.0,-75.0 C3500.0,-75.0 3600.0,-75.0 3600.0,75.0  "
      stroke                   = "#171717"
      stroke-width       = "1.4pt"
      
      stroke-linecap   = "round"
      stroke-linejoin = "round"
      fill                       = "none"
      
      />









      <path d            = "M3900.0,75.0 C3700.0,75.0 3800.0,75.0 3800.0,-75.0  "
      stroke                   = "#171717"
      stroke-width       = "1.4pt"
      
      stroke-linecap   = "round"
      stroke-linejoin = "round"
      fill                       = "none"
      
      />









      <path d            = "M3500.0,75.0 C3700.0,75.0 3600.0,75.0 3600.0,225.0  "
      stroke                   = "#171717"
      stroke-width       = "1.4pt"
      
      stroke-linecap   = "round"
      stroke-linejoin = "round"
      fill                       = "none"
      
      />









      <path d            = "M3700.0,225.0 C3900.0,225.0 3800.0,225.0 3800.0,75.0  "
      stroke                   = "#171717"
      stroke-width       = "1.4pt"
      
      stroke-linecap   = "round"
      stroke-linejoin = "round"
      fill                       = "none"
      
      />









      <path d            = "M3700.0,225.0 C3500.0,225.0 3600.0,225.0 3600.0,375.0  "
      stroke                   = "#171717"
      stroke-width       = "1.4pt"
      
      stroke-linecap   = "round"
      stroke-linejoin = "round"
      fill                       = "none"
      
      />









      <path d            = "M3900.0,375.0 C3700.0,375.0 3800.0,375.0 3800.0,225.0  "
      stroke                   = "#171717"
      stroke-width       = "1.4pt"
      
      stroke-linecap   = "round"
      stroke-linejoin = "round"
      fill                       = "none"
      
      />









      <path d            = "M3500.0,375.0 C3700.0,375.0 3600.0,375.0 3600.0,525.0  "
      stroke                   = "#171717"
      stroke-width       = "1.4pt"
      
      stroke-linecap   = "round"
      stroke-linejoin = "round"
      fill                       = "none"
      
      />









      <path d            = "M3700.0,525.0 C3900.0,525.0 3800.0,525.0 3800.0,375.0  "
      stroke                   = "#171717"
      stroke-width       = "1.4pt"
      
      stroke-linecap   = "round"
      stroke-linejoin = "round"
      fill                       = "none"
      
      />









      <path d            = "M3700.0,525.0 C3500.0,525.0 3600.0,525.0 3600.0,675.0  "
      stroke                   = "#171717"
      stroke-width       = "1.4pt"
      
      stroke-linecap   = "round"
      stroke-linejoin = "round"
      fill                       = "none"
      
      />









      <path d            = "M3900.0,675.0 C3700.0,675.0 3800.0,675.0 3800.0,525.0  "
      stroke                   = "#171717"
      stroke-width       = "1.4pt"
      
      stroke-linecap   = "round"
      stroke-linejoin = "round"
      fill                       = "none"
      
      />









      <path d            = "M3500.0,675.0 C3700.0,675.0 3600.0,675.0 3600.0,825.0  "
      stroke                   = "#171717"
      stroke-width       = "1.4pt"
      
      stroke-linecap   = "round"
      stroke-linejoin = "round"
      fill                       = "none"
      
      />









      <path d            = "M3700.0,825.0 C3900.0,825.0 3800.0,825.0 3800.0,675.0  "
      stroke                   = "#171717"
      stroke-width       = "1.4pt"
      
      stroke-linecap   = "round"
      stroke-linejoin = "round"
      fill                       = "none"
      
      />









      <path d            = "M3700.0,825.0 C3500.0,825.0 3600.0,825.0 3600.0,975.0  "
      stroke                   = "#171717"
      stroke-width       = "1.4pt"
      
      stroke-linecap   = "round"
      stroke-linejoin = "round"
      fill                       = "none"
      
      />









      <path d            = "M3900.0,975.0 C3700.0,975.0 3800.0,975.0 3800.0,825.0  "
      stroke                   = "#171717"
      stroke-width       = "1.4pt"
      
      stroke-linecap   = "round"
      stroke-linejoin = "round"
      fill                       = "none"
      
      />









      <path d            = "M3500.0,975.0 C3700.0,975.0 3600.0,975.0 3600.0,1125.0  "
      stroke                   = "#171717"
      stroke-width       = "1.4pt"
      
      stroke-linecap   = "round"
      stroke-linejoin = "round"
      fill                       = "none"
      
      />









      <path d            = "M3700.0,1125.0 C3900.0,1125.0 3800.0,1125.0 3800.0,975.0  "
      stroke                   = "#171717"
      stroke-width       = "1.4pt"
      
      stroke-linecap   = "round"
      stroke-linejoin = "round"
      fill                       = "none"
      
      />









      <path d            = "M3700.0,1125.0 C3500.0,1125.0 3600.0,1125.0 3600.0,1275.0  "
      stroke                   = "#171717"
      stroke-width       = "1.4pt"
      
      stroke-linecap   = "round"
      stroke-linejoin = "round"
      fill                       = "none"
      
      />









      <path d            = "M3900.0,1275.0 C3700.0,1275.0 3800.0,1275.0 3800.0,1125.0  "
      stroke                   = "#171717"
      stroke-width       = "1.4pt"
      
      stroke-linecap   = "round"
      stroke-linejoin = "round"
      fill                       = "none"
      
      />









      <path d            = "M3500.0,1275.0 C3700.0,1275.0 3600.0,1275.0 3600.0,1425.0  "
      stroke                   = "#171717"
      stroke-width       = "1.4pt"
      
      stroke-linecap   = "round"
      stroke-linejoin = "round"
      fill                       = "none"
      
      />









      <path d            = "M3700.0,1425.0 C3900.0,1425.0 3800.0,1425.0 3800.0,1275.0  "
      stroke                   = "#171717"
      stroke-width       = "1.4pt"
      
      stroke-linecap   = "round"
      stroke-linejoin = "round"
      fill                       = "none"
      
      />









      <path d            = "M3700.0,1425.0 C3500.0,1425.0 3600.0,1425.0 3600.0,1575.0  "
      stroke                   = "#171717"
      stroke-width       = "1.4pt"
      
      stroke-linecap   = "round"
      stroke-linejoin = "round"
      fill                       = "none"
      
      />









      <path d            = "M3900.0,1575.0 C3700.0,1575.0 3800.0,1575.0 3800.0,1425.0  "
      stroke                   = "#171717"
      stroke-width       = "1.4pt"
      
      stroke-linecap   = "round"
      stroke-linejoin = "round"
      fill                       = "none"
      
      />









      <path d            = "M3500.0,1575.0 C3700.0,1575.0 3600.0,1575.0 3600.0,1725.0  "
      stroke                   = "#171717"
      stroke-width       = "1.4pt"
      
      stroke-linecap   = "round"
      stroke-linejoin = "round"
      fill                       = "none"
      
      />









      <path d            = "M3700.0,1725.0 C3900.0,1725.0 3800.0,1725.0 3800.0,1575.0  "
      stroke                   = "#171717"
      stroke-width       = "1.4pt"
      
      stroke-linecap   = "round"
      stroke-linejoin = "round"
      fill                       = "none"
      
      />









      <path d            = "M3700.0,1725.0 C3500.0,1725.0 3600.0,1725.0 3600.0,1875.0  "
      stroke                   = "#171717"
      stroke-width       = "1.4pt"
      
      stroke-linecap   = "round"
      stroke-linejoin = "round"
      fill                       = "none"
      
      />









      <path d            = "M3900.0,1875.0 C3700.0,1875.0 3800.0,1875.0 3800.0,1725.0  "
      stroke                   = "#171717"
      stroke-width       = "1.4pt"
      
      stroke-linecap   = "round"
      stroke-linejoin = "round"
      fill                       = "none"
      
      />









      <path d            = "M3500.0,1875.0 C3700.0,1875.0 3600.0,1875.0 3600.0,2025.0  "
      stroke                   = "#171717"
      stroke-width       = "1.4pt"
      
      stroke-linecap   = "round"
      stroke-linejoin = "round"
      fill                       = "none"
      
      />









      <path d            = "M3700.0,2025.0 C3900.0,2025.0 3800.0,2025.0 3800.0,1875.0  "
      stroke                   = "#171717"
      stroke-width       = "1.4pt"
      
      stroke-linecap   = "round"
      stroke-linejoin = "round"
      fill                       = "none"
      
      />









    
  </g>
</svg>
