<?xml version="1.0" encoding="UTF-8" standalone="yes"?>

<svg version             = "1.2"
     baseProfile         = "full"
     width               = "297mm"
     height              = "210mm"
     viewBox             = "-87.5 -87.5 3500.0 2450.0"
     preserveAspectRatio = "xMidYMid meet"
     viewport-fill       = "white"
     xmlns               = "http://www.w3.org/2000/svg">

    <defs>
      <style type="text/css">
        <![CDATA[
        polygon.background  {
  fill:   #f6f6f6;
  stroke: none;
}

polyline {
  fill:            none;
  stroke:          black;
  stroke-linecap:  round;
  stroke-linejoin: round;
  stroke-width:    2.0pt;
}


polyline.closed {
  fill:      #D9E9F1;
  fill-rule: evenodd;
}


polygon {
  fill:            #D9E9F1;
  fill-rule:       evenodd;
  stroke:          black;
  stroke-linejoin: round;
  stroke-width:    2.0pt;
}


circle {
  fill:         #D9E9F1;
  stroke:       black;
  stroke-width: 2.0pt;
}


ellipse {
  fill:         #D9E9F1;
  stroke:       black;
  stroke-width: 2.0pt;
}


path {
  fill:            none;
  stroke:          black;
  stroke-linecap:  round;
  stroke-linejoin: round;
  stroke-width:    2.0pt;
}


path.closed {
  fill:      #D9E9F1;
  fill-rule: evenodd;
}


        ]]>
      </style>
    </defs>

    <desc>description text here</desc>

    
    <clipPath id="lattice">
      <rect x            = "-87.5"
            y            = "-87.5"
            width        = "3500.0"
            height       = "2450.0"/>
    </clipPath>
    

    <g clip-path       = "url(#lattice)"
       vector-effect   = "non-scaling-stroke"
       color-rendering = "optimizeQuality"
       shape-rendering = "geometricPrecision">


      <polygon points = "3412.5 -87.5  3412.5 2362.5  -87.5 2362.5  -87.5 -87.5  "
               class  = "background closed "/>









      <path d     = "M87.5,-87.5 C-87.5,-87.5 -87.5,0.0 87.5,87.5  "
            class = "bezier-3-1 open "/>








      <path d     = "M262.5,87.5 C262.5,-87.5 175.0,-87.5 87.5,87.5  "
            class = "bezier-3-1 open "/>








      <path d     = "M87.5,262.5 C262.5,262.5 262.5,175.0 87.5,87.5  "
            class = "bezier-3-1 open "/>








      <path d     = "M-87.5,87.5 C-87.5,262.5 0.0,262.5 87.5,87.5  "
            class = "bezier-3-1 open "/>








      <path d     = "M87.5,262.5 C-87.5,262.5 -87.5,350.0 87.5,437.5  "
            class = "bezier-3-1 open "/>








      <path d     = "M262.5,437.5 C262.5,262.5 175.0,262.5 87.5,437.5  "
            class = "bezier-3-1 open "/>








      <path d     = "M87.5,612.5 C262.5,612.5 262.5,525.0 87.5,437.5  "
            class = "bezier-3-1 open "/>








      <path d     = "M-87.5,437.5 C-87.5,612.5 0.0,612.5 87.5,437.5  "
            class = "bezier-3-1 open "/>








      <path d     = "M87.5,612.5 C-87.5,612.5 -87.5,700.0 87.5,787.5  "
            class = "bezier-3-1 open "/>








      <path d     = "M262.5,787.5 C262.5,612.5 175.0,612.5 87.5,787.5  "
            class = "bezier-3-1 open "/>








      <path d     = "M87.5,962.5 C262.5,962.5 262.5,875.0 87.5,787.5  "
            class = "bezier-3-1 open "/>








      <path d     = "M-87.5,787.5 C-87.5,962.5 0.0,962.5 87.5,787.5  "
            class = "bezier-3-1 open "/>








      <path d     = "M87.5,962.5 C-87.5,962.5 -87.5,1050.0 87.5,1137.5  "
            class = "bezier-3-1 open "/>








      <path d     = "M262.5,1137.5 C262.5,962.5 175.0,962.5 87.5,1137.5  "
            class = "bezier-3-1 open "/>








      <path d     = "M87.5,1312.5 C262.5,1312.5 262.5,1225.0 87.5,1137.5  "
            class = "bezier-3-1 open "/>








      <path d     = "M-87.5,1137.5 C-87.5,1312.5 0.0,1312.5 87.5,1137.5  "
            class = "bezier-3-1 open "/>








      <path d     = "M87.5,1312.5 C-87.5,1312.5 -87.5,1400.0 87.5,1487.5  "
            class = "bezier-3-1 open "/>








      <path d     = "M262.5,1487.5 C262.5,1312.5 175.0,1312.5 87.5,1487.5  "
            class = "bezier-3-1 open "/>








      <path d     = "M87.5,1662.5 C262.5,1662.5 262.5,1575.0 87.5,1487.5  "
            class = "bezier-3-1 open "/>








      <path d     = "M-87.5,1487.5 C-87.5,1662.5 0.0,1662.5 87.5,1487.5  "
            class = "bezier-3-1 open "/>








      <path d     = "M87.5,1662.5 C-87.5,1662.5 -87.5,1750.0 87.5,1837.5  "
            class = "bezier-3-1 open "/>








      <path d     = "M262.5,1837.5 C262.5,1662.5 175.0,1662.5 87.5,1837.5  "
            class = "bezier-3-1 open "/>








      <path d     = "M87.5,2012.5 C262.5,2012.5 262.5,1925.0 87.5,1837.5  "
            class = "bezier-3-1 open "/>








      <path d     = "M-87.5,1837.5 C-87.5,2012.5 0.0,2012.5 87.5,1837.5  "
            class = "bezier-3-1 open "/>








      <path d     = "M87.5,2012.5 C-87.5,2012.5 -87.5,2100.0 87.5,2187.5  "
            class = "bezier-3-1 open "/>








      <path d     = "M262.5,2187.5 C262.5,2012.5 175.0,2012.5 87.5,2187.5  "
            class = "bezier-3-1 open "/>








      <path d     = "M87.5,2362.5 C262.5,2362.5 262.5,2275.0 87.5,2187.5  "
            class = "bezier-3-1 open "/>








      <path d     = "M-87.5,2187.5 C-87.5,2362.5 0.0,2362.5 87.5,2187.5  "
            class = "bezier-3-1 open "/>








      <path d     = "M437.5,-87.5 C262.5,-87.5 262.5,0.0 437.5,87.5  "
            class = "bezier-3-1 open "/>








      <path d     = "M612.5,87.5 C612.5,-87.5 525.0,-87.5 437.5,87.5  "
            class = "bezier-3-1 open "/>








      <path d     = "M437.5,262.5 C612.5,262.5 612.5,175.0 437.5,87.5  "
            class = "bezier-3-1 open "/>








      <path d     = "M262.5,87.5 C262.5,262.5 350.0,262.5 437.5,87.5  "
            class = "bezier-3-1 open "/>








      <path d     = "M437.5,262.5 C262.5,262.5 262.5,350.0 437.5,437.5  "
            class = "bezier-3-1 open "/>








      <path d     = "M612.5,437.5 C612.5,262.5 525.0,262.5 437.5,437.5  "
            class = "bezier-3-1 open "/>








      <path d     = "M437.5,612.5 C612.5,612.5 612.5,525.0 437.5,437.5  "
            class = "bezier-3-1 open "/>








      <path d     = "M262.5,437.5 C262.5,612.5 350.0,612.5 437.5,437.5  "
            class = "bezier-3-1 open "/>








      <path d     = "M437.5,612.5 C262.5,612.5 262.5,700.0 437.5,787.5  "
            class = "bezier-3-1 open "/>








      <path d     = "M612.5,787.5 C612.5,612.5 525.0,612.5 437.5,787.5  "
            class = "bezier-3-1 open "/>








      <path d     = "M437.5,962.5 C612.5,962.5 612.5,875.0 437.5,787.5  "
            class = "bezier-3-1 open "/>








      <path d     = "M262.5,787.5 C262.5,962.5 350.0,962.5 437.5,787.5  "
            class = "bezier-3-1 open "/>








      <path d     = "M437.5,962.5 C262.5,962.5 262.5,1050.0 437.5,1137.5  "
            class = "bezier-3-1 open "/>








      <path d     = "M612.5,1137.5 C612.5,962.5 525.0,962.5 437.5,1137.5  "
            class = "bezier-3-1 open "/>








      <path d     = "M437.5,1312.5 C612.5,1312.5 612.5,1225.0 437.5,1137.5  "
            class = "bezier-3-1 open "/>








      <path d     = "M262.5,1137.5 C262.5,1312.5 350.0,1312.5 437.5,1137.5  "
            class = "bezier-3-1 open "/>








      <path d     = "M437.5,1312.5 C262.5,1312.5 262.5,1400.0 437.5,1487.5  "
            class = "bezier-3-1 open "/>








      <path d     = "M612.5,1487.5 C612.5,1312.5 525.0,1312.5 437.5,1487.5  "
            class = "bezier-3-1 open "/>








      <path d     = "M437.5,1662.5 C612.5,1662.5 612.5,1575.0 437.5,1487.5  "
            class = "bezier-3-1 open "/>








      <path d     = "M262.5,1487.5 C262.5,1662.5 350.0,1662.5 437.5,1487.5  "
            class = "bezier-3-1 open "/>








      <path d     = "M437.5,1662.5 C262.5,1662.5 262.5,1750.0 437.5,1837.5  "
            class = "bezier-3-1 open "/>








      <path d     = "M612.5,1837.5 C612.5,1662.5 525.0,1662.5 437.5,1837.5  "
            class = "bezier-3-1 open "/>








      <path d     = "M437.5,2012.5 C612.5,2012.5 612.5,1925.0 437.5,1837.5  "
            class = "bezier-3-1 open "/>








      <path d     = "M262.5,1837.5 C262.5,2012.5 350.0,2012.5 437.5,1837.5  "
            class = "bezier-3-1 open "/>








      <path d     = "M437.5,2012.5 C262.5,2012.5 262.5,2100.0 437.5,2187.5  "
            class = "bezier-3-1 open "/>








      <path d     = "M612.5,2187.5 C612.5,2012.5 525.0,2012.5 437.5,2187.5  "
            class = "bezier-3-1 open "/>








      <path d     = "M437.5,2362.5 C612.5,2362.5 612.5,2275.0 437.5,2187.5  "
            class = "bezier-3-1 open "/>








      <path d     = "M262.5,2187.5 C262.5,2362.5 350.0,2362.5 437.5,2187.5  "
            class = "bezier-3-1 open "/>








      <path d     = "M787.5,-87.5 C612.5,-87.5 612.5,0.0 787.5,87.5  "
            class = "bezier-3-1 open "/>








      <path d     = "M962.5,87.5 C962.5,-87.5 875.0,-87.5 787.5,87.5  "
            class = "bezier-3-1 open "/>








      <path d     = "M787.5,262.5 C962.5,262.5 962.5,175.0 787.5,87.5  "
            class = "bezier-3-1 open "/>








      <path d     = "M612.5,87.5 C612.5,262.5 700.0,262.5 787.5,87.5  "
            class = "bezier-3-1 open "/>








      <path d     = "M787.5,262.5 C612.5,262.5 612.5,350.0 787.5,437.5  "
            class = "bezier-3-1 open "/>








      <path d     = "M962.5,437.5 C962.5,262.5 875.0,262.5 787.5,437.5  "
            class = "bezier-3-1 open "/>








      <path d     = "M787.5,612.5 C962.5,612.5 962.5,525.0 787.5,437.5  "
            class = "bezier-3-1 open "/>








      <path d     = "M612.5,437.5 C612.5,612.5 700.0,612.5 787.5,437.5  "
            class = "bezier-3-1 open "/>








      <path d     = "M787.5,612.5 C612.5,612.5 612.5,700.0 787.5,787.5  "
            class = "bezier-3-1 open "/>








      <path d     = "M962.5,787.5 C962.5,612.5 875.0,612.5 787.5,787.5  "
            class = "bezier-3-1 open "/>








      <path d     = "M787.5,962.5 C962.5,962.5 962.5,875.0 787.5,787.5  "
            class = "bezier-3-1 open "/>








      <path d     = "M612.5,787.5 C612.5,962.5 700.0,962.5 787.5,787.5  "
            class = "bezier-3-1 open "/>








      <path d     = "M787.5,962.5 C612.5,962.5 612.5,1050.0 787.5,1137.5  "
            class = "bezier-3-1 open "/>








      <path d     = "M962.5,1137.5 C962.5,962.5 875.0,962.5 787.5,1137.5  "
            class = "bezier-3-1 open "/>








      <path d     = "M787.5,1312.5 C962.5,1312.5 962.5,1225.0 787.5,1137.5  "
            class = "bezier-3-1 open "/>








      <path d     = "M612.5,1137.5 C612.5,1312.5 700.0,1312.5 787.5,1137.5  "
            class = "bezier-3-1 open "/>








      <path d     = "M787.5,1312.5 C612.5,1312.5 612.5,1400.0 787.5,1487.5  "
            class = "bezier-3-1 open "/>








      <path d     = "M962.5,1487.5 C962.5,1312.5 875.0,1312.5 787.5,1487.5  "
            class = "bezier-3-1 open "/>








      <path d     = "M787.5,1662.5 C962.5,1662.5 962.5,1575.0 787.5,1487.5  "
            class = "bezier-3-1 open "/>








      <path d     = "M612.5,1487.5 C612.5,1662.5 700.0,1662.5 787.5,1487.5  "
            class = "bezier-3-1 open "/>








      <path d     = "M787.5,1662.5 C612.5,1662.5 612.5,1750.0 787.5,1837.5  "
            class = "bezier-3-1 open "/>








      <path d     = "M962.5,1837.5 C962.5,1662.5 875.0,1662.5 787.5,1837.5  "
            class = "bezier-3-1 open "/>








      <path d     = "M787.5,2012.5 C962.5,2012.5 962.5,1925.0 787.5,1837.5  "
            class = "bezier-3-1 open "/>








      <path d     = "M612.5,1837.5 C612.5,2012.5 700.0,2012.5 787.5,1837.5  "
            class = "bezier-3-1 open "/>








      <path d     = "M787.5,2012.5 C612.5,2012.5 612.5,2100.0 787.5,2187.5  "
            class = "bezier-3-1 open "/>








      <path d     = "M962.5,2187.5 C962.5,2012.5 875.0,2012.5 787.5,2187.5  "
            class = "bezier-3-1 open "/>








      <path d     = "M787.5,2362.5 C962.5,2362.5 962.5,2275.0 787.5,2187.5  "
            class = "bezier-3-1 open "/>








      <path d     = "M612.5,2187.5 C612.5,2362.5 700.0,2362.5 787.5,2187.5  "
            class = "bezier-3-1 open "/>








      <path d     = "M1137.5,-87.5 C962.5,-87.5 962.5,0.0 1137.5,87.5  "
            class = "bezier-3-1 open "/>








      <path d     = "M1312.5,87.5 C1312.5,-87.5 1225.0,-87.5 1137.5,87.5  "
            class = "bezier-3-1 open "/>








      <path d     = "M1137.5,262.5 C1312.5,262.5 1312.5,175.0 1137.5,87.5  "
            class = "bezier-3-1 open "/>








      <path d     = "M962.5,87.5 C962.5,262.5 1050.0,262.5 1137.5,87.5  "
            class = "bezier-3-1 open "/>








      <path d     = "M1137.5,262.5 C962.5,262.5 962.5,350.0 1137.5,437.5  "
            class = "bezier-3-1 open "/>








      <path d     = "M1312.5,437.5 C1312.5,262.5 1225.0,262.5 1137.5,437.5  "
            class = "bezier-3-1 open "/>








      <path d     = "M1137.5,612.5 C1312.5,612.5 1312.5,525.0 1137.5,437.5  "
            class = "bezier-3-1 open "/>








      <path d     = "M962.5,437.5 C962.5,612.5 1050.0,612.5 1137.5,437.5  "
            class = "bezier-3-1 open "/>








      <path d     = "M1137.5,612.5 C962.5,612.5 962.5,700.0 1137.5,787.5  "
            class = "bezier-3-1 open "/>








      <path d     = "M1312.5,787.5 C1312.5,612.5 1225.0,612.5 1137.5,787.5  "
            class = "bezier-3-1 open "/>








      <path d     = "M1137.5,962.5 C1312.5,962.5 1312.5,875.0 1137.5,787.5  "
            class = "bezier-3-1 open "/>








      <path d     = "M962.5,787.5 C962.5,962.5 1050.0,962.5 1137.5,787.5  "
            class = "bezier-3-1 open "/>








      <path d     = "M1137.5,962.5 C962.5,962.5 962.5,1050.0 1137.5,1137.5  "
            class = "bezier-3-1 open "/>








      <path d     = "M1312.5,1137.5 C1312.5,962.5 1225.0,962.5 1137.5,1137.5  "
            class = "bezier-3-1 open "/>








      <path d     = "M1137.5,1312.5 C1312.5,1312.5 1312.5,1225.0 1137.5,1137.5  "
            class = "bezier-3-1 open "/>








      <path d     = "M962.5,1137.5 C962.5,1312.5 1050.0,1312.5 1137.5,1137.5  "
            class = "bezier-3-1 open "/>








      <path d     = "M1137.5,1312.5 C962.5,1312.5 962.5,1400.0 1137.5,1487.5  "
            class = "bezier-3-1 open "/>








      <path d     = "M1312.5,1487.5 C1312.5,1312.5 1225.0,1312.5 1137.5,1487.5  "
            class = "bezier-3-1 open "/>








      <path d     = "M1137.5,1662.5 C1312.5,1662.5 1312.5,1575.0 1137.5,1487.5  "
            class = "bezier-3-1 open "/>








      <path d     = "M962.5,1487.5 C962.5,1662.5 1050.0,1662.5 1137.5,1487.5  "
            class = "bezier-3-1 open "/>








      <path d     = "M1137.5,1662.5 C962.5,1662.5 962.5,1750.0 1137.5,1837.5  "
            class = "bezier-3-1 open "/>








      <path d     = "M1312.5,1837.5 C1312.5,1662.5 1225.0,1662.5 1137.5,1837.5  "
            class = "bezier-3-1 open "/>








      <path d     = "M1137.5,2012.5 C1312.5,2012.5 1312.5,1925.0 1137.5,1837.5  "
            class = "bezier-3-1 open "/>








      <path d     = "M962.5,1837.5 C962.5,2012.5 1050.0,2012.5 1137.5,1837.5  "
            class = "bezier-3-1 open "/>








      <path d     = "M1137.5,2012.5 C962.5,2012.5 962.5,2100.0 1137.5,2187.5  "
            class = "bezier-3-1 open "/>








      <path d     = "M1312.5,2187.5 C1312.5,2012.5 1225.0,2012.5 1137.5,2187.5  "
            class = "bezier-3-1 open "/>








      <path d     = "M1137.5,2362.5 C1312.5,2362.5 1312.5,2275.0 1137.5,2187.5  "
            class = "bezier-3-1 open "/>








      <path d     = "M962.5,2187.5 C962.5,2362.5 1050.0,2362.5 1137.5,2187.5  "
            class = "bezier-3-1 open "/>








      <path d     = "M1487.5,-87.5 C1312.5,-87.5 1312.5,0.0 1487.5,87.5  "
            class = "bezier-3-1 open "/>








      <path d     = "M1662.5,87.5 C1662.5,-87.5 1575.0,-87.5 1487.5,87.5  "
            class = "bezier-3-1 open "/>








      <path d     = "M1487.5,262.5 C1662.5,262.5 1662.5,175.0 1487.5,87.5  "
            class = "bezier-3-1 open "/>








      <path d     = "M1312.5,87.5 C1312.5,262.5 1400.0,262.5 1487.5,87.5  "
            class = "bezier-3-1 open "/>








      <path d     = "M1487.5,262.5 C1312.5,262.5 1312.5,350.0 1487.5,437.5  "
            class = "bezier-3-1 open "/>








      <path d     = "M1662.5,437.5 C1662.5,262.5 1575.0,262.5 1487.5,437.5  "
            class = "bezier-3-1 open "/>








      <path d     = "M1487.5,612.5 C1662.5,612.5 1662.5,525.0 1487.5,437.5  "
            class = "bezier-3-1 open "/>








      <path d     = "M1312.5,437.5 C1312.5,612.5 1400.0,612.5 1487.5,437.5  "
            class = "bezier-3-1 open "/>








      <path d     = "M1487.5,612.5 C1312.5,612.5 1312.5,700.0 1487.5,787.5  "
            class = "bezier-3-1 open "/>








      <path d     = "M1662.5,787.5 C1662.5,612.5 1575.0,612.5 1487.5,787.5  "
            class = "bezier-3-1 open "/>








      <path d     = "M1487.5,962.5 C1662.5,962.5 1662.5,875.0 1487.5,787.5  "
            class = "bezier-3-1 open "/>








      <path d     = "M1312.5,787.5 C1312.5,962.5 1400.0,962.5 1487.5,787.5  "
            class = "bezier-3-1 open "/>








      <path d     = "M1487.5,962.5 C1312.5,962.5 1312.5,1050.0 1487.5,1137.5  "
            class = "bezier-3-1 open "/>








      <path d     = "M1662.5,1137.5 C1662.5,962.5 1575.0,962.5 1487.5,1137.5  "
            class = "bezier-3-1 open "/>








      <path d     = "M1487.5,1312.5 C1662.5,1312.5 1662.5,1225.0 1487.5,1137.5  "
            class = "bezier-3-1 open "/>








      <path d     = "M1312.5,1137.5 C1312.5,1312.5 1400.0,1312.5 1487.5,1137.5  "
            class = "bezier-3-1 open "/>








      <path d     = "M1487.5,1312.5 C1312.5,1312.5 1312.5,1400.0 1487.5,1487.5  "
            class = "bezier-3-1 open "/>








      <path d     = "M1662.5,1487.5 C1662.5,1312.5 1575.0,1312.5 1487.5,1487.5  "
            class = "bezier-3-1 open "/>








      <path d     = "M1487.5,1662.5 C1662.5,1662.5 1662.5,1575.0 1487.5,1487.5  "
            class = "bezier-3-1 open "/>








      <path d     = "M1312.5,1487.5 C1312.5,1662.5 1400.0,1662.5 1487.5,1487.5  "
            class = "bezier-3-1 open "/>








      <path d     = "M1487.5,1662.5 C1312.5,1662.5 1312.5,1750.0 1487.5,1837.5  "
            class = "bezier-3-1 open "/>








      <path d     = "M1662.5,1837.5 C1662.5,1662.5 1575.0,1662.5 1487.5,1837.5  "
            class = "bezier-3-1 open "/>








      <path d     = "M1487.5,2012.5 C1662.5,2012.5 1662.5,1925.0 1487.5,1837.5  "
            class = "bezier-3-1 open "/>








      <path d     = "M1312.5,1837.5 C1312.5,2012.5 1400.0,2012.5 1487.5,1837.5  "
            class = "bezier-3-1 open "/>








      <path d     = "M1487.5,2012.5 C1312.5,2012.5 1312.5,2100.0 1487.5,2187.5  "
            class = "bezier-3-1 open "/>








      <path d     = "M1662.5,2187.5 C1662.5,2012.5 1575.0,2012.5 1487.5,2187.5  "
            class = "bezier-3-1 open "/>








      <path d     = "M1487.5,2362.5 C1662.5,2362.5 1662.5,2275.0 1487.5,2187.5  "
            class = "bezier-3-1 open "/>








      <path d     = "M1312.5,2187.5 C1312.5,2362.5 1400.0,2362.5 1487.5,2187.5  "
            class = "bezier-3-1 open "/>








      <path d     = "M1837.5,-87.5 C1662.5,-87.5 1662.5,0.0 1837.5,87.5  "
            class = "bezier-3-1 open "/>








      <path d     = "M2012.5,87.5 C2012.5,-87.5 1925.0,-87.5 1837.5,87.5  "
            class = "bezier-3-1 open "/>








      <path d     = "M1837.5,262.5 C2012.5,262.5 2012.5,175.0 1837.5,87.5  "
            class = "bezier-3-1 open "/>








      <path d     = "M1662.5,87.5 C1662.5,262.5 1750.0,262.5 1837.5,87.5  "
            class = "bezier-3-1 open "/>








      <path d     = "M1837.5,262.5 C1662.5,262.5 1662.5,350.0 1837.5,437.5  "
            class = "bezier-3-1 open "/>








      <path d     = "M2012.5,437.5 C2012.5,262.5 1925.0,262.5 1837.5,437.5  "
            class = "bezier-3-1 open "/>








      <path d     = "M1837.5,612.5 C2012.5,612.5 2012.5,525.0 1837.5,437.5  "
            class = "bezier-3-1 open "/>








      <path d     = "M1662.5,437.5 C1662.5,612.5 1750.0,612.5 1837.5,437.5  "
            class = "bezier-3-1 open "/>








      <path d     = "M1837.5,612.5 C1662.5,612.5 1662.5,700.0 1837.5,787.5  "
            class = "bezier-3-1 open "/>








      <path d     = "M2012.5,787.5 C2012.5,612.5 1925.0,612.5 1837.5,787.5  "
            class = "bezier-3-1 open "/>








      <path d     = "M1837.5,962.5 C2012.5,962.5 2012.5,875.0 1837.5,787.5  "
            class = "bezier-3-1 open "/>








      <path d     = "M1662.5,787.5 C1662.5,962.5 1750.0,962.5 1837.5,787.5  "
            class = "bezier-3-1 open "/>








      <path d     = "M1837.5,962.5 C1662.5,962.5 1662.5,1050.0 1837.5,1137.5  "
            class = "bezier-3-1 open "/>








      <path d     = "M2012.5,1137.5 C2012.5,962.5 1925.0,962.5 1837.5,1137.5  "
            class = "bezier-3-1 open "/>








      <path d     = "M1837.5,1312.5 C2012.5,1312.5 2012.5,1225.0 1837.5,1137.5  "
            class = "bezier-3-1 open "/>








      <path d     = "M1662.5,1137.5 C1662.5,1312.5 1750.0,1312.5 1837.5,1137.5  "
            class = "bezier-3-1 open "/>








      <path d     = "M1837.5,1312.5 C1662.5,1312.5 1662.5,1400.0 1837.5,1487.5  "
            class = "bezier-3-1 open "/>








      <path d     = "M2012.5,1487.5 C2012.5,1312.5 1925.0,1312.5 1837.5,1487.5  "
            class = "bezier-3-1 open "/>








      <path d     = "M1837.5,1662.5 C2012.5,1662.5 2012.5,1575.0 1837.5,1487.5  "
            class = "bezier-3-1 open "/>








      <path d     = "M1662.5,1487.5 C1662.5,1662.5 1750.0,1662.5 1837.5,1487.5  "
            class = "bezier-3-1 open "/>








      <path d     = "M1837.5,1662.5 C1662.5,1662.5 1662.5,1750.0 1837.5,1837.5  "
            class = "bezier-3-1 open "/>








      <path d     = "M2012.5,1837.5 C2012.5,1662.5 1925.0,1662.5 1837.5,1837.5  "
            class = "bezier-3-1 open "/>








      <path d     = "M1837.5,2012.5 C2012.5,2012.5 2012.5,1925.0 1837.5,1837.5  "
            class = "bezier-3-1 open "/>








      <path d     = "M1662.5,1837.5 C1662.5,2012.5 1750.0,2012.5 1837.5,1837.5  "
            class = "bezier-3-1 open "/>








      <path d     = "M1837.5,2012.5 C1662.5,2012.5 1662.5,2100.0 1837.5,2187.5  "
            class = "bezier-3-1 open "/>








      <path d     = "M2012.5,2187.5 C2012.5,2012.5 1925.0,2012.5 1837.5,2187.5  "
            class = "bezier-3-1 open "/>








      <path d     = "M1837.5,2362.5 C2012.5,2362.5 2012.5,2275.0 1837.5,2187.5  "
            class = "bezier-3-1 open "/>








      <path d     = "M1662.5,2187.5 C1662.5,2362.5 1750.0,2362.5 1837.5,2187.5  "
            class = "bezier-3-1 open "/>








      <path d     = "M2187.5,-87.5 C2012.5,-87.5 2012.5,0.0 2187.5,87.5  "
            class = "bezier-3-1 open "/>








      <path d     = "M2362.5,87.5 C2362.5,-87.5 2275.0,-87.5 2187.5,87.5  "
            class = "bezier-3-1 open "/>








      <path d     = "M2187.5,262.5 C2362.5,262.5 2362.5,175.0 2187.5,87.5  "
            class = "bezier-3-1 open "/>








      <path d     = "M2012.5,87.5 C2012.5,262.5 2100.0,262.5 2187.5,87.5  "
            class = "bezier-3-1 open "/>








      <path d     = "M2187.5,262.5 C2012.5,262.5 2012.5,350.0 2187.5,437.5  "
            class = "bezier-3-1 open "/>








      <path d     = "M2362.5,437.5 C2362.5,262.5 2275.0,262.5 2187.5,437.5  "
            class = "bezier-3-1 open "/>








      <path d     = "M2187.5,612.5 C2362.5,612.5 2362.5,525.0 2187.5,437.5  "
            class = "bezier-3-1 open "/>








      <path d     = "M2012.5,437.5 C2012.5,612.5 2100.0,612.5 2187.5,437.5  "
            class = "bezier-3-1 open "/>








      <path d     = "M2187.5,612.5 C2012.5,612.5 2012.5,700.0 2187.5,787.5  "
            class = "bezier-3-1 open "/>








      <path d     = "M2362.5,787.5 C2362.5,612.5 2275.0,612.5 2187.5,787.5  "
            class = "bezier-3-1 open "/>








      <path d     = "M2187.5,962.5 C2362.5,962.5 2362.5,875.0 2187.5,787.5  "
            class = "bezier-3-1 open "/>








      <path d     = "M2012.5,787.5 C2012.5,962.5 2100.0,962.5 2187.5,787.5  "
            class = "bezier-3-1 open "/>








      <path d     = "M2187.5,962.5 C2012.5,962.5 2012.5,1050.0 2187.5,1137.5  "
            class = "bezier-3-1 open "/>








      <path d     = "M2362.5,1137.5 C2362.5,962.5 2275.0,962.5 2187.5,1137.5  "
            class = "bezier-3-1 open "/>








      <path d     = "M2187.5,1312.5 C2362.5,1312.5 2362.5,1225.0 2187.5,1137.5  "
            class = "bezier-3-1 open "/>








      <path d     = "M2012.5,1137.5 C2012.5,1312.5 2100.0,1312.5 2187.5,1137.5  "
            class = "bezier-3-1 open "/>








      <path d     = "M2187.5,1312.5 C2012.5,1312.5 2012.5,1400.0 2187.5,1487.5  "
            class = "bezier-3-1 open "/>








      <path d     = "M2362.5,1487.5 C2362.5,1312.5 2275.0,1312.5 2187.5,1487.5  "
            class = "bezier-3-1 open "/>








      <path d     = "M2187.5,1662.5 C2362.5,1662.5 2362.5,1575.0 2187.5,1487.5  "
            class = "bezier-3-1 open "/>








      <path d     = "M2012.5,1487.5 C2012.5,1662.5 2100.0,1662.5 2187.5,1487.5  "
            class = "bezier-3-1 open "/>








      <path d     = "M2187.5,1662.5 C2012.5,1662.5 2012.5,1750.0 2187.5,1837.5  "
            class = "bezier-3-1 open "/>








      <path d     = "M2362.5,1837.5 C2362.5,1662.5 2275.0,1662.5 2187.5,1837.5  "
            class = "bezier-3-1 open "/>








      <path d     = "M2187.5,2012.5 C2362.5,2012.5 2362.5,1925.0 2187.5,1837.5  "
            class = "bezier-3-1 open "/>








      <path d     = "M2012.5,1837.5 C2012.5,2012.5 2100.0,2012.5 2187.5,1837.5  "
            class = "bezier-3-1 open "/>








      <path d     = "M2187.5,2012.5 C2012.5,2012.5 2012.5,2100.0 2187.5,2187.5  "
            class = "bezier-3-1 open "/>








      <path d     = "M2362.5,2187.5 C2362.5,2012.5 2275.0,2012.5 2187.5,2187.5  "
            class = "bezier-3-1 open "/>








      <path d     = "M2187.5,2362.5 C2362.5,2362.5 2362.5,2275.0 2187.5,2187.5  "
            class = "bezier-3-1 open "/>








      <path d     = "M2012.5,2187.5 C2012.5,2362.5 2100.0,2362.5 2187.5,2187.5  "
            class = "bezier-3-1 open "/>








      <path d     = "M2537.5,-87.5 C2362.5,-87.5 2362.5,0.0 2537.5,87.5  "
            class = "bezier-3-1 open "/>








      <path d     = "M2712.5,87.5 C2712.5,-87.5 2625.0,-87.5 2537.5,87.5  "
            class = "bezier-3-1 open "/>








      <path d     = "M2537.5,262.5 C2712.5,262.5 2712.5,175.0 2537.5,87.5  "
            class = "bezier-3-1 open "/>








      <path d     = "M2362.5,87.5 C2362.5,262.5 2450.0,262.5 2537.5,87.5  "
            class = "bezier-3-1 open "/>








      <path d     = "M2537.5,262.5 C2362.5,262.5 2362.5,350.0 2537.5,437.5  "
            class = "bezier-3-1 open "/>








      <path d     = "M2712.5,437.5 C2712.5,262.5 2625.0,262.5 2537.5,437.5  "
            class = "bezier-3-1 open "/>








      <path d     = "M2537.5,612.5 C2712.5,612.5 2712.5,525.0 2537.5,437.5  "
            class = "bezier-3-1 open "/>








      <path d     = "M2362.5,437.5 C2362.5,612.5 2450.0,612.5 2537.5,437.5  "
            class = "bezier-3-1 open "/>








      <path d     = "M2537.5,612.5 C2362.5,612.5 2362.5,700.0 2537.5,787.5  "
            class = "bezier-3-1 open "/>








      <path d     = "M2712.5,787.5 C2712.5,612.5 2625.0,612.5 2537.5,787.5  "
            class = "bezier-3-1 open "/>








      <path d     = "M2537.5,962.5 C2712.5,962.5 2712.5,875.0 2537.5,787.5  "
            class = "bezier-3-1 open "/>








      <path d     = "M2362.5,787.5 C2362.5,962.5 2450.0,962.5 2537.5,787.5  "
            class = "bezier-3-1 open "/>








      <path d     = "M2537.5,962.5 C2362.5,962.5 2362.5,1050.0 2537.5,1137.5  "
            class = "bezier-3-1 open "/>








      <path d     = "M2712.5,1137.5 C2712.5,962.5 2625.0,962.5 2537.5,1137.5  "
            class = "bezier-3-1 open "/>








      <path d     = "M2537.5,1312.5 C2712.5,1312.5 2712.5,1225.0 2537.5,1137.5  "
            class = "bezier-3-1 open "/>








      <path d     = "M2362.5,1137.5 C2362.5,1312.5 2450.0,1312.5 2537.5,1137.5  "
            class = "bezier-3-1 open "/>








      <path d     = "M2537.5,1312.5 C2362.5,1312.5 2362.5,1400.0 2537.5,1487.5  "
            class = "bezier-3-1 open "/>








      <path d     = "M2712.5,1487.5 C2712.5,1312.5 2625.0,1312.5 2537.5,1487.5  "
            class = "bezier-3-1 open "/>








      <path d     = "M2537.5,1662.5 C2712.5,1662.5 2712.5,1575.0 2537.5,1487.5  "
            class = "bezier-3-1 open "/>








      <path d     = "M2362.5,1487.5 C2362.5,1662.5 2450.0,1662.5 2537.5,1487.5  "
            class = "bezier-3-1 open "/>








      <path d     = "M2537.5,1662.5 C2362.5,1662.5 2362.5,1750.0 2537.5,1837.5  "
            class = "bezier-3-1 open "/>








      <path d     = "M2712.5,1837.5 C2712.5,1662.5 2625.0,1662.5 2537.5,1837.5  "
            class = "bezier-3-1 open "/>








      <path d     = "M2537.5,2012.5 C2712.5,2012.5 2712.5,1925.0 2537.5,1837.5  "
            class = "bezier-3-1 open "/>








      <path d     = "M2362.5,1837.5 C2362.5,2012.5 2450.0,2012.5 2537.5,1837.5  "
            class = "bezier-3-1 open "/>








      <path d     = "M2537.5,2012.5 C2362.5,2012.5 2362.5,2100.0 2537.5,2187.5  "
            class = "bezier-3-1 open "/>








      <path d     = "M2712.5,2187.5 C2712.5,2012.5 2625.0,2012.5 2537.5,2187.5  "
            class = "bezier-3-1 open "/>








      <path d     = "M2537.5,2362.5 C2712.5,2362.5 2712.5,2275.0 2537.5,2187.5  "
            class = "bezier-3-1 open "/>








      <path d     = "M2362.5,2187.5 C2362.5,2362.5 2450.0,2362.5 2537.5,2187.5  "
            class = "bezier-3-1 open "/>








      <path d     = "M2887.5,-87.5 C2712.5,-87.5 2712.5,0.0 2887.5,87.5  "
            class = "bezier-3-1 open "/>








      <path d     = "M3062.5,87.5 C3062.5,-87.5 2975.0,-87.5 2887.5,87.5  "
            class = "bezier-3-1 open "/>








      <path d     = "M2887.5,262.5 C3062.5,262.5 3062.5,175.0 2887.5,87.5  "
            class = "bezier-3-1 open "/>








      <path d     = "M2712.5,87.5 C2712.5,262.5 2800.0,262.5 2887.5,87.5  "
            class = "bezier-3-1 open "/>








      <path d     = "M2887.5,262.5 C2712.5,262.5 2712.5,350.0 2887.5,437.5  "
            class = "bezier-3-1 open "/>








      <path d     = "M3062.5,437.5 C3062.5,262.5 2975.0,262.5 2887.5,437.5  "
            class = "bezier-3-1 open "/>








      <path d     = "M2887.5,612.5 C3062.5,612.5 3062.5,525.0 2887.5,437.5  "
            class = "bezier-3-1 open "/>








      <path d     = "M2712.5,437.5 C2712.5,612.5 2800.0,612.5 2887.5,437.5  "
            class = "bezier-3-1 open "/>








      <path d     = "M2887.5,612.5 C2712.5,612.5 2712.5,700.0 2887.5,787.5  "
            class = "bezier-3-1 open "/>








      <path d     = "M3062.5,787.5 C3062.5,612.5 2975.0,612.5 2887.5,787.5  "
            class = "bezier-3-1 open "/>








      <path d     = "M2887.5,962.5 C3062.5,962.5 3062.5,875.0 2887.5,787.5  "
            class = "bezier-3-1 open "/>








      <path d     = "M2712.5,787.5 C2712.5,962.5 2800.0,962.5 2887.5,787.5  "
            class = "bezier-3-1 open "/>








      <path d     = "M2887.5,962.5 C2712.5,962.5 2712.5,1050.0 2887.5,1137.5  "
            class = "bezier-3-1 open "/>








      <path d     = "M3062.5,1137.5 C3062.5,962.5 2975.0,962.5 2887.5,1137.5  "
            class = "bezier-3-1 open "/>








      <path d     = "M2887.5,1312.5 C3062.5,1312.5 3062.5,1225.0 2887.5,1137.5  "
            class = "bezier-3-1 open "/>








      <path d     = "M2712.5,1137.5 C2712.5,1312.5 2800.0,1312.5 2887.5,1137.5  "
            class = "bezier-3-1 open "/>








      <path d     = "M2887.5,1312.5 C2712.5,1312.5 2712.5,1400.0 2887.5,1487.5  "
            class = "bezier-3-1 open "/>








      <path d     = "M3062.5,1487.5 C3062.5,1312.5 2975.0,1312.5 2887.5,1487.5  "
            class = "bezier-3-1 open "/>








      <path d     = "M2887.5,1662.5 C3062.5,1662.5 3062.5,1575.0 2887.5,1487.5  "
            class = "bezier-3-1 open "/>








      <path d     = "M2712.5,1487.5 C2712.5,1662.5 2800.0,1662.5 2887.5,1487.5  "
            class = "bezier-3-1 open "/>








      <path d     = "M2887.5,1662.5 C2712.5,1662.5 2712.5,1750.0 2887.5,1837.5  "
            class = "bezier-3-1 open "/>








      <path d     = "M3062.5,1837.5 C3062.5,1662.5 2975.0,1662.5 2887.5,1837.5  "
            class = "bezier-3-1 open "/>








      <path d     = "M2887.5,2012.5 C3062.5,2012.5 3062.5,1925.0 2887.5,1837.5  "
            class = "bezier-3-1 open "/>








      <path d     = "M2712.5,1837.5 C2712.5,2012.5 2800.0,2012.5 2887.5,1837.5  "
            class = "bezier-3-1 open "/>








      <path d     = "M2887.5,2012.5 C2712.5,2012.5 2712.5,2100.0 2887.5,2187.5  "
            class = "bezier-3-1 open "/>








      <path d     = "M3062.5,2187.5 C3062.5,2012.5 2975.0,2012.5 2887.5,2187.5  "
            class = "bezier-3-1 open "/>








      <path d     = "M2887.5,2362.5 C3062.5,2362.5 3062.5,2275.0 2887.5,2187.5  "
            class = "bezier-3-1 open "/>








      <path d     = "M2712.5,2187.5 C2712.5,2362.5 2800.0,2362.5 2887.5,2187.5  "
            class = "bezier-3-1 open "/>








      <path d     = "M3237.5,-87.5 C3062.5,-87.5 3062.5,0.0 3237.5,87.5  "
            class = "bezier-3-1 open "/>








      <path d     = "M3412.5,87.5 C3412.5,-87.5 3325.0,-87.5 3237.5,87.5  "
            class = "bezier-3-1 open "/>








      <path d     = "M3237.5,262.5 C3412.5,262.5 3412.5,175.0 3237.5,87.5  "
            class = "bezier-3-1 open "/>








      <path d     = "M3062.5,87.5 C3062.5,262.5 3150.0,262.5 3237.5,87.5  "
            class = "bezier-3-1 open "/>








      <path d     = "M3237.5,262.5 C3062.5,262.5 3062.5,350.0 3237.5,437.5  "
            class = "bezier-3-1 open "/>








      <path d     = "M3412.5,437.5 C3412.5,262.5 3325.0,262.5 3237.5,437.5  "
            class = "bezier-3-1 open "/>








      <path d     = "M3237.5,612.5 C3412.5,612.5 3412.5,525.0 3237.5,437.5  "
            class = "bezier-3-1 open "/>








      <path d     = "M3062.5,437.5 C3062.5,612.5 3150.0,612.5 3237.5,437.5  "
            class = "bezier-3-1 open "/>








      <path d     = "M3237.5,612.5 C3062.5,612.5 3062.5,700.0 3237.5,787.5  "
            class = "bezier-3-1 open "/>








      <path d     = "M3412.5,787.5 C3412.5,612.5 3325.0,612.5 3237.5,787.5  "
            class = "bezier-3-1 open "/>








      <path d     = "M3237.5,962.5 C3412.5,962.5 3412.5,875.0 3237.5,787.5  "
            class = "bezier-3-1 open "/>








      <path d     = "M3062.5,787.5 C3062.5,962.5 3150.0,962.5 3237.5,787.5  "
            class = "bezier-3-1 open "/>








      <path d     = "M3237.5,962.5 C3062.5,962.5 3062.5,1050.0 3237.5,1137.5  "
            class = "bezier-3-1 open "/>








      <path d     = "M3412.5,1137.5 C3412.5,962.5 3325.0,962.5 3237.5,1137.5  "
            class = "bezier-3-1 open "/>








      <path d     = "M3237.5,1312.5 C3412.5,1312.5 3412.5,1225.0 3237.5,1137.5  "
            class = "bezier-3-1 open "/>








      <path d     = "M3062.5,1137.5 C3062.5,1312.5 3150.0,1312.5 3237.5,1137.5  "
            class = "bezier-3-1 open "/>








      <path d     = "M3237.5,1312.5 C3062.5,1312.5 3062.5,1400.0 3237.5,1487.5  "
            class = "bezier-3-1 open "/>








      <path d     = "M3412.5,1487.5 C3412.5,1312.5 3325.0,1312.5 3237.5,1487.5  "
            class = "bezier-3-1 open "/>








      <path d     = "M3237.5,1662.5 C3412.5,1662.5 3412.5,1575.0 3237.5,1487.5  "
            class = "bezier-3-1 open "/>








      <path d     = "M3062.5,1487.5 C3062.5,1662.5 3150.0,1662.5 3237.5,1487.5  "
            class = "bezier-3-1 open "/>








      <path d     = "M3237.5,1662.5 C3062.5,1662.5 3062.5,1750.0 3237.5,1837.5  "
            class = "bezier-3-1 open "/>








      <path d     = "M3412.5,1837.5 C3412.5,1662.5 3325.0,1662.5 3237.5,1837.5  "
            class = "bezier-3-1 open "/>








      <path d     = "M3237.5,2012.5 C3412.5,2012.5 3412.5,1925.0 3237.5,1837.5  "
            class = "bezier-3-1 open "/>








      <path d     = "M3062.5,1837.5 C3062.5,2012.5 3150.0,2012.5 3237.5,1837.5  "
            class = "bezier-3-1 open "/>








      <path d     = "M3237.5,2012.5 C3062.5,2012.5 3062.5,2100.0 3237.5,2187.5  "
            class = "bezier-3-1 open "/>








      <path d     = "M3412.5,2187.5 C3412.5,2012.5 3325.0,2012.5 3237.5,2187.5  "
            class = "bezier-3-1 open "/>








      <path d     = "M3237.5,2362.5 C3412.5,2362.5 3412.5,2275.0 3237.5,2187.5  "
            class = "bezier-3-1 open "/>








      <path d     = "M3062.5,2187.5 C3062.5,2362.5 3150.0,2362.5 3237.5,2187.5  "
            class = "bezier-3-1 open "/>






  </g>
</svg>
